{
  "time": 1633781758049,
  "first10": [
    {
      "userId": 45513660839325700,
      "score": 170000414,
      "rank": 1,
      "isOwn": false,
      "name": "もみじ。",
      "userCard": {
        "cardId": 291,
        "level": 60,
        "masterRank": 5,
        "specialTrainingStatus": "done",
        "defaultImage": "special_training"
      },
      "userProfile": {
        "userId": 45513660839325700,
        "word": "尊敬する貴女のイベントでここに立てて最高に幸せです……！",
        "honorId1": 18,
        "honorLevel1": 4,
        "honorId2": 34,
        "honorLevel2": 3,
        "honorId3": 54,
        "honorLevel3": 3,
        "twitterId": "momimaru19339",
        "profileImageType": "leader"
      },
      "userCheerfulCarnival": {
        "eventId": 36,
        "cheerfulCarnivalTeamId": 14,
        "teamChangeCount": 1,
        "registerAt": 1633068781143
      }
    },
    {
      "userId": 5264523754176512,
      "score": 158731414,
      "rank": 2,
      "isOwn": false,
      "name": "なな",
      "userCard": {
        "cardId": 292,
        "level": 60,
        "masterRank": 5,
        "specialTrainingStatus": "done",
        "defaultImage": "original"
      },
      "userProfile": {
        "userId": 5264523754176512,
        "word": "おめでとう！",
        "honorId1": 34,
        "honorLevel1": 4,
        "honorId2": 18,
        "honorLevel2": 3,
        "honorId3": 14,
        "honorLevel3": 2,
        "twitterId": "nana_on_7",
        "profileImageType": "leader"
      },
      "userCheerfulCarnival": {
        "eventId": 36,
        "cheerfulCarnivalTeamId": 14,
        "teamChangeCount": 1,
        "registerAt": 1633068991111
      }
    },
    {
      "userId": 5930988547432449,
      "score": 141400414,
      "rank": 3,
      "isOwn": false,
      "name": "Show",
      "userCard": {
        "cardId": 180,
        "level": 60,
        "masterRank": 0,
        "specialTrainingStatus": "done",
        "defaultImage": "original"
      },
      "userProfile": {
        "userId": 5930988547432449,
        "word": "よろしくお願いします！",
        "honorId1": 18,
        "honorLevel1": 3,
        "honorId2": 62,
        "honorLevel2": 2,
        "honorId3": 147,
        "honorLevel3": 1,
        "twitterId": "Upamaster",
        "profileImageType": "leader"
      },
      "userCheerfulCarnival": {
        "eventId": 36,
        "cheerfulCarnivalTeamId": 14,
        "teamChangeCount": 1,
        "registerAt": 1633068037211
      }
    },
    {
      "userId": 5222407590264834,
      "score": 133333333,
      "rank": 4,
      "isOwn": false,
      "name": "アアアァァァイ！",
      "userCard": {
        "cardId": 294,
        "level": 50,
        "masterRank": 5,
        "specialTrainingStatus": "done",
        "defaultImage": "special_training"
      },
      "userProfile": {
        "userId": 5222407590264834,
        "word": "",
        "honorId1": 66,
        "honorLevel1": 4,
        "honorId2": 573,
        "honorLevel2": 1,
        "honorId3": 863,
        "honorLevel3": 1,
        "twitterId": "",
        "profileImageType": "leader"
      },
      "userCheerfulCarnival": {
        "eventId": 36,
        "cheerfulCarnivalTeamId": 13,
        "teamChangeCount": 0,
        "registerAt": 1633068946277
      }
    },
    {
      "userId": 5925872033521674,
      "score": 131452039,
      "rank": 5,
      "isOwn": false,
      "name": "5v*薬",
      "userCard": {
        "cardId": 126,
        "level": 60,
        "masterRank": 5,
        "specialTrainingStatus": "done",
        "defaultImage": "special_training"
      },
      "userProfile": {
        "userId": 5925872033521674,
        "word": "啊…被我猜中你真的在偷看排名追蹤器 好色喔",
        "honorId1": 127,
        "honorLevel1": 1,
        "honorId2": 187,
        "honorLevel2": 1,
        "honorId3": 363,
        "honorLevel3": 1,
        "twitterId": "",
        "profileImageType": "leader"
      },
      "userCheerfulCarnival": {
        "eventId": 36,
        "cheerfulCarnivalTeamId": 14,
        "teamChangeCount": 0,
        "registerAt": 1633069849457
      }
    },
    {
      "userId": 24779263345635344,
      "score": 125887255,
      "rank": 6,
      "isOwn": false,
      "name": "るかん",
      "userCard": {
        "cardId": 291,
        "level": 60,
        "masterRank": 5,
        "specialTrainingStatus": "done",
        "defaultImage": "original"
      },
      "userProfile": {
        "userId": 24779263345635344,
        "word": "",
        "honorId1": 18,
        "honorLevel1": 2,
        "honorId2": 787,
        "honorLevel2": 1,
        "honorId3": 123,
        "honorLevel3": 5,
        "twitterId": "",
        "profileImageType": "leader"
      },
      "userCheerfulCarnival": {
        "eventId": 36,
        "cheerfulCarnivalTeamId": 14,
        "teamChangeCount": 0,
        "registerAt": 1633068054891
      }
    },
    {
      "userId": 6733952408756231,
      "score": 123456790,
      "rank": 7,
      "isOwn": false,
      "name": "Dear実装祈願祭",
      "userCard": {
        "cardId": 149,
        "level": 60,
        "masterRank": 5,
        "specialTrainingStatus": "done",
        "defaultImage": "special_training"
      },
      "userProfile": {
        "userId": 6733952408756231,
        "word": "野良勢最後の挑戦",
        "honorId1": 82,
        "honorLevel1": 1,
        "honorId2": 190,
        "honorLevel2": 1,
        "honorId3": 110,
        "honorLevel3": 1,
        "twitterId": "",
        "profileImageType": "leader"
      },
      "userCheerfulCarnival": {
        "eventId": 36,
        "cheerfulCarnivalTeamId": 13,
        "teamChangeCount": 0,
        "registerAt": 1633069665100
      }
    },
    {
      "userId": 36072685616271370,
      "score": 120000414,
      "rank": 8,
      "isOwn": false,
      "name": "みくる",
      "userCard": {
        "cardId": 291,
        "level": 60,
        "masterRank": 5,
        "specialTrainingStatus": "done",
        "defaultImage": "original"
      },
      "userProfile": {
        "userId": 36072685616271370,
        "word": "みのりちゃんが好き！",
        "honorId1": 637,
        "honorLevel1": 1,
        "honorId2": 18,
        "honorLevel2": 3,
        "honorId3": 34,
        "honorLevel3": 2,
        "twitterId": "",
        "profileImageType": "leader"
      },
      "userCheerfulCarnival": {
        "eventId": 36,
        "cheerfulCarnivalTeamId": 14,
        "teamChangeCount": 1,
        "registerAt": 1633068714851
      }
    },
    {
      "userId": 5545601106313217,
      "score": 120000414,
      "rank": 9,
      "isOwn": false,
      "name": "5v*桐谷みのり",
      "userCard": {
        "cardId": 291,
        "level": 60,
        "masterRank": 5,
        "specialTrainingStatus": "done",
        "defaultImage": "original"
      },
      "userProfile": {
        "userId": 5545601106313217,
        "word": "みのり！！！天使！！！",
        "honorId1": 637,
        "honorLevel1": 1,
        "honorId2": 18,
        "honorLevel2": 3,
        "honorId3": 22,
        "honorLevel3": 3,
        "twitterId": "",
        "profileImageType": "leader"
      },
      "userCheerfulCarnival": {
        "eventId": 36,
        "cheerfulCarnivalTeamId": 14,
        "teamChangeCount": 0,
        "registerAt": 1633070112609
      }
    },
    {
      "userId": 5189599643508738,
      "score": 118858423,
      "rank": 10,
      "isOwn": false,
      "name": "ぺろち@10ランなう",
      "userCard": {
        "cardId": 292,
        "level": 60,
        "masterRank": 5,
        "specialTrainingStatus": "done",
        "defaultImage": "special_training"
      },
      "userProfile": {
        "userId": 5189599643508738,
        "word": "プロセカ初のイベランがんばりゅ！！ソロで限界に挑戦してます",
        "honorId1": 123,
        "honorLevel1": 5,
        "honorId2": 357,
        "honorLevel2": 1,
        "honorId3": 112,
        "honorLevel3": 1,
        "twitterId": "PEROCHI_htmm",
        "profileImageType": "leader"
      },
      "userCheerfulCarnival": {
        "eventId": 36,
        "cheerfulCarnivalTeamId": 14,
        "teamChangeCount": 0,
        "registerAt": 1633069106689
      }
    }
  ],
  "rank20": [
    {
      "userId": 5201273004089352,
      "score": 86003020,
      "rank": 20,
      "isOwn": false,
      "name": "5v*一緒",
      "userCard": {
        "cardId": 144,
        "level": 60,
        "masterRank": 0,
        "specialTrainingStatus": "done",
        "defaultImage": "original"
      },
      "userProfile": {
        "userId": 5201273004089352,
        "word": "",
        "honorId1": 127,
        "honorLevel1": 1,
        "honorId2": 1091,
        "honorLevel2": 1,
        "honorId3": 110,
        "honorLevel3": 1,
        "twitterId": "qq208527",
        "profileImageType": "leader"
      },
      "userCheerfulCarnival": {
        "eventId": 36,
        "cheerfulCarnivalTeamId": 14,
        "teamChangeCount": 0,
        "registerAt": 1633070086130
      }
    }
  ],
  "rank30": [
    {
      "userId": 5262775295844367,
      "score": 77777414,
      "rank": 30,
      "isOwn": false,
      "name": "ふええった໒꒱",
      "userCard": {
        "cardId": 291,
        "level": 60,
        "masterRank": 5,
        "specialTrainingStatus": "done",
        "defaultImage": "special_training"
      },
      "userProfile": {
        "userId": 5262775295844367,
        "word": "みのりがすき",
        "honorId1": 17,
        "honorLevel1": 5,
        "twitterId": "fuxekano",
        "profileImageType": "leader"
      },
      "userCheerfulCarnival": {
        "eventId": 36,
        "cheerfulCarnivalTeamId": 14,
        "teamChangeCount": 1,
        "registerAt": 1633069115072
      }
    }
  ],
  "rank40": [
    {
      "userId": 5187303056842753,
      "score": 74900897,
      "rank": 40,
      "isOwn": false,
      "name": "ぽてとおばけ。",
      "userCard": {
        "cardId": 197,
        "level": 60,
        "masterRank": 0,
        "specialTrainingStatus": "done",
        "defaultImage": "original"
      },
      "userProfile": {
        "userId": 5187303056842753,
        "word": "39位譲ろうにも盛るから………",
        "honorId1": 138,
        "honorLevel1": 1,
        "honorId2": 134,
        "honorLevel2": 1,
        "honorId3": 50,
        "honorLevel3": 3,
        "twitterId": "Noalu1928",
        "profileImageType": "leader"
      },
      "userCheerfulCarnival": {
        "eventId": 36,
        "cheerfulCarnivalTeamId": 13,
        "teamChangeCount": 0,
        "registerAt": 1633068132643
      }
    }
  ],
  "rank50": [
    {
      "userId": 6007491700191245,
      "score": 71715463,
      "rank": 50,
      "isOwn": false,
      "name": "もやし",
      "userCard": {
        "cardId": 187,
        "level": 60,
        "masterRank": 5,
        "specialTrainingStatus": "done",
        "defaultImage": "original"
      },
      "userProfile": {
        "userId": 6007491700191245,
        "word": "牛さんが得意",
        "honorId1": 1091,
        "honorLevel1": 1,
        "honorId2": 46,
        "honorLevel2": 4,
        "honorId3": 110,
        "honorLevel3": 1,
        "twitterId": "prsk_moyashi",
        "profileImageType": "leader"
      },
      "userCheerfulCarnival": {
        "eventId": 36,
        "cheerfulCarnivalTeamId": 13,
        "teamChangeCount": 0,
        "registerAt": 1633081170082
      }
    }
  ],
  "rank100": [
    {
      "userId": 6564684018794507,
      "score": 53999835,
      "rank": 100,
      "isOwn": false,
      "name": "豆腐ハンバーグ",
      "userCard": {
        "cardId": 289,
        "level": 60,
        "masterRank": 2,
        "specialTrainingStatus": "done",
        "defaultImage": "special_training"
      },
      "userProfile": {
        "userId": 6564684018794507,
        "word": "一周年おめでとう！ポイント調整失敗しました！",
        "honorId1": 1091,
        "honorLevel1": 1,
        "honorId2": 110,
        "honorLevel2": 1,
        "honorId3": 235,
        "honorLevel3": 1,
        "twitterId": "なーん（鳴き声）",
        "profileImageType": "leader"
      },
      "userCheerfulCarnival": {
        "eventId": 36,
        "cheerfulCarnivalTeamId": 14,
        "teamChangeCount": 1,
        "registerAt": 1633069569518
      }
    }
  ],
  "rank200": [
    {
      "userId": 5159855040012293,
      "score": 32211245,
      "rank": 200,
      "isOwn": false,
      "name": "ホケホケ",
      "userCard": {
        "cardId": 197,
        "level": 60,
        "masterRank": 0,
        "specialTrainingStatus": "done",
        "defaultImage": "special_training"
      },
      "userProfile": {
        "userId": 5159855040012293,
        "word": "customprofile大変そう…いつかやります！",
        "honorId1": 115,
        "honorLevel1": 1,
        "honorId2": 1091,
        "honorLevel2": 1,
        "honorId3": 435,
        "honorLevel3": 1,
        "twitterId": "",
        "profileImageType": "leader"
      },
      "userCheerfulCarnival": {
        "eventId": 36,
        "cheerfulCarnivalTeamId": 14,
        "teamChangeCount": 0,
        "registerAt": 1633068108101
      }
    }
  ],
  "rank300": [
    {
      "userId": 5227049350877198,
      "score": 27943048,
      "rank": 300,
      "isOwn": false,
      "name": "周回中スタンプ反応×",
      "userCard": {
        "cardId": 291,
        "level": 60,
        "masterRank": 5,
        "specialTrainingStatus": "done",
        "defaultImage": "special_training"
      },
      "userProfile": {
        "userId": 5227049350877198,
        "word": "スマホがポカポカするよ！(^ワ^)",
        "honorId1": 18,
        "honorLevel1": 1,
        "honorId2": 234,
        "honorLevel2": 1,
        "honorId3": 656,
        "honorLevel3": 1,
        "twitterId": "100000位称号は嫌だ",
        "profileImageType": "leader"
      },
      "userCheerfulCarnival": {
        "eventId": 36,
        "cheerfulCarnivalTeamId": 13,
        "teamChangeCount": 0,
        "registerAt": 1633070489326
      }
    }
  ],
  "rank400": [
    {
      "userId": 5599081867239428,
      "score": 24517024,
      "rank": 400,
      "isOwn": false,
      "name": "Hawaii",
      "userCard": {
        "cardId": 199,
        "level": 60,
        "masterRank": 0,
        "specialTrainingStatus": "done",
        "defaultImage": "special_training"
      },
      "userProfile": {
        "userId": 5599081867239428,
        "word": "止まるんじゃねえぞ",
        "honorId1": 226,
        "honorLevel1": 2,
        "honorId2": 205,
        "honorLevel2": 1,
        "honorId3": 1061,
        "honorLevel3": 1,
        "twitterId": "zTtiEAWtPtpetWf",
        "profileImageType": "leader"
      },
      "userCheerfulCarnival": {
        "eventId": 36,
        "cheerfulCarnivalTeamId": 14,
        "teamChangeCount": 0,
        "registerAt": 1633075360034
      }
    }
  ],
  "rank500": [
    {
      "userId": 27297149184421904,
      "score": 23184521,
      "rank": 500,
      "isOwn": false,
      "name": "♡39♡",
      "userCard": {
        "cardId": 289,
        "level": 60,
        "masterRank": 0,
        "specialTrainingStatus": "done",
        "defaultImage": "special_training"
      },
      "userProfile": {
        "userId": 27297149184421904,
        "word": "",
        "honorId1": 729,
        "honorLevel1": 1,
        "honorId2": 227,
        "honorLevel2": 5,
        "honorId3": 250,
        "honorLevel3": 1,
        "twitterId": "",
        "profileImageType": "leader"
      },
      "userCheerfulCarnival": {
        "eventId": 36,
        "cheerfulCarnivalTeamId": 14,
        "teamChangeCount": 0,
        "registerAt": 1633069391179
      }
    }
  ],
  "rank1000": [
    {
      "userId": 8740221386596360,
      "score": 17000302,
      "rank": 1000,
      "isOwn": false,
      "name": "小豆沢とわ",
      "userCard": {
        "cardId": 292,
        "level": 60,
        "masterRank": 5,
        "specialTrainingStatus": "done",
        "defaultImage": "special_training"
      },
      "userProfile": {
        "userId": 8740221386596360,
        "word": "こはねちゃんLove",
        "honorId1": 34,
        "honorLevel1": 3,
        "honorId2": 903,
        "honorLevel2": 1,
        "honorId3": 238,
        "honorLevel3": 1,
        "twitterId": "ToWa___0829",
        "profileImageType": "leader"
      },
      "userCheerfulCarnival": {
        "eventId": 36,
        "cheerfulCarnivalTeamId": 13,
        "teamChangeCount": 0,
        "registerAt": 1633085052025
      }
    }
  ],
  "rank2000": [
    {
      "userId": 6178223205945351,
      "score": 9104778,
      "rank": 2000,
      "isOwn": false,
      "name": "七瀬2世",
      "userCard": {
        "cardId": 165,
        "level": 60,
        "masterRank": 1,
        "specialTrainingStatus": "done",
        "defaultImage": "special_training"
      },
      "userProfile": {
        "userId": 6178223205945351,
        "word": "1周年ありがとう",
        "honorId1": 46,
        "honorLevel1": 1,
        "honorId2": 241,
        "honorLevel2": 1,
        "honorId3": 123,
        "honorLevel3": 4,
        "twitterId": "",
        "profileImageType": "leader"
      },
      "userCheerfulCarnival": {
        "eventId": 36,
        "cheerfulCarnivalTeamId": 14,
        "teamChangeCount": 0,
        "registerAt": 1633068742896
      }
    }
  ],
  "rank3000": [
    {
      "userId": 48788821831221256,
      "score": 7093333,
      "rank": 3000,
      "isOwn": false,
      "name": "しぇいむ＊*",
      "userCard": {
        "cardId": 286,
        "level": 60,
        "masterRank": 0,
        "specialTrainingStatus": "done",
        "defaultImage": "special_training"
      },
      "userProfile": {
        "userId": 48788821831221256,
        "word": "ツンデレガール愛莉推し♡",
        "honorId1": 26,
        "honorLevel1": 2,
        "honorId2": 982,
        "honorLevel2": 1,
        "honorId3": 571,
        "honorLevel3": 1,
        "twitterId": "mnst_shame",
        "profileImageType": "leader"
      },
      "userCheerfulCarnival": {
        "eventId": 36,
        "cheerfulCarnivalTeamId": 14,
        "teamChangeCount": 1,
        "registerAt": 1633073281035
      }
    }
  ],
  "rank4000": [
    {
      "userId": 5595269064650752,
      "score": 6119889,
      "rank": 4000,
      "isOwn": false,
      "name": "Ryu@(≧ω≦)",
      "userCard": {
        "cardId": 291,
        "level": 60,
        "masterRank": 0,
        "specialTrainingStatus": "done",
        "defaultImage": "special_training"
      },
      "userProfile": {
        "userId": 5595269064650752,
        "word": "",
        "honorId1": 65,
        "honorLevel1": 4,
        "honorId2": 106,
        "honorLevel2": 1,
        "honorId3": 112,
        "honorLevel3": 1,
        "twitterId": "Ryusie3",
        "profileImageType": "leader"
      },
      "userCheerfulCarnival": {
        "eventId": 36,
        "cheerfulCarnivalTeamId": 13,
        "teamChangeCount": 0,
        "registerAt": 1633080329932
      }
    }
  ],
  "rank5000": [
    {
      "userId": 96939499971510270,
      "score": 5896436,
      "rank": 5000,
      "isOwn": false,
      "name": "はるのん",
      "userCard": {
        "cardId": 292,
        "level": 60,
        "masterRank": 2,
        "specialTrainingStatus": "done",
        "defaultImage": "special_training"
      },
      "userProfile": {
        "userId": 96939499971510270,
        "word": "",
        "honorId1": 33,
        "honorLevel1": 4,
        "honorId2": 1091,
        "honorLevel2": 1,
        "honorId3": 145,
        "honorLevel3": 1,
        "twitterId": "",
        "profileImageType": "leader"
      },
      "userCheerfulCarnival": {
        "eventId": 36,
        "cheerfulCarnivalTeamId": 14,
        "teamChangeCount": 0,
        "registerAt": 1633069482259
      }
    }
  ],
  "rank10000": [
    {
      "userId": 63535414060777470,
      "score": 4166938,
      "rank": 10000,
      "isOwn": false,
      "name": "ひゅーが",
      "userCard": {
        "cardId": 291,
        "level": 60,
        "masterRank": 2,
        "specialTrainingStatus": "done",
        "defaultImage": "special_training"
      },
      "userProfile": {
        "userId": 63535414060777470,
        "word": "育成素材どこ",
        "honorId1": 18,
        "honorLevel1": 1,
        "honorId2": 123,
        "honorLevel2": 1,
        "honorId3": 115,
        "honorLevel3": 1,
        "twitterId": "",
        "profileImageType": "leader"
      },
      "userCheerfulCarnival": {
        "eventId": 36,
        "cheerfulCarnivalTeamId": 14,
        "teamChangeCount": 0,
        "registerAt": 1633070045728
      }
    }
  ],
  "rank20000": [
    {
      "userId": 5637980849426441,
      "score": 2795613,
      "rank": 20000,
      "isOwn": false,
      "name": "toa",
      "userCard": {
        "cardId": 289,
        "level": 60,
        "masterRank": 2,
        "specialTrainingStatus": "done",
        "defaultImage": "special_training"
      },
      "userProfile": {
        "userId": 5637980849426441,
        "word": "よよよ",
        "honorId1": 61,
        "honorLevel1": 5,
        "honorId2": 245,
        "honorLevel2": 1,
        "honorId3": 227,
        "honorLevel3": 2,
        "twitterId": "",
        "profileImageType": "leader"
      },
      "userCheerfulCarnival": {
        "eventId": 36,
        "cheerfulCarnivalTeamId": 14,
        "teamChangeCount": 0,
        "registerAt": 1633088030088
      }
    }
  ],
  "rank30000": [
    {
      "userId": 11075355423498240,
      "score": 2383291,
      "rank": 30000,
      "isOwn": false,
      "name": "您完全不睡觉是吗",
      "userCard": {
        "cardId": 39,
        "level": 50,
        "masterRank": 2,
        "specialTrainingStatus": "done",
        "defaultImage": "special_training"
      },
      "userProfile": {
        "userId": 11075355423498240,
        "word": "困啊！！",
        "honorId1": 1091,
        "honorLevel1": 1,
        "honorId2": 41,
        "honorLevel2": 3,
        "honorId3": 45,
        "honorLevel3": 3,
        "twitterId": "lmttm_dream",
        "profileImageType": "leader"
      },
      "userCheerfulCarnival": {
        "eventId": 36,
        "cheerfulCarnivalTeamId": 13,
        "teamChangeCount": 0,
        "registerAt": 1633069734126
      }
    }
  ],
  "rank40000": [
    {
      "userId": 8666476886458381,
      "score": 2146461,
      "rank": 40000,
      "isOwn": false,
      "name": "ビビBUS停",
      "userCard": {
        "cardId": 254,
        "level": 60,
        "masterRank": 0,
        "specialTrainingStatus": "done",
        "defaultImage": "original"
      },
      "userProfile": {
        "userId": 8666476886458381,
        "word": "天国へと旅立って行った",
        "honorId1": 745,
        "honorLevel1": 1,
        "honorId2": 37,
        "honorLevel2": 5,
        "honorId3": 41,
        "honorLevel3": 5,
        "twitterId": "",
        "profileImageType": "leader"
      },
      "userCheerfulCarnival": {
        "eventId": 36,
        "cheerfulCarnivalTeamId": 14,
        "teamChangeCount": 0,
        "registerAt": 1633071540756
      }
    }
  ],
  "rank50000": [
    {
      "userId": 5213422102863881,
      "score": 2017852,
      "rank": 50000,
      "isOwn": false,
      "name": "芹沢あさひと僕",
      "userCard": {
        "cardId": 136,
        "level": 60,
        "masterRank": 0,
        "specialTrainingStatus": "done",
        "defaultImage": "special_training"
      },
      "userProfile": {
        "userId": 5213422102863881,
        "word": "瑞希しか勝たん",
        "honorId1": 78,
        "honorLevel1": 2,
        "honorId2": 249,
        "honorLevel2": 1,
        "honorId3": 222,
        "honorLevel3": 5,
        "twitterId": "",
        "profileImageType": "leader"
      },
      "userCheerfulCarnival": {
        "eventId": 36,
        "cheerfulCarnivalTeamId": 13,
        "teamChangeCount": 0,
        "registerAt": 1633076476102
      }
    }
  ],
  "rank100000": [
    {
      "userId": 5153834528026637,
      "score": 1401657,
      "rank": 100000,
      "isOwn": false,
      "name": "リンゴ",
      "userCard": {
        "cardId": 293,
        "level": 60,
        "masterRank": 1,
        "specialTrainingStatus": "done",
        "defaultImage": "special_training"
      },
      "userProfile": {
        "userId": 5153834528026637,
        "word": "",
        "honorId1": 1091,
        "honorLevel1": 1,
        "honorId2": 115,
        "honorLevel2": 1,
        "honorId3": 112,
        "honorLevel3": 1,
        "twitterId": "",
        "profileImageType": "leader"
      },
      "userCheerfulCarnival": {
        "eventId": 36,
        "cheerfulCarnivalTeamId": 13,
        "teamChangeCount": 1,
        "registerAt": 1633068164318
      }
    }
  ]
}