{
  "time": 1645877758042,
  "first10": [
    {
      "userId": 5695376246673411,
      "score": 244108108,
      "rank": 1,
      "isOwn": false,
      "name": "いつみ",
      "userCard": {
        "cardId": 314,
        "level": 60,
        "masterRank": 5,
        "specialTrainingStatus": "done",
        "defaultImage": "special_training"
      },
      "userProfile": {
        "userId": 5695376246673411,
        "word": "お疲れ様！！！フレンドリクエスト全部読んでいますね！",
        "twitterId": "amkw1117_Ln",
        "profileImageType": "leader"
      },
      "userProfileHonors": [
        {
          "seq": 1,
          "profileHonorType": "normal",
          "honorId": 14,
          "honorLevel": 5,
          "bondsHonorViewType": "none",
          "bondsHonorWordId": 0
        },
        {
          "seq": 2,
          "profileHonorType": "normal",
          "honorId": 233,
          "honorLevel": 1,
          "bondsHonorViewType": "none",
          "bondsHonorWordId": 0
        },
        {
          "seq": 3,
          "profileHonorType": "normal",
          "honorId": 1119,
          "honorLevel": 1,
          "bondsHonorViewType": "none",
          "bondsHonorWordId": 0
        }
      ],
      "userCheerfulCarnival": {}
    },
    {
      "userId": 6029740569833479,
      "score": 240250215,
      "rank": 2,
      "isOwn": false,
      "name": "多分りほ",
      "userCard": {
        "cardId": 382,
        "level": 60,
        "masterRank": 5,
        "specialTrainingStatus": "done",
        "defaultImage": "original"
      },
      "userProfile": {
        "userId": 6029740569833479,
        "word": "KAITOに捧げたイベラン。",
        "twitterId": "riiiho_9696",
        "profileImageType": "leader"
      },
      "userProfileHonors": [
        {
          "seq": 1,
          "profileHonorType": "normal",
          "honorId": 102,
          "honorLevel": 4,
          "bondsHonorViewType": "none",
          "bondsHonorWordId": 0
        },
        {
          "seq": 2,
          "profileHonorType": "normal",
          "honorId": 1270,
          "honorLevel": 1,
          "bondsHonorViewType": "none",
          "bondsHonorWordId": 0
        },
        {
          "seq": 3,
          "profileHonorType": "normal",
          "honorId": 1141,
          "honorLevel": 1,
          "bondsHonorViewType": "none",
          "bondsHonorWordId": 0
        }
      ],
      "userCheerfulCarnival": {}
    },
    {
      "userId": 6423802405986311,
      "score": 239393939,
      "rank": 3,
      "isOwn": false,
      "name": "こ〜くん",
      "userCard": {
        "cardId": 185,
        "level": 60,
        "masterRank": 5,
        "specialTrainingStatus": "done",
        "defaultImage": "special_training"
      },
      "userProfile": {
        "userId": 6423802405986311,
        "word": "<size=80>エンヴィー神</size>",
        "twitterId": "Momerin_912",
        "profileImageType": "leader"
      },
      "userProfileHonors": [
        {
          "seq": 1,
          "profileHonorType": "normal",
          "honorId": 74,
          "honorLevel": 5,
          "bondsHonorViewType": "none",
          "bondsHonorWordId": 0
        },
        {
          "seq": 2,
          "profileHonorType": "normal",
          "honorId": 126,
          "honorLevel": 10,
          "bondsHonorViewType": "none",
          "bondsHonorWordId": 0
        },
        {
          "seq": 3,
          "profileHonorType": "normal",
          "honorId": 444,
          "honorLevel": 1,
          "bondsHonorViewType": "none",
          "bondsHonorWordId": 0
        }
      ],
      "userCheerfulCarnival": {}
    },
    {
      "userId": 5280755844407301,
      "score": 200000108,
      "rank": 4,
      "isOwn": false,
      "name": "魔法少女むーさん",
      "userCard": {
        "cardId": 380,
        "level": 60,
        "masterRank": 5,
        "specialTrainingStatus": "done",
        "defaultImage": "original"
      },
      "userProfile": {
        "userId": 5280755844407301,
        "word": "空は遠いらしい",
        "twitterId": "726nesdak",
        "profileImageType": "leader"
      },
      "userProfileHonors": [
        {
          "seq": 2,
          "profileHonorType": "normal",
          "honorId": 14,
          "honorLevel": 4,
          "bondsHonorViewType": "none",
          "bondsHonorWordId": 0
        },
        {
          "seq": 3,
          "profileHonorType": "normal",
          "honorId": 1023,
          "honorLevel": 1,
          "bondsHonorViewType": "none",
          "bondsHonorWordId": 0
        }
      ],
      "userCheerfulCarnival": {}
    },
    {
      "userId": 9514384334999556,
      "score": 159000108,
      "rank": 5,
      "isOwn": false,
      "name": "たろ",
      "userCard": {
        "cardId": 380,
        "level": 60,
        "masterRank": 5,
        "specialTrainingStatus": "done",
        "defaultImage": "special_training"
      },
      "userProfile": {
        "userId": 9514384334999556,
        "word": "志歩ちゃんが大好き！",
        "twitterId": "TARO_popopo_",
        "profileImageType": "leader"
      },
      "userProfileHonors": [
        {
          "seq": 1,
          "profileHonorType": "bonds",
          "honorId": 1010402,
          "honorLevel": 3,
          "bondsHonorViewType": "reverse",
          "bondsHonorWordId": 1010401
        },
        {
          "seq": 2,
          "profileHonorType": "normal",
          "honorId": 14,
          "honorLevel": 5,
          "bondsHonorViewType": "none",
          "bondsHonorWordId": 0
        },
        {
          "seq": 3,
          "profileHonorType": "normal",
          "honorId": 2,
          "honorLevel": 3,
          "bondsHonorViewType": "none",
          "bondsHonorWordId": 0
        }
      ],
      "userCheerfulCarnival": {}
    },
    {
      "userId": 5142928490209295,
      "score": 140108041,
      "rank": 6,
      "isOwn": false,
      "name": "レイ",
      "userCard": {
        "cardId": 380,
        "level": 60,
        "masterRank": 5,
        "specialTrainingStatus": "done",
        "defaultImage": "special_training"
      },
      "userProfile": {
        "userId": 5142928490209295,
        "word": "少女ではありません",
        "twitterId": "",
        "profileImageType": "leader"
      },
      "userProfileHonors": [
        {
          "seq": 1,
          "profileHonorType": "normal",
          "honorId": 14,
          "honorLevel": 5,
          "bondsHonorViewType": "none",
          "bondsHonorWordId": 0
        },
        {
          "seq": 2,
          "profileHonorType": "normal",
          "honorId": 543,
          "honorLevel": 1,
          "bondsHonorViewType": "none",
          "bondsHonorWordId": 0
        },
        {
          "seq": 3,
          "profileHonorType": "normal",
          "honorId": 712,
          "honorLevel": 1,
          "bondsHonorViewType": "none",
          "bondsHonorWordId": 0
        }
      ],
      "userCheerfulCarnival": {}
    },
    {
      "userId": 35581769541865476,
      "score": 139000108,
      "rank": 7,
      "isOwn": false,
      "name": "クサナギ",
      "userCard": {
        "cardId": 380,
        "level": 60,
        "masterRank": 5,
        "specialTrainingStatus": "done",
        "defaultImage": "special_training"
      },
      "userProfile": {
        "userId": 35581769541865476,
        "word": "ふぅ",
        "twitterId": "shiochiroru",
        "profileImageType": "leader"
      },
      "userProfileHonors": [
        {
          "seq": 1,
          "profileHonorType": "normal",
          "honorId": 14,
          "honorLevel": 4,
          "bondsHonorViewType": "none",
          "bondsHonorWordId": 0
        },
        {
          "seq": 2,
          "profileHonorType": "normal",
          "honorId": 544,
          "honorLevel": 1,
          "bondsHonorViewType": "none",
          "bondsHonorWordId": 0
        },
        {
          "seq": 3,
          "profileHonorType": "normal",
          "honorId": 709,
          "honorLevel": 1,
          "bondsHonorViewType": "none",
          "bondsHonorWordId": 0
        }
      ],
      "userCheerfulCarnival": {}
    },
    {
      "userId": 5209950452277252,
      "score": 138108124,
      "rank": 8,
      "isOwn": false,
      "name": "NTD",
      "userCard": {
        "cardId": 380,
        "level": 60,
        "masterRank": 5,
        "specialTrainingStatus": "done",
        "defaultImage": "special_training"
      },
      "userProfile": {
        "userId": 5209950452277252,
        "word": "雫バナーのふたり月うさぎ8位が志歩バナーで8位、姉妹は一緒",
        "twitterId": "NTD_PRSK",
        "profileImageType": "leader"
      },
      "userProfileHonors": [
        {
          "seq": 1,
          "profileHonorType": "normal",
          "honorId": 82,
          "honorLevel": 3,
          "bondsHonorViewType": "none",
          "bondsHonorWordId": 0
        },
        {
          "seq": 2,
          "profileHonorType": "bonds",
          "honorId": 1010201,
          "honorLevel": 3,
          "bondsHonorViewType": "normal",
          "bondsHonorWordId": 1010201
        },
        {
          "seq": 3,
          "profileHonorType": "bonds",
          "honorId": 1042101,
          "honorLevel": 4,
          "bondsHonorViewType": "reverse",
          "bondsHonorWordId": 1042101
        }
      ],
      "userCheerfulCarnival": {}
    },
    {
      "userId": 5271315687137282,
      "score": 127000108,
      "rank": 9,
      "isOwn": false,
      "name": "たくみん",
      "userCard": {
        "cardId": 380,
        "level": 60,
        "masterRank": 5,
        "specialTrainingStatus": "done",
        "defaultImage": "special_training"
      },
      "userProfile": {
        "userId": 5271315687137282,
        "word": "Resonate&月うさぎ26位　　　志歩と絵名推し",
        "twitterId": "takumi082240",
        "profileImageType": "leader"
      },
      "userProfileHonors": [
        {
          "seq": 1,
          "profileHonorType": "bonds",
          "honorId": 1030402,
          "honorLevel": 2,
          "bondsHonorViewType": "reverse",
          "bondsHonorWordId": 1030402
        },
        {
          "seq": 2,
          "profileHonorType": "normal",
          "honorId": 14,
          "honorLevel": 4,
          "bondsHonorViewType": "none",
          "bondsHonorWordId": 0
        },
        {
          "seq": 3,
          "profileHonorType": "normal",
          "honorId": 10,
          "honorLevel": 2,
          "bondsHonorViewType": "none",
          "bondsHonorWordId": 0
        }
      ],
      "userCheerfulCarnival": {}
    },
    {
      "userId": 5219446922686469,
      "score": 125000108,
      "rank": 10,
      "isOwn": false,
      "name": "ぴえ",
      "userCard": {
        "cardId": 380,
        "level": 60,
        "masterRank": 5,
        "specialTrainingStatus": "done",
        "defaultImage": "special_training"
      },
      "userProfile": {
        "userId": 5219446922686469,
        "word": "普通のレオニ推しとうふです",
        "twitterId": "いちミク",
        "profileImageType": "leader"
      },
      "userProfileHonors": [
        {
          "seq": 1,
          "profileHonorType": "normal",
          "honorId": 14,
          "honorLevel": 3,
          "bondsHonorViewType": "none",
          "bondsHonorWordId": 0
        },
        {
          "seq": 2,
          "profileHonorType": "normal",
          "honorId": 660,
          "honorLevel": 1,
          "bondsHonorViewType": "none",
          "bondsHonorWordId": 0
        },
        {
          "seq": 3,
          "profileHonorType": "normal",
          "honorId": 1228,
          "honorLevel": 1,
          "bondsHonorViewType": "none",
          "bondsHonorWordId": 0
        }
      ],
      "userCheerfulCarnival": {}
    }
  ],
  "rank20": [
    {
      "userId": 88591910478028820,
      "score": 102300108,
      "rank": 20,
      "isOwn": false,
      "name": "PAM",
      "userCard": {
        "cardId": 380,
        "level": 60,
        "masterRank": 5,
        "specialTrainingStatus": "done",
        "defaultImage": "special_training"
      },
      "userProfile": {
        "userId": 88591910478028820,
        "word": "皆ありがとう(*^^*)",
        "twitterId": "takku1414",
        "profileImageType": "leader"
      },
      "userProfileHonors": [
        {
          "seq": 1,
          "profileHonorType": "normal",
          "honorId": 119,
          "honorLevel": 6,
          "bondsHonorViewType": "none",
          "bondsHonorWordId": 0
        },
        {
          "seq": 2,
          "profileHonorType": "normal",
          "honorId": 37,
          "honorLevel": 4,
          "bondsHonorViewType": "none",
          "bondsHonorWordId": 0
        },
        {
          "seq": 3,
          "profileHonorType": "normal",
          "honorId": 13,
          "honorLevel": 5,
          "bondsHonorViewType": "none",
          "bondsHonorWordId": 0
        }
      ],
      "userCheerfulCarnival": {}
    }
  ],
  "rank30": [
    {
      "userId": 5622458845642759,
      "score": 84000108,
      "rank": 30,
      "isOwn": false,
      "name": "だほい㌠かいん",
      "userCard": {
        "cardId": 380,
        "level": 60,
        "masterRank": 5,
        "specialTrainingStatus": "done",
        "defaultImage": "special_training"
      },
      "userProfile": {
        "userId": 5622458845642759,
        "word": "ゆっくり休んでね♡",
        "twitterId": "kain0112",
        "profileImageType": "leader"
      },
      "userProfileHonors": [
        {
          "seq": 1,
          "profileHonorType": "normal",
          "honorId": 14,
          "honorLevel": 3,
          "bondsHonorViewType": "none",
          "bondsHonorWordId": 0
        },
        {
          "seq": 2,
          "profileHonorType": "normal",
          "honorId": 714,
          "honorLevel": 1,
          "bondsHonorViewType": "none",
          "bondsHonorWordId": 0
        },
        {
          "seq": 3,
          "profileHonorType": "normal",
          "honorId": 469,
          "honorLevel": 1,
          "bondsHonorViewType": "none",
          "bondsHonorWordId": 0
        }
      ],
      "userCheerfulCarnival": {}
    }
  ],
  "rank40": [
    {
      "userId": 5182626181386251,
      "score": 74500108,
      "rank": 40,
      "isOwn": false,
      "name": "セラキ",
      "userCard": {
        "cardId": 380,
        "level": 60,
        "masterRank": 5,
        "specialTrainingStatus": "done",
        "defaultImage": "special_training"
      },
      "userProfile": {
        "userId": 5182626181386251,
        "word": "体力vs眠気vs100位",
        "twitterId": "",
        "profileImageType": "leader"
      },
      "userProfileHonors": [
        {
          "seq": 1,
          "profileHonorType": "normal",
          "honorId": 14,
          "honorLevel": 3,
          "bondsHonorViewType": "none",
          "bondsHonorWordId": 0
        },
        {
          "seq": 2,
          "profileHonorType": "normal",
          "honorId": 720,
          "honorLevel": 1,
          "bondsHonorViewType": "none",
          "bondsHonorWordId": 0
        },
        {
          "seq": 3,
          "profileHonorType": "normal",
          "honorId": 1056,
          "honorLevel": 1,
          "bondsHonorViewType": "none",
          "bondsHonorWordId": 0
        }
      ],
      "userCheerfulCarnival": {}
    }
  ],
  "rank50": [
    {
      "userId": 9731986344923140,
      "score": 68000108,
      "rank": 50,
      "isOwn": false,
      "name": "ぱんくら",
      "userCard": {
        "cardId": 355,
        "level": 60,
        "masterRank": 0,
        "specialTrainingStatus": "not_doing",
        "defaultImage": "original"
      },
      "userProfile": {
        "userId": 9731986344923140,
        "word": "",
        "twitterId": "",
        "profileImageType": "leader"
      },
      "userProfileHonors": [
        {
          "seq": 1,
          "profileHonorType": "normal",
          "honorId": 1051,
          "honorLevel": 1,
          "bondsHonorViewType": "none",
          "bondsHonorWordId": 0
        },
        {
          "seq": 2,
          "profileHonorType": "normal",
          "honorId": 14,
          "honorLevel": 1,
          "bondsHonorViewType": "none",
          "bondsHonorWordId": 0
        },
        {
          "seq": 3,
          "profileHonorType": "normal",
          "honorId": 1119,
          "honorLevel": 1,
          "bondsHonorViewType": "none",
          "bondsHonorWordId": 0
        }
      ],
      "userCheerfulCarnival": {}
    }
  ],
  "rank100": [
    {
      "userId": 40761494400655360,
      "score": 52700108,
      "rank": 100,
      "isOwn": false,
      "name": "諦めるのはeasy",
      "userCard": {
        "cardId": 380,
        "level": 60,
        "masterRank": 5,
        "specialTrainingStatus": "done",
        "defaultImage": "special_training"
      },
      "userProfile": {
        "userId": 40761494400655360,
        "word": "今のままでいい筈はない",
        "twitterId": "Hal_Sugakuka",
        "profileImageType": "leader"
      },
      "userProfileHonors": [
        {
          "seq": 1,
          "profileHonorType": "normal",
          "honorId": 128,
          "honorLevel": 1,
          "bondsHonorViewType": "none",
          "bondsHonorWordId": 0
        }
      ],
      "userCheerfulCarnival": {}
    }
  ],
  "rank200": [
    {
      "userId": 184140628560576500,
      "score": 28311337,
      "rank": 200,
      "isOwn": false,
      "name": "たこ鍋",
      "userCard": {
        "cardId": 381,
        "level": 60,
        "masterRank": 2,
        "specialTrainingStatus": "done",
        "defaultImage": "special_training"
      },
      "userProfile": {
        "userId": 184140628560576500,
        "word": "2022/02/06",
        "twitterId": "",
        "profileImageType": "leader"
      },
      "userProfileHonors": [
        {
          "seq": 1,
          "profileHonorType": "normal",
          "honorId": 13,
          "honorLevel": 4,
          "bondsHonorViewType": "none",
          "bondsHonorWordId": 0
        },
        {
          "seq": 2,
          "profileHonorType": "normal",
          "honorId": 108,
          "honorLevel": 1,
          "bondsHonorViewType": "none",
          "bondsHonorWordId": 0
        },
        {
          "seq": 3,
          "profileHonorType": "normal",
          "honorId": 129,
          "honorLevel": 1,
          "bondsHonorViewType": "none",
          "bondsHonorWordId": 0
        }
      ],
      "userCheerfulCarnival": {}
    }
  ],
  "rank300": [
    {
      "userId": 120343903212175360,
      "score": 23000000,
      "rank": 300,
      "isOwn": false,
      "name": "たそ",
      "userCard": {
        "cardId": 113,
        "level": 30,
        "masterRank": 5,
        "specialTrainingStatus": "not_doing",
        "defaultImage": "original"
      },
      "userProfile": {
        "userId": 120343903212175360,
        "word": "",
        "twitterId": "rajan_kanata",
        "profileImageType": "leader"
      },
      "userProfileHonors": [
        {
          "seq": 1,
          "profileHonorType": "normal",
          "honorId": 2,
          "honorLevel": 1,
          "bondsHonorViewType": "none",
          "bondsHonorWordId": 0
        },
        {
          "seq": 2,
          "profileHonorType": "normal",
          "honorId": 1231,
          "honorLevel": 1,
          "bondsHonorViewType": "none",
          "bondsHonorWordId": 0
        },
        {
          "seq": 3,
          "profileHonorType": "normal",
          "honorId": 207,
          "honorLevel": 1,
          "bondsHonorViewType": "none",
          "bondsHonorWordId": 0
        }
      ],
      "userCheerfulCarnival": {}
    }
  ],
  "rank400": [
    {
      "userId": 99786843515568140,
      "score": 19991620,
      "rank": 400,
      "isOwn": false,
      "name": "たぬたぬ",
      "userCard": {
        "cardId": 382,
        "level": 60,
        "masterRank": 0,
        "specialTrainingStatus": "done",
        "defaultImage": "original"
      },
      "userProfile": {
        "userId": 99786843515568140,
        "word": "レオニKAITOしか勝たん イベランできる所まで頑張る。",
        "twitterId": "_ta2nu17",
        "profileImageType": "leader"
      },
      "userProfileHonors": [
        {
          "seq": 1,
          "profileHonorType": "normal",
          "honorId": 102,
          "honorLevel": 2,
          "bondsHonorViewType": "none",
          "bondsHonorWordId": 0
        },
        {
          "seq": 2,
          "profileHonorType": "normal",
          "honorId": 1053,
          "honorLevel": 1,
          "bondsHonorViewType": "none",
          "bondsHonorWordId": 0
        },
        {
          "seq": 3,
          "profileHonorType": "bonds",
          "honorId": 1242601,
          "honorLevel": 4,
          "bondsHonorViewType": "normal",
          "bondsHonorWordId": 1242601
        }
      ],
      "userCheerfulCarnival": {}
    }
  ],
  "rank500": [
    {
      "userId": 141356531573321730,
      "score": 18796796,
      "rank": 500,
      "isOwn": false,
      "name": "エビ選500ラン",
      "userCard": {
        "cardId": 380,
        "level": 60,
        "masterRank": 0,
        "specialTrainingStatus": "done",
        "defaultImage": "special_training"
      },
      "userProfile": {
        "userId": 141356531573321730,
        "word": "ショートはね、正義なんだよ？",
        "twitterId": "",
        "profileImageType": "leader"
      },
      "userProfileHonors": [
        {
          "seq": 1,
          "profileHonorType": "normal",
          "honorId": 14,
          "honorLevel": 1,
          "bondsHonorViewType": "none",
          "bondsHonorWordId": 0
        },
        {
          "seq": 2,
          "profileHonorType": "normal",
          "honorId": 1283,
          "honorLevel": 1,
          "bondsHonorViewType": "none",
          "bondsHonorWordId": 0
        },
        {
          "seq": 3,
          "profileHonorType": "bonds",
          "honorId": 1042401,
          "honorLevel": 4,
          "bondsHonorViewType": "normal",
          "bondsHonorWordId": 1042401
        }
      ],
      "userCheerfulCarnival": {}
    }
  ],
  "rank1000": [
    {
      "userId": 49076681775890440,
      "score": 14011842,
      "rank": 1000,
      "isOwn": false,
      "name": "はる",
      "userCard": {
        "cardId": 282,
        "level": 50,
        "masterRank": 5,
        "specialTrainingStatus": "done",
        "defaultImage": "special_training"
      },
      "userProfile": {
        "userId": 49076681775890440,
        "word": "無課金勢だっっ！",
        "twitterId": "",
        "profileImageType": "leader"
      },
      "userProfileHonors": [
        {
          "seq": 1,
          "profileHonorType": "normal",
          "honorId": 13,
          "honorLevel": 5,
          "bondsHonorViewType": "none",
          "bondsHonorWordId": 0
        },
        {
          "seq": 2,
          "profileHonorType": "normal",
          "honorId": 123,
          "honorLevel": 3,
          "bondsHonorViewType": "none",
          "bondsHonorWordId": 0
        },
        {
          "seq": 3,
          "profileHonorType": "normal",
          "honorId": 1119,
          "honorLevel": 1,
          "bondsHonorViewType": "none",
          "bondsHonorWordId": 0
        }
      ],
      "userCheerfulCarnival": {}
    }
  ],
  "rank2000": [
    {
      "userId": 5144090241495041,
      "score": 6882864,
      "rank": 2000,
      "isOwn": false,
      "name": "ヾ(o´▽`o)ゝ",
      "userCard": {
        "cardId": 113,
        "level": 30,
        "masterRank": 5,
        "specialTrainingStatus": "not_doing",
        "defaultImage": "original"
      },
      "userProfile": {
        "userId": 5144090241495041,
        "word": "ʅ(´⊙౪⊙`)ʃ",
        "twitterId": "",
        "profileImageType": "leader"
      },
      "userProfileHonors": [
        {
          "seq": 1,
          "profileHonorType": "bonds",
          "honorId": 1010201,
          "honorLevel": 5,
          "bondsHonorViewType": "normal",
          "bondsHonorWordId": 1010201
        },
        {
          "seq": 2,
          "profileHonorType": "normal",
          "honorId": 2,
          "honorLevel": 2,
          "bondsHonorViewType": "none",
          "bondsHonorWordId": 0
        },
        {
          "seq": 3,
          "profileHonorType": "normal",
          "honorId": 6,
          "honorLevel": 1,
          "bondsHonorViewType": "none",
          "bondsHonorWordId": 0
        }
      ],
      "userCheerfulCarnival": {}
    }
  ],
  "rank3000": [
    {
      "userId": 69036484119900160,
      "score": 5209028,
      "rank": 3000,
      "isOwn": false,
      "name": "たのさんはイベラン中",
      "userCard": {
        "cardId": 198,
        "level": 60,
        "masterRank": 0,
        "specialTrainingStatus": "done",
        "defaultImage": "special_training"
      },
      "userProfile": {
        "userId": 69036484119900160,
        "word": "ユ教徒　リン廃　@ʚ眠い同盟ɞ     イベランなう　",
        "twitterId": " tano_juju",
        "profileImageType": "leader"
      },
      "userProfileHonors": [
        {
          "seq": 1,
          "profileHonorType": "normal",
          "honorId": 86,
          "honorLevel": 1,
          "bondsHonorWordId": 0
        },
        {
          "seq": 2,
          "profileHonorType": "normal",
          "honorId": 13,
          "honorLevel": 3,
          "bondsHonorViewType": "none",
          "bondsHonorWordId": 0
        },
        {
          "seq": 3,
          "profileHonorType": "normal",
          "honorId": 123,
          "honorLevel": 7,
          "bondsHonorWordId": 0
        }
      ],
      "userCheerfulCarnival": {}
    }
  ],
  "rank4000": [
    {
      "userId": 5206893446561795,
      "score": 4352471,
      "rank": 4000,
      "isOwn": false,
      "name": "per10d",
      "userCard": {
        "cardId": 380,
        "level": 60,
        "masterRank": 5,
        "specialTrainingStatus": "done",
        "defaultImage": "special_training"
      },
      "userProfile": {
        "userId": 5206893446561795,
        "word": "寝起きはHARD",
        "twitterId": "",
        "profileImageType": "leader"
      },
      "userProfileHonors": [
        {
          "seq": 1,
          "profileHonorType": "normal",
          "honorId": 207,
          "honorLevel": 5,
          "bondsHonorViewType": "none",
          "bondsHonorWordId": 0
        },
        {
          "seq": 2,
          "profileHonorType": "normal",
          "honorId": 435,
          "honorLevel": 1,
          "bondsHonorViewType": "none",
          "bondsHonorWordId": 0
        },
        {
          "seq": 3,
          "profileHonorType": "normal",
          "honorId": 1342,
          "honorLevel": 1,
          "bondsHonorViewType": "none",
          "bondsHonorWordId": 0
        }
      ],
      "userCheerfulCarnival": {}
    }
  ],
  "rank5000": [
    {
      "userId": 104458672553525250,
      "score": 4102195,
      "rank": 5000,
      "isOwn": false,
      "name": "もちもちのほなほな",
      "userCard": {
        "cardId": 112,
        "level": 50,
        "masterRank": 5,
        "specialTrainingStatus": "done",
        "defaultImage": "special_training"
      },
      "userProfile": {
        "userId": 104458672553525250,
        "word": "穂波みのりは尊い。聖書に書いてある。",
        "twitterId": "honamioshilaica",
        "profileImageType": "leader"
      },
      "userProfileHonors": [
        {
          "seq": 1,
          "profileHonorType": "normal",
          "honorId": 10,
          "honorLevel": 2,
          "bondsHonorViewType": "none",
          "bondsHonorWordId": 0
        },
        {
          "seq": 2,
          "profileHonorType": "normal",
          "honorId": 17,
          "honorLevel": 4,
          "bondsHonorViewType": "none",
          "bondsHonorWordId": 0
        },
        {
          "seq": 3,
          "profileHonorType": "normal",
          "honorId": 21,
          "honorLevel": 3,
          "bondsHonorViewType": "none",
          "bondsHonorWordId": 0
        }
      ],
      "userCheerfulCarnival": {}
    }
  ],
  "rank10000": [
    {
      "userId": 11406827191390208,
      "score": 2647835,
      "rank": 10000,
      "isOwn": false,
      "name": "メグ",
      "userCard": {
        "cardId": 197,
        "level": 60,
        "masterRank": 0,
        "specialTrainingStatus": "done",
        "defaultImage": "special_training"
      },
      "userProfile": {
        "userId": 11406827191390208,
        "word": "マイペースでコツコツwww",
        "twitterId": "",
        "profileImageType": "leader"
      },
      "userProfileHonors": [
        {
          "seq": 1,
          "profileHonorType": "normal",
          "honorId": 1,
          "honorLevel": 4,
          "bondsHonorViewType": "none",
          "bondsHonorWordId": 0
        },
        {
          "seq": 2,
          "profileHonorType": "normal",
          "honorId": 5,
          "honorLevel": 4,
          "bondsHonorViewType": "none",
          "bondsHonorWordId": 0
        },
        {
          "seq": 3,
          "profileHonorType": "normal",
          "honorId": 9,
          "honorLevel": 3,
          "bondsHonorViewType": "none",
          "bondsHonorWordId": 0
        }
      ],
      "userCheerfulCarnival": {}
    }
  ],
  "rank20000": [
    {
      "userId": 168897229821947900,
      "score": 1705001,
      "rank": 20000,
      "isOwn": false,
      "name": "高田",
      "userCard": {
        "cardId": 147,
        "level": 50,
        "masterRank": 5,
        "specialTrainingStatus": "done",
        "defaultImage": "special_training"
      },
      "userProfile": {
        "userId": 168897229821947900,
        "word": "高田です",
        "twitterId": "",
        "profileImageType": "leader"
      },
      "userProfileHonors": [
        {
          "seq": 1,
          "profileHonorType": "normal",
          "honorId": 61,
          "honorLevel": 4,
          "bondsHonorViewType": "none",
          "bondsHonorWordId": 0
        }
      ],
      "userCheerfulCarnival": {}
    }
  ],
  "rank30000": [
    {
      "userId": 82709197250351100,
      "score": 1467219,
      "rank": 30000,
      "isOwn": false,
      "name": "こゆ",
      "userCard": {
        "cardId": 151,
        "level": 60,
        "masterRank": 0,
        "specialTrainingStatus": "done",
        "defaultImage": "special_training"
      },
      "userProfile": {
        "userId": 82709197250351100,
        "word": "腕が…",
        "twitterId": "",
        "profileImageType": "leader"
      },
      "userProfileHonors": [
        {
          "seq": 1,
          "profileHonorType": "normal",
          "honorId": 94,
          "honorLevel": 1,
          "bondsHonorViewType": "none",
          "bondsHonorWordId": 0
        },
        {
          "seq": 2,
          "profileHonorType": "normal",
          "honorId": 1139,
          "honorLevel": 1,
          "bondsHonorViewType": "none",
          "bondsHonorWordId": 0
        },
        {
          "seq": 3,
          "profileHonorType": "bonds",
          "honorId": 1042401,
          "honorLevel": 2,
          "bondsHonorViewType": "reverse",
          "bondsHonorWordId": 1042401
        }
      ],
      "userCheerfulCarnival": {}
    }
  ],
  "rank40000": [
    {
      "userId": 41492641820487680,
      "score": 1340935,
      "rank": 40000,
      "isOwn": false,
      "name": "RRR ",
      "userCard": {
        "cardId": 282,
        "level": 50,
        "masterRank": 5,
        "specialTrainingStatus": "done",
        "defaultImage": "original"
      },
      "userProfile": {
        "userId": 41492641820487680,
        "word": "よろしくです",
        "twitterId": "",
        "profileImageType": "leader"
      },
      "userProfileHonors": [
        {
          "seq": 1,
          "profileHonorType": "normal",
          "honorId": 127,
          "honorLevel": 1,
          "bondsHonorViewType": "none",
          "bondsHonorWordId": 0
        },
        {
          "seq": 2,
          "profileHonorType": "normal",
          "honorId": 1119,
          "honorLevel": 1,
          "bondsHonorViewType": "none",
          "bondsHonorWordId": 0
        },
        {
          "seq": 3,
          "profileHonorType": "normal",
          "honorId": 247,
          "honorLevel": 1,
          "bondsHonorViewType": "none",
          "bondsHonorWordId": 0
        }
      ],
      "userCheerfulCarnival": {}
    }
  ],
  "rank50000": [
    {
      "userId": 20418379387310090,
      "score": 1277631,
      "rank": 50000,
      "isOwn": false,
      "name": "にんじん同系色",
      "userCard": {
        "cardId": 342,
        "level": 60,
        "masterRank": 0,
        "specialTrainingStatus": "done",
        "defaultImage": "special_training"
      },
      "userProfile": {
        "userId": 20418379387310090,
        "word": "マイペース",
        "twitterId": "",
        "profileImageType": "leader"
      },
      "userProfileHonors": [
        {
          "seq": 1,
          "profileHonorType": "normal",
          "honorId": 936,
          "honorLevel": 1,
          "bondsHonorViewType": "none",
          "bondsHonorWordId": 0
        },
        {
          "seq": 2,
          "profileHonorType": "normal",
          "honorId": 42,
          "honorLevel": 1,
          "bondsHonorViewType": "none",
          "bondsHonorWordId": 0
        },
        {
          "seq": 3,
          "profileHonorType": "normal",
          "honorId": 74,
          "honorLevel": 1,
          "bondsHonorViewType": "none",
          "bondsHonorWordId": 0
        }
      ],
      "userCheerfulCarnival": {}
    }
  ],
  "rank100000": [
    {
      "userId": 179587810759626750,
      "score": 917535,
      "rank": 100000,
      "isOwn": false,
      "name": "おみ",
      "userCard": {
        "cardId": 383,
        "level": 50,
        "masterRank": 5,
        "specialTrainingStatus": "done",
        "defaultImage": "special_training"
      },
      "userProfile": {
        "userId": 179587810759626750,
        "word": "",
        "twitterId": "wanpakuyochien",
        "profileImageType": "leader"
      },
      "userProfileHonors": [
        {
          "seq": 1,
          "profileHonorType": "bonds",
          "honorId": 1192001,
          "honorLevel": 1,
          "bondsHonorViewType": "reverse",
          "bondsHonorWordId": 1192001
        },
        {
          "seq": 2,
          "profileHonorType": "normal",
          "honorId": 136,
          "honorLevel": 1,
          "bondsHonorViewType": "none",
          "bondsHonorWordId": 0
        },
        {
          "seq": 3,
          "profileHonorType": "normal",
          "honorId": 127,
          "honorLevel": 1,
          "bondsHonorViewType": "none",
          "bondsHonorWordId": 0
        }
      ],
      "userCheerfulCarnival": {}
    }
  ]
}