{
  "time": 1640780158051,
  "first10": [
    {
      "userId": 5289231539277828,
      "score": 235251112,
      "rank": 1,
      "isOwn": false,
      "name": "彼方",
      "userCard": {
        "cardId": 341,
        "level": 60,
        "masterRank": 5,
        "specialTrainingStatus": "done",
        "defaultImage": "original"
      },
      "userProfile": {
        "userId": 5289231539277828,
        "word": "夢は叶うよ",
        "twitterId": "kanata_prsk",
        "profileImageType": "leader"
      },
      "userProfileHonors": [
        {
          "seq": 1,
          "profileHonorType": "normal",
          "honorId": 360,
          "honorLevel": 1,
          "bondsHonorViewType": "none",
          "bondsHonorWordId": 0
        },
        {
          "seq": 2,
          "profileHonorType": "normal",
          "honorId": 46,
          "honorLevel": 5,
          "bondsHonorViewType": "none",
          "bondsHonorWordId": 0
        },
        {
          "seq": 3,
          "profileHonorType": "normal",
          "honorId": 241,
          "honorLevel": 1,
          "bondsHonorViewType": "none",
          "bondsHonorWordId": 0
        }
      ],
      "userCheerfulCarnival": {}
    },
    {
      "userId": 5294504227835917,
      "score": 225251112,
      "rank": 2,
      "isOwn": false,
      "name": "ネオン",
      "userCard": {
        "cardId": 342,
        "level": 60,
        "masterRank": 5,
        "specialTrainingStatus": "done",
        "defaultImage": "original"
      },
      "userProfile": {
        "userId": 5294504227835917,
        "word": "keep going forward!",
        "twitterId": "",
        "profileImageType": "leader"
      },
      "userProfileHonors": [
        {
          "seq": 1,
          "profileHonorType": "normal",
          "honorId": 925,
          "honorLevel": 1,
          "bondsHonorViewType": "none",
          "bondsHonorWordId": 0
        },
        {
          "seq": 2,
          "profileHonorType": "normal",
          "honorId": 46,
          "honorLevel": 2,
          "bondsHonorViewType": "none",
          "bondsHonorWordId": 0
        },
        {
          "seq": 3,
          "profileHonorType": "normal",
          "honorId": 42,
          "honorLevel": 3,
          "bondsHonorViewType": "none",
          "bondsHonorWordId": 0
        }
      ],
      "userCheerfulCarnival": {}
    },
    {
      "userId": 6707292670795783,
      "score": 215251112,
      "rank": 3,
      "isOwn": false,
      "name": "岡村隆史",
      "userCard": {
        "cardId": 342,
        "level": 60,
        "masterRank": 5,
        "specialTrainingStatus": "done",
        "defaultImage": "original"
      },
      "userProfile": {
        "userId": 6707292670795783,
        "word": "",
        "honorId1": 42,
        "honorLevel1": 4,
        "twitterId": "",
        "profileImageType": "leader"
      },
      "userProfileHonors": [
        {
          "seq": 1,
          "profileHonorType": "normal",
          "honorId": 926,
          "honorLevel": 1,
          "bondsHonorViewType": "none",
          "bondsHonorWordId": 0
        },
        {
          "seq": 2,
          "profileHonorType": "normal",
          "honorId": 46,
          "honorLevel": 3,
          "bondsHonorViewType": "none",
          "bondsHonorWordId": 0
        },
        {
          "seq": 3,
          "profileHonorType": "normal",
          "honorId": 42,
          "honorLevel": 4,
          "bondsHonorViewType": "none",
          "bondsHonorWordId": 0
        }
      ],
      "userCheerfulCarnival": {}
    },
    {
      "userId": 6007491700191245,
      "score": 201000008,
      "rank": 4,
      "isOwn": false,
      "name": "もやし",
      "userCard": {
        "cardId": 341,
        "level": 60,
        "masterRank": 5,
        "specialTrainingStatus": "done",
        "defaultImage": "special_training"
      },
      "userProfile": {
        "userId": 6007491700191245,
        "word": "たのしー",
        "twitterId": "prsk_moyashi",
        "profileImageType": "leader"
      },
      "userProfileHonors": [
        {
          "seq": 1,
          "profileHonorType": "normal",
          "honorId": 803,
          "honorLevel": 1,
          "bondsHonorViewType": "none",
          "bondsHonorWordId": 0
        },
        {
          "seq": 2,
          "profileHonorType": "normal",
          "honorId": 46,
          "honorLevel": 5,
          "bondsHonorViewType": "none",
          "bondsHonorWordId": 0
        },
        {
          "seq": 3,
          "profileHonorType": "bonds",
          "honorId": 1101202,
          "honorLevel": 3,
          "bondsHonorViewType": "normal",
          "bondsHonorWordId": 1101202
        }
      ],
      "userCheerfulCarnival": {}
    },
    {
      "userId": 21415281364721668,
      "score": 190000525,
      "rank": 5,
      "isOwn": false,
      "name": "でんでん",
      "userCard": {
        "cardId": 341,
        "level": 60,
        "masterRank": 5,
        "specialTrainingStatus": "done",
        "defaultImage": "special_training"
      },
      "userProfile": {
        "userId": 21415281364721668,
        "word": "10日間最高に楽しいイベランでした！みんな本当にありがとう！",
        "twitterId": "幸せの轟家",
        "profileImageType": "leader"
      },
      "userProfileHonors": [
        {
          "seq": 1,
          "profileHonorType": "normal",
          "honorId": 734,
          "honorLevel": 1,
          "bondsHonorViewType": "none",
          "bondsHonorWordId": 0
        },
        {
          "seq": 2,
          "profileHonorType": "normal",
          "honorId": 46,
          "honorLevel": 4,
          "bondsHonorViewType": "none",
          "bondsHonorWordId": 0
        },
        {
          "seq": 3,
          "profileHonorType": "normal",
          "honorId": 42,
          "honorLevel": 4,
          "bondsHonorViewType": "none",
          "bondsHonorWordId": 0
        }
      ],
      "userCheerfulCarnival": {}
    },
    {
      "userId": 12076903527686152,
      "score": 171121112,
      "rank": 6,
      "isOwn": false,
      "name": "御咲 椋",
      "userCard": {
        "cardId": 342,
        "level": 60,
        "masterRank": 5,
        "specialTrainingStatus": "done",
        "defaultImage": "special_training"
      },
      "userProfile": {
        "userId": 12076903527686152,
        "word": "みんながいるから 毎日が光り輝いて見えるよ .",
        "twitterId": "__dkgj5",
        "profileImageType": "leader"
      },
      "userProfileHonors": [
        {
          "seq": 2,
          "profileHonorType": "normal",
          "honorId": 46,
          "honorLevel": 3,
          "bondsHonorViewType": "none",
          "bondsHonorWordId": 0
        },
        {
          "seq": 3,
          "profileHonorType": "normal",
          "honorId": 42,
          "honorLevel": 4,
          "bondsHonorViewType": "none",
          "bondsHonorWordId": 0
        }
      ],
      "userCheerfulCarnival": {}
    },
    {
      "userId": 9627098041909252,
      "score": 170000525,
      "rank": 7,
      "isOwn": false,
      "name": "↓素敵な笑顔の彰人",
      "userCard": {
        "cardId": 341,
        "level": 60,
        "masterRank": 5,
        "specialTrainingStatus": "done",
        "defaultImage": "original"
      },
      "userProfile": {
        "userId": 9627098041909252,
        "word": "Vivid BAD SQUADに幸せを",
        "twitterId": "crone_dr",
        "profileImageType": "leader"
      },
      "userProfileHonors": [
        {
          "seq": 1,
          "profileHonorType": "bonds",
          "honorId": 1091002,
          "honorLevel": 1,
          "bondsHonorViewType": "reverse",
          "bondsHonorWordId": 1091002
        },
        {
          "seq": 2,
          "profileHonorType": "normal",
          "honorId": 46,
          "honorLevel": 4,
          "bondsHonorViewType": "none",
          "bondsHonorWordId": 0
        },
        {
          "seq": 3,
          "profileHonorType": "normal",
          "honorId": 42,
          "honorLevel": 3,
          "bondsHonorViewType": "none",
          "bondsHonorWordId": 0
        }
      ],
      "userCheerfulCarnival": {}
    },
    {
      "userId": 5166350385741832,
      "score": 160105108,
      "rank": 8,
      "isOwn": false,
      "name": "↑素敵な笑顔の冬弥",
      "userCard": {
        "cardId": 342,
        "level": 60,
        "masterRank": 5,
        "specialTrainingStatus": "done",
        "defaultImage": "original"
      },
      "userProfile": {
        "userId": 5166350385741832,
        "word": "ポイント調整で冬弥と彰人の誕生日に出来なかった故の色男、冬弥",
        "twitterId": "Hinata_prsk",
        "profileImageType": "leader"
      },
      "userProfileHonors": [
        {
          "seq": 1,
          "profileHonorType": "bonds",
          "honorId": 1111202,
          "honorLevel": 2,
          "bondsHonorViewType": "reverse",
          "bondsHonorWordId": 1111202
        },
        {
          "seq": 2,
          "profileHonorType": "normal",
          "honorId": 46,
          "honorLevel": 2,
          "bondsHonorViewType": "none",
          "bondsHonorWordId": 0
        },
        {
          "seq": 3,
          "profileHonorType": "normal",
          "honorId": 42,
          "honorLevel": 3,
          "bondsHonorViewType": "none",
          "bondsHonorWordId": 0
        }
      ],
      "userCheerfulCarnival": {}
    },
    {
      "userId": 11317063595560964,
      "score": 155251112,
      "rank": 9,
      "isOwn": false,
      "name": "シノノメカーニバル",
      "userCard": {
        "cardId": 341,
        "level": 60,
        "masterRank": 5,
        "specialTrainingStatus": "done",
        "defaultImage": "special_training"
      },
      "userProfile": {
        "userId": 11317063595560964,
        "word": "ありがとう！",
        "twitterId": "天井常連",
        "profileImageType": "leader"
      },
      "userProfileHonors": [
        {
          "seq": 1,
          "profileHonorType": "normal",
          "honorId": 927,
          "honorLevel": 1,
          "bondsHonorViewType": "none",
          "bondsHonorWordId": 0
        },
        {
          "seq": 2,
          "profileHonorType": "normal",
          "honorId": 42,
          "honorLevel": 4,
          "bondsHonorViewType": "none",
          "bondsHonorWordId": 0
        },
        {
          "seq": 3,
          "profileHonorType": "normal",
          "honorId": 46,
          "honorLevel": 4,
          "bondsHonorViewType": "none",
          "bondsHonorWordId": 0
        }
      ],
      "userCheerfulCarnival": {}
    },
    {
      "userId": 5238999141060612,
      "score": 155251008,
      "rank": 10,
      "isOwn": false,
      "name": "アオヤギカーニバル",
      "userCard": {
        "cardId": 341,
        "level": 60,
        "masterRank": 5,
        "specialTrainingStatus": "done",
        "defaultImage": "special_training"
      },
      "userProfile": {
        "userId": 5238999141060612,
        "word": "完走 野良猫",
        "twitterId": "sera_prsk",
        "profileImageType": "leader"
      },
      "userProfileHonors": [
        {
          "seq": 1,
          "profileHonorType": "normal",
          "honorId": 1023,
          "honorLevel": 1,
          "bondsHonorViewType": "none",
          "bondsHonorWordId": 0
        },
        {
          "seq": 2,
          "profileHonorType": "normal",
          "honorId": 30,
          "honorLevel": 4,
          "bondsHonorViewType": "none",
          "bondsHonorWordId": 0
        },
        {
          "seq": 3,
          "profileHonorType": "normal",
          "honorId": 46,
          "honorLevel": 4,
          "bondsHonorViewType": "none",
          "bondsHonorWordId": 0
        }
      ],
      "userCheerfulCarnival": {}
    }
  ],
  "rank20": [
    {
      "userId": 6168057219436553,
      "score": 132525108,
      "rank": 20,
      "isOwn": false,
      "name": "冬弥は超絶かわいい♡",
      "userCard": {
        "cardId": 341,
        "level": 60,
        "masterRank": 5,
        "specialTrainingStatus": "done",
        "defaultImage": "original"
      },
      "userProfile": {
        "userId": 6168057219436553,
        "word": "にこにことやちゃんしか！",
        "twitterId": "",
        "profileImageType": "leader"
      },
      "userProfileHonors": [
        {
          "seq": 1,
          "profileHonorType": "normal",
          "honorId": 512,
          "honorLevel": 1,
          "bondsHonorViewType": "none",
          "bondsHonorWordId": 0
        },
        {
          "seq": 2,
          "profileHonorType": "normal",
          "honorId": 42,
          "honorLevel": 4,
          "bondsHonorViewType": "none",
          "bondsHonorWordId": 0
        },
        {
          "seq": 3,
          "profileHonorType": "normal",
          "honorId": 46,
          "honorLevel": 4,
          "bondsHonorViewType": "none",
          "bondsHonorWordId": 0
        }
      ],
      "userCheerfulCarnival": {}
    }
  ],
  "rank30": [
    {
      "userId": 11430302882869250,
      "score": 114799020,
      "rank": 30,
      "isOwn": false,
      "name": "限界鎖骨",
      "userCard": {
        "cardId": 199,
        "level": 60,
        "masterRank": 5,
        "specialTrainingStatus": "done",
        "defaultImage": "special_training"
      },
      "userProfile": {
        "userId": 11430302882869250,
        "word": "アルシム(∩^o^)⊃━☆ﾟ.*･｡",
        "honorId1": 1341,
        "honorLevel1": 1,
        "twitterId": "ayty_525",
        "profileImageType": "leader"
      },
      "userProfileHonors": [
        {
          "seq": 1,
          "profileHonorType": "normal",
          "honorId": 46,
          "honorLevel": 4,
          "bondsHonorViewType": "none",
          "bondsHonorWordId": 0
        },
        {
          "seq": 2,
          "profileHonorType": "normal",
          "honorId": 62,
          "honorLevel": 3,
          "bondsHonorViewType": "none",
          "bondsHonorWordId": 0
        },
        {
          "seq": 3,
          "profileHonorType": "normal",
          "honorId": 102,
          "honorLevel": 2,
          "bondsHonorViewType": "none",
          "bondsHonorWordId": 0
        }
      ],
      "userCheerfulCarnival": {}
    }
  ],
  "rank40": [
    {
      "userId": 9188134017880072,
      "score": 100164280,
      "rank": 40,
      "isOwn": false,
      "name": "俺俺",
      "userCard": {
        "cardId": 341,
        "level": 60,
        "masterRank": 5,
        "specialTrainingStatus": "done",
        "defaultImage": "original"
      },
      "userProfile": {
        "userId": 9188134017880072,
        "word": "俺俺道進",
        "honorId1": 241,
        "honorLevel1": 1,
        "twitterId": "___raaamuuu",
        "profileImageType": "leader"
      },
      "userProfileHonors": [
        {
          "seq": 1,
          "profileHonorType": "normal",
          "honorId": 46,
          "honorLevel": 3,
          "bondsHonorViewType": "none",
          "bondsHonorWordId": 0
        },
        {
          "seq": 2,
          "profileHonorType": "normal",
          "honorId": 241,
          "honorLevel": 1,
          "bondsHonorViewType": "none",
          "bondsHonorWordId": 0
        },
        {
          "seq": 3,
          "profileHonorType": "normal",
          "honorId": 144,
          "honorLevel": 1,
          "bondsHonorViewType": "none",
          "bondsHonorWordId": 0
        }
      ],
      "userCheerfulCarnival": {}
    }
  ],
  "rank50": [
    {
      "userId": 5210341265506308,
      "score": 92222525,
      "rank": 50,
      "isOwn": false,
      "name": "せい",
      "userCard": {
        "cardId": 341,
        "level": 60,
        "masterRank": 5,
        "specialTrainingStatus": "done",
        "defaultImage": "original"
      },
      "userProfile": {
        "userId": 5210341265506308,
        "word": "頼むぜ、相棒",
        "twitterId": "",
        "profileImageType": "leader"
      },
      "userProfileHonors": [
        {
          "seq": 1,
          "profileHonorType": "bonds",
          "honorId": 1111202,
          "honorLevel": 2,
          "bondsHonorViewType": "reverse",
          "bondsHonorWordId": 1111202
        },
        {
          "seq": 2,
          "profileHonorType": "normal",
          "honorId": 46,
          "honorLevel": 3,
          "bondsHonorViewType": "none",
          "bondsHonorWordId": 0
        },
        {
          "seq": 3,
          "profileHonorType": "normal",
          "honorId": 42,
          "honorLevel": 3,
          "bondsHonorViewType": "none",
          "bondsHonorWordId": 0
        }
      ],
      "userCheerfulCarnival": {}
    }
  ],
  "rank100": [
    {
      "userId": 21154258510737424,
      "score": 64051660,
      "rank": 100,
      "isOwn": false,
      "name": "しののめぐりっち",
      "userCard": {
        "cardId": 343,
        "level": 60,
        "masterRank": 1,
        "specialTrainingStatus": "done",
        "defaultImage": "special_training"
      },
      "userProfile": {
        "userId": 21154258510737424,
        "word": "#ごまぺちゃしか勝たん#100ラン頑張るわ",
        "twitterId": "_xxx_a_p_24",
        "profileImageType": "leader"
      },
      "userProfileHonors": [
        {
          "seq": 1,
          "profileHonorType": "normal",
          "honorId": 737,
          "honorLevel": 1
        },
        {
          "seq": 2,
          "profileHonorType": "normal",
          "honorId": 42,
          "honorLevel": 3
        },
        {
          "seq": 3,
          "profileHonorType": "normal",
          "honorId": 50,
          "honorLevel": 3
        }
      ],
      "userCheerfulCarnival": {}
    }
  ],
  "rank200": [
    {
      "userId": 5119707623849991,
      "score": 38467298,
      "rank": 200,
      "isOwn": false,
      "name": "ゆう",
      "userCard": {
        "cardId": 342,
        "level": 60,
        "masterRank": 5,
        "specialTrainingStatus": "done",
        "defaultImage": "special_training"
      },
      "userProfile": {
        "userId": 5119707623849991,
        "word": "ビビバス箱推しです！",
        "twitterId": "",
        "profileImageType": "leader"
      },
      "userProfileHonors": [
        {
          "seq": 1,
          "profileHonorType": "bonds",
          "honorId": 1111201,
          "honorLevel": 5,
          "bondsHonorViewType": "normal",
          "bondsHonorWordId": 1111202
        },
        {
          "seq": 2,
          "profileHonorType": "normal",
          "honorId": 42,
          "honorLevel": 3,
          "bondsHonorWordId": 0
        },
        {
          "seq": 3,
          "profileHonorType": "normal",
          "honorId": 46,
          "honorLevel": 4,
          "bondsHonorWordId": 0
        }
      ],
      "userCheerfulCarnival": {}
    }
  ],
  "rank300": [
    {
      "userId": 12730325818146820,
      "score": 29452815,
      "rank": 300,
      "isOwn": false,
      "name": "どみ",
      "userCard": {
        "cardId": 252,
        "level": 50,
        "masterRank": 5,
        "specialTrainingStatus": "done",
        "defaultImage": "special_training"
      },
      "userProfile": {
        "userId": 12730325818146820,
        "word": "もう課金しません",
        "twitterId": "彰人",
        "profileImageType": "leader"
      },
      "userProfileHonors": [
        {
          "seq": 1,
          "profileHonorType": "bonds",
          "honorId": 1111201,
          "honorLevel": 5,
          "bondsHonorViewType": "normal",
          "bondsHonorWordId": 1111202
        },
        {
          "seq": 2,
          "profileHonorType": "normal",
          "honorId": 42,
          "honorLevel": 3,
          "bondsHonorViewType": "none",
          "bondsHonorWordId": 0
        },
        {
          "seq": 3,
          "profileHonorType": "normal",
          "honorId": 1126,
          "honorLevel": 1,
          "bondsHonorWordId": 0
        }
      ],
      "userCheerfulCarnival": {}
    }
  ],
  "rank400": [
    {
      "userId": 5196457259532292,
      "score": 25250108,
      "rank": 400,
      "isOwn": false,
      "name": "神山高校図書委員長",
      "userCard": {
        "cardId": 342,
        "level": 60,
        "masterRank": 0,
        "specialTrainingStatus": "done",
        "defaultImage": "special_training"
      },
      "userProfile": {
        "userId": 5196457259532292,
        "word": "迎えに来た相棒と並んで帰る背中を見送る夕暮れの図書室",
        "twitterId": "ksm_zt_",
        "profileImageType": "leader"
      },
      "userProfileHonors": [
        {
          "seq": 1,
          "profileHonorType": "bonds",
          "honorId": 1111201,
          "honorLevel": 4,
          "bondsHonorViewType": "normal",
          "bondsHonorWordId": 1111201
        },
        {
          "seq": 2,
          "profileHonorType": "normal",
          "honorId": 522,
          "honorLevel": 1,
          "bondsHonorWordId": 0
        },
        {
          "seq": 3,
          "profileHonorType": "normal",
          "honorId": 816,
          "honorLevel": 1,
          "bondsHonorWordId": 0
        }
      ],
      "userCheerfulCarnival": {}
    }
  ],
  "rank500": [
    {
      "userId": 68879289759596540,
      "score": 23758621,
      "rank": 500,
      "isOwn": false,
      "name": "きの",
      "userCard": {
        "cardId": 341,
        "level": 60,
        "masterRank": 3,
        "specialTrainingStatus": "done",
        "defaultImage": "special_training"
      },
      "userProfile": {
        "userId": 68879289759596540,
        "word": "逃げちゃダメだ逃げちゃダメだ逃げちゃダメだ逃げちゃダメだ",
        "twitterId": "",
        "profileImageType": "leader"
      },
      "userProfileHonors": [
        {
          "seq": 1,
          "profileHonorType": "bonds",
          "honorId": 1111201,
          "honorLevel": 4,
          "bondsHonorViewType": "normal",
          "bondsHonorWordId": 1111201
        },
        {
          "seq": 2,
          "profileHonorType": "normal",
          "honorId": 46,
          "honorLevel": 2,
          "bondsHonorWordId": 0
        },
        {
          "seq": 3,
          "profileHonorType": "normal",
          "honorId": 241,
          "honorLevel": 1,
          "bondsHonorWordId": 0
        }
      ],
      "userCheerfulCarnival": {}
    }
  ],
  "rank1000": [
    {
      "userId": 35347256995774470,
      "score": 16751636,
      "rank": 1000,
      "isOwn": false,
      "name": "煩悩@惰弱",
      "userCard": {
        "cardId": 292,
        "level": 60,
        "masterRank": 2,
        "specialTrainingStatus": "done",
        "defaultImage": "special_training"
      },
      "userProfile": {
        "userId": 35347256995774470,
        "word": "杏ちゃんって鎖骨他の人より深くないですか？1000ラン",
        "twitterId": "@QK_Remu",
        "profileImageType": "leader"
      },
      "userProfileHonors": [
        {
          "seq": 1,
          "profileHonorType": "bonds",
          "honorId": 1092301,
          "honorLevel": 3,
          "bondsHonorViewType": "normal",
          "bondsHonorWordId": 1092301
        },
        {
          "seq": 2,
          "profileHonorType": "normal",
          "honorId": 38,
          "honorLevel": 1,
          "bondsHonorViewType": "none",
          "bondsHonorWordId": 0
        },
        {
          "seq": 3,
          "profileHonorType": "normal",
          "honorId": 1163,
          "honorLevel": 1,
          "bondsHonorWordId": 0
        }
      ],
      "userCheerfulCarnival": {}
    }
  ],
  "rank2000": [
    {
      "userId": 55932381852631050,
      "score": 8012507,
      "rank": 2000,
      "isOwn": false,
      "name": "社畜",
      "userCard": {
        "cardId": 252,
        "level": 50,
        "masterRank": 5,
        "specialTrainingStatus": "done",
        "defaultImage": "special_training"
      },
      "userProfile": {
        "userId": 55932381852631050,
        "word": "イベントお疲れ様です！",
        "twitterId": "let it beでしょうか",
        "profileImageType": "leader"
      },
      "userProfileHonors": [
        {
          "seq": 1,
          "profileHonorType": "normal",
          "honorId": 241,
          "honorLevel": 1,
          "bondsHonorViewType": "none",
          "bondsHonorWordId": 0
        },
        {
          "seq": 2,
          "profileHonorType": "normal",
          "honorId": 46,
          "honorLevel": 1,
          "bondsHonorWordId": 0
        },
        {
          "seq": 3,
          "profileHonorType": "normal",
          "honorId": 215,
          "honorLevel": 1,
          "bondsHonorWordId": 0
        }
      ],
      "userCheerfulCarnival": {}
    }
  ],
  "rank3000": [
    {
      "userId": 50434529948856340,
      "score": 6002282,
      "rank": 3000,
      "isOwn": false,
      "name": "江口の心臓になりたい",
      "userCard": {
        "cardId": 341,
        "level": 60,
        "masterRank": 2,
        "specialTrainingStatus": "done",
        "defaultImage": "special_training"
      },
      "userProfile": {
        "userId": 50434529948856340,
        "word": "冬弥最高！！！！！",
        "twitterId": "akas_tz__",
        "profileImageType": "leader"
      },
      "userProfileHonors": [
        {
          "seq": 1,
          "profileHonorType": "normal",
          "honorId": 46,
          "honorLevel": 2,
          "bondsHonorWordId": 0
        },
        {
          "seq": 2,
          "profileHonorType": "bonds",
          "honorId": 1111201,
          "honorLevel": 2,
          "bondsHonorViewType": "normal",
          "bondsHonorWordId": 1111201
        },
        {
          "seq": 3,
          "profileHonorType": "normal",
          "honorId": 1108,
          "honorLevel": 1,
          "bondsHonorWordId": 0
        }
      ],
      "userCheerfulCarnival": {}
    }
  ],
  "rank4000": [
    {
      "userId": 86706112681771000,
      "score": 5076717,
      "rank": 4000,
      "isOwn": false,
      "name": "おさかな",
      "userCard": {
        "cardId": 199,
        "level": 60,
        "masterRank": 0,
        "specialTrainingStatus": "done",
        "defaultImage": "special_training"
      },
      "userProfile": {
        "userId": 86706112681771000,
        "word": "ε(  ε^o^)э",
        "twitterId": "",
        "profileImageType": "leader"
      },
      "userProfileHonors": [
        {
          "seq": 1,
          "profileHonorType": "normal",
          "honorId": 61,
          "honorLevel": 5
        },
        {
          "seq": 2,
          "profileHonorType": "normal",
          "honorId": 1148,
          "honorLevel": 1
        },
        {
          "seq": 3,
          "profileHonorType": "normal",
          "honorId": 123,
          "honorLevel": 3
        }
      ],
      "userCheerfulCarnival": {}
    }
  ],
  "rank5000": [
    {
      "userId": 65063243655442430,
      "score": 4822126,
      "rank": 5000,
      "isOwn": false,
      "name": "てち",
      "userCard": {
        "cardId": 341,
        "level": 60,
        "masterRank": 3,
        "specialTrainingStatus": "done",
        "defaultImage": "original"
      },
      "userProfile": {
        "userId": 65063243655442430,
        "word": "",
        "twitterId": "",
        "profileImageType": "leader"
      },
      "userProfileHonors": [
        {
          "seq": 1,
          "profileHonorType": "normal",
          "honorId": 1341,
          "honorLevel": 1,
          "bondsHonorWordId": 0
        },
        {
          "seq": 2,
          "profileHonorType": "normal",
          "honorId": 1148,
          "honorLevel": 1,
          "bondsHonorWordId": 0
        },
        {
          "seq": 3,
          "profileHonorType": "bonds",
          "honorId": 1111201,
          "honorLevel": 2,
          "bondsHonorViewType": "normal",
          "bondsHonorWordId": 1111201
        }
      ],
      "userCheerfulCarnival": {}
    }
  ],
  "rank10000": [
    {
      "userId": 6293214478823424,
      "score": 3232440,
      "rank": 10000,
      "isOwn": false,
      "name": "ショコラ",
      "userCard": {
        "cardId": 252,
        "level": 50,
        "masterRank": 5,
        "specialTrainingStatus": "done",
        "defaultImage": "special_training"
      },
      "userProfile": {
        "userId": 6293214478823424,
        "word": "",
        "twitterId": "",
        "profileImageType": "leader"
      },
      "userProfileHonors": [
        {
          "seq": 1,
          "profileHonorType": "normal",
          "honorId": 50,
          "honorLevel": 1
        },
        {
          "seq": 2,
          "profileHonorType": "normal",
          "honorId": 89,
          "honorLevel": 5
        },
        {
          "seq": 3,
          "profileHonorType": "normal",
          "honorId": 843,
          "honorLevel": 1
        }
      ],
      "userCheerfulCarnival": {}
    }
  ],
  "rank20000": [
    {
      "userId": 5607465110724617,
      "score": 2037267,
      "rank": 20000,
      "isOwn": false,
      "name": "ふうか@冬弥Love",
      "userCard": {
        "cardId": 165,
        "level": 60,
        "masterRank": 5,
        "specialTrainingStatus": "done",
        "defaultImage": "special_training"
      },
      "userProfile": {
        "userId": 5607465110724617,
        "word": "︎冬弥君激推し♡皆伝/5.19",
        "twitterId": "fuka_tenriku79",
        "profileImageType": "leader"
      },
      "userProfileHonors": [
        {
          "seq": 1,
          "profileHonorType": "normal",
          "honorId": 46,
          "honorLevel": 2
        },
        {
          "seq": 2,
          "profileHonorType": "normal",
          "honorId": 41,
          "honorLevel": 5
        },
        {
          "seq": 3,
          "profileHonorType": "normal",
          "honorId": 241,
          "honorLevel": 1
        }
      ],
      "userCheerfulCarnival": {}
    }
  ],
  "rank30000": [
    {
      "userId": 5119594394365963,
      "score": 1720597,
      "rank": 30000,
      "isOwn": false,
      "name": "♡あずさ♡",
      "userCard": {
        "cardId": 124,
        "level": 60,
        "masterRank": 2,
        "specialTrainingStatus": "done",
        "defaultImage": "special_training"
      },
      "userProfile": {
        "userId": 5119594394365963,
        "word": "やっぱうまい棒はやきとり味が最高；；♡♡♡",
        "twitterId": "ガチャ禁(たぶん)",
        "profileImageType": "leader"
      },
      "userProfileHonors": [
        {
          "seq": 1,
          "profileHonorType": "bonds",
          "honorId": 1141601,
          "honorLevel": 1,
          "bondsHonorViewType": "reverse",
          "bondsHonorWordId": 1141601
        },
        {
          "seq": 2,
          "profileHonorType": "normal",
          "honorId": 62,
          "honorLevel": 4,
          "bondsHonorWordId": 0
        },
        {
          "seq": 3,
          "profileHonorType": "normal",
          "honorId": 54,
          "honorLevel": 3,
          "bondsHonorWordId": 0
        }
      ],
      "userCheerfulCarnival": {}
    }
  ],
  "rank40000": [
    {
      "userId": 125888333705236480,
      "score": 1553161,
      "rank": 40000,
      "isOwn": false,
      "name": "彩斗",
      "userCard": {
        "cardId": 339,
        "level": 60,
        "masterRank": 2,
        "specialTrainingStatus": "done",
        "defaultImage": "special_training"
      },
      "userProfile": {
        "userId": 125888333705236480,
        "word": "兄さん大好きだ〜！！！",
        "twitterId": "",
        "profileImageType": "leader"
      },
      "userProfileHonors": [
        {
          "seq": 1,
          "profileHonorType": "normal",
          "honorId": 101,
          "honorLevel": 5,
          "bondsHonorViewType": "none",
          "bondsHonorWordId": 0
        },
        {
          "seq": 2,
          "profileHonorType": "bonds",
          "honorId": 1232601,
          "honorLevel": 1,
          "bondsHonorViewType": "normal",
          "bondsHonorWordId": 1232601
        },
        {
          "seq": 3,
          "profileHonorType": "bonds",
          "honorId": 1132601,
          "honorLevel": 1,
          "bondsHonorViewType": "normal",
          "bondsHonorWordId": 1132601
        }
      ],
      "userCheerfulCarnival": {}
    }
  ],
  "rank50000": [
    {
      "userId": 7808092821577734,
      "score": 1475998,
      "rank": 50000,
      "isOwn": false,
      "name": "アクアリウム",
      "userCard": {
        "cardId": 168,
        "level": 50,
        "masterRank": 5,
        "specialTrainingStatus": "done",
        "defaultImage": "special_training"
      },
      "userProfile": {
        "userId": 7808092821577734,
        "word": "",
        "twitterId": "",
        "profileImageType": "leader"
      },
      "userProfileHonors": [
        {
          "seq": 1,
          "profileHonorType": "normal",
          "honorId": 70,
          "honorLevel": 1
        },
        {
          "seq": 2,
          "profileHonorType": "normal",
          "honorId": 247,
          "honorLevel": 1
        },
        {
          "seq": 3,
          "profileHonorType": "normal",
          "honorId": 729,
          "honorLevel": 1
        }
      ],
      "userCheerfulCarnival": {}
    }
  ],
  "rank100000": [
    {
      "userId": 13337862531784712,
      "score": 1044151,
      "rank": 100000,
      "isOwn": false,
      "name": "しろくま",
      "userCard": {
        "cardId": 39,
        "level": 50,
        "masterRank": 5,
        "specialTrainingStatus": "done",
        "defaultImage": "special_training"
      },
      "userProfile": {
        "userId": 13337862531784712,
        "word": "",
        "twitterId": "",
        "profileImageType": "leader"
      },
      "userProfileHonors": [
        {
          "seq": 1,
          "profileHonorType": "normal",
          "honorId": 77,
          "honorLevel": 3
        },
        {
          "seq": 2,
          "profileHonorType": "normal",
          "honorId": 1194,
          "honorLevel": 1
        },
        {
          "seq": 3,
          "profileHonorType": "normal",
          "honorId": 1167,
          "honorLevel": 1
        }
      ],
      "userCheerfulCarnival": {}
    }
  ]
}