{
  "time": 1613477758042,
  "first10": [
    {
      "userId": 33751236952014856,
      "score": 95000000,
      "rank": 1,
      "isOwn": false,
      "name": "ぷる",
      "userCard": {
        "cardId": 54,
        "level": 30,
        "masterRank": 0,
        "specialTrainingStatus": "not_doing",
        "defaultImage": "original"
      },
      "userProfile": {
        "userId": 33751236952014856,
        "word": "志歩ちゃん！！！！！！！！",
        "honorId1": 464,
        "honorLevel1": 1,
        "honorId2": 14,
        "honorLevel2": 1,
        "honorId3": 10,
        "honorLevel3": 1,
        "twitterId": "puru__sv",
        "profileImageType": "leader"
      }
    },
    {
      "userId": 5695376246673411,
      "score": 88181818,
      "rank": 2,
      "isOwn": false,
      "name": "天カワ",
      "userCard": {
        "cardId": 170,
        "level": 60,
        "masterRank": 5,
        "specialTrainingStatus": "done",
        "defaultImage": "special_training"
      },
      "userProfile": {
        "userId": 5695376246673411,
        "word": "生まれから単推し",
        "honorId1": 14,
        "honorLevel1": 1,
        "honorId2": 207,
        "honorLevel2": 1,
        "honorId3": 233,
        "honorLevel3": 1,
        "twitterId": "roy90492355",
        "profileImageType": "leader"
      }
    },
    {
      "userId": 5137046532431873,
      "score": 77777777,
      "rank": 3,
      "isOwn": false,
      "name": "はなこ",
      "userCard": {
        "cardId": 160,
        "level": 60,
        "masterRank": 5,
        "specialTrainingStatus": "done",
        "defaultImage": "original"
      },
      "userProfile": {
        "userId": 5137046532431873,
        "word": "まだ見ぬ色を求めて",
        "honorId1": 485,
        "honorLevel1": 1,
        "honorId2": 14,
        "honorLevel2": 2,
        "honorId3": 30,
        "honorLevel3": 1,
        "twitterId": "HanakoSaaan",
        "profileImageType": "leader"
      }
    },
    {
      "userId": 5320495365402632,
      "score": 66670000,
      "rank": 4,
      "isOwn": false,
      "name": "ぐみみ@応援大使",
      "userCard": {
        "cardId": 39,
        "level": 50,
        "masterRank": 5,
        "specialTrainingStatus": "done",
        "defaultImage": "special_training"
      },
      "userProfile": {
        "userId": 5320495365402632,
        "word": "ほなちゃ推し！イベラン中の為、亀更新すみません",
        "honorId1": 10,
        "honorLevel1": 2,
        "honorId2": 464,
        "honorLevel2": 1,
        "honorId3": 232,
        "honorLevel3": 1,
        "twitterId": "prsk_ranking",
        "profileImageType": "leader"
      }
    },
    {
      "userId": 5147239777996811,
      "score": 64000799,
      "rank": 5,
      "isOwn": false,
      "name": "スイ",
      "userCard": {
        "cardId": 170,
        "level": 60,
        "masterRank": 5,
        "specialTrainingStatus": "done",
        "defaultImage": "special_training"
      },
      "userProfile": {
        "userId": 5147239777996811,
        "word": "あの東方永夜抄Lunatic60.56億の！！！",
        "honorId1": 78,
        "honorLevel1": 1,
        "twitterId": "suikun_1201",
        "profileImageType": "leader"
      }
    },
    {
      "userId": 6552973816307727,
      "score": 62280228,
      "rank": 6,
      "isOwn": false,
      "name": "ゆ！",
      "userCard": {
        "cardId": 55,
        "level": 50,
        "masterRank": 5,
        "specialTrainingStatus": "done",
        "defaultImage": "original"
      },
      "userProfile": {
        "userId": 6552973816307727,
        "word": "ゆゆゆゆゆゆゆ！！！",
        "honorId1": 54,
        "honorLevel1": 1,
        "honorId2": 535,
        "honorLevel2": 1,
        "honorId3": 411,
        "honorLevel3": 1,
        "twitterId": "ysk4_4sky",
        "profileImageType": "leader"
      }
    },
    {
      "userId": 18693599915020304,
      "score": 60000000,
      "rank": 7,
      "isOwn": false,
      "name": "29",
      "userCard": {
        "cardId": 171,
        "level": 60,
        "masterRank": 5,
        "specialTrainingStatus": "done",
        "defaultImage": "special_training"
      },
      "userProfile": {
        "userId": 18693599915020304,
        "word": "協力ライブありがとうございました！",
        "honorId2": 86,
        "honorLevel2": 1,
        "honorId3": 66,
        "honorLevel3": 1,
        "twitterId": "",
        "profileImageType": "leader"
      }
    },
    {
      "userId": 8109060985823242,
      "score": 59157687,
      "rank": 8,
      "isOwn": false,
      "name": "きゅ",
      "userCard": {
        "cardId": 172,
        "level": 60,
        "masterRank": 5,
        "specialTrainingStatus": "done",
        "defaultImage": "special_training"
      },
      "userProfile": {
        "userId": 8109060985823242,
        "word": "╰( 'ω’)╯╰( 'ω’)╯",
        "honorId1": 6,
        "honorLevel1": 1,
        "honorId2": 468,
        "honorLevel2": 1,
        "honorId3": 106,
        "honorLevel3": 1,
        "twitterId": "",
        "profileImageType": "leader"
      }
    },
    {
      "userId": 5240491130621955,
      "score": 55000000,
      "rank": 9,
      "isOwn": false,
      "name": "お茶",
      "userCard": {
        "cardId": 119,
        "level": 60,
        "masterRank": 5,
        "specialTrainingStatus": "done",
        "defaultImage": "special_training"
      },
      "userProfile": {
        "userId": 5240491130621955,
        "word": "草薙寧々さんのお友達が増えたね記念イベント",
        "honorId1": 411,
        "honorLevel1": 1,
        "honorId2": 62,
        "honorLevel2": 2,
        "honorId3": 58,
        "honorLevel3": 1,
        "twitterId": "wlst_tea",
        "profileImageType": "leader"
      }
    },
    {
      "userId": 5836388876832774,
      "score": 51867645,
      "rank": 10,
      "isOwn": false,
      "name": "てつ༄",
      "userCard": {
        "cardId": 144,
        "level": 60,
        "masterRank": 0,
        "specialTrainingStatus": "done",
        "defaultImage": "special_training"
      },
      "userProfile": {
        "userId": 5836388876832774,
        "word": "キャラランク上げをモチベに。",
        "honorId1": 10,
        "honorLevel1": 2,
        "honorId2": 6,
        "honorLevel2": 2,
        "honorId3": 82,
        "honorLevel3": 2,
        "twitterId": "ttgrp11",
        "profileImageType": "leader"
      }
    }
  ],
  "rank20": [
    {
      "userId": 5119914780438534,
      "score": 37777777,
      "rank": 20,
      "isOwn": false,
      "name": "かんぱり",
      "userCard": {
        "cardId": 172,
        "level": 60,
        "masterRank": 5,
        "specialTrainingStatus": "done",
        "defaultImage": "special_training"
      },
      "userProfile": {
        "userId": 5119914780438534,
        "word": "私が一番楽しもう！",
        "honorId1": 82,
        "honorLevel1": 3,
        "honorId2": 436,
        "honorLevel2": 1,
        "honorId3": 183,
        "honorLevel3": 1,
        "twitterId": "",
        "profileImageType": "leader"
      }
    }
  ],
  "rank30": [
    {
      "userId": 5954911028117504,
      "score": 32885031,
      "rank": 30,
      "isOwn": false,
      "name": "あいすたべたい",
      "userCard": {
        "cardId": 171,
        "level": 60,
        "masterRank": 3,
        "specialTrainingStatus": "done",
        "defaultImage": "original"
      },
      "userProfile": {
        "userId": 5954911028117504,
        "word": "新規☆4 寧々ちゃん可愛いから走れたよ。",
        "honorId1": 58,
        "honorLevel1": 2,
        "honorId2": 409,
        "honorLevel2": 1,
        "twitterId": "草薙寧々ちゃん",
        "profileImageType": "leader"
      }
    }
  ],
  "rank40": [
    {
      "userId": 6991489917800452,
      "score": 28251834,
      "rank": 40,
      "isOwn": false,
      "name": "40位ボーダーの男",
      "userCard": {
        "cardId": 88,
        "level": 60,
        "masterRank": 2,
        "specialTrainingStatus": "done",
        "defaultImage": "special_training"
      },
      "userProfile": {
        "userId": 6991489917800452,
        "word": "DIVAAC勢・新米ゆきすと",
        "honorId1": 233,
        "honorLevel1": 1,
        "honorId2": 13,
        "honorLevel2": 4,
        "honorId3": 503,
        "honorLevel3": 1,
        "twitterId": "kaga20160508",
        "profileImageType": "leader"
      }
    }
  ],
  "rank50": [
    {
      "userId": 45894697960615944,
      "score": 27097012,
      "rank": 50,
      "isOwn": false,
      "name": "新垣結衣",
      "userCard": {
        "cardId": 172,
        "level": 60,
        "masterRank": 0,
        "specialTrainingStatus": "done",
        "defaultImage": "special_training"
      },
      "userProfile": {
        "userId": 45894697960615944,
        "word": "",
        "honorId2": 5,
        "honorLevel2": 2,
        "honorId3": 53,
        "honorLevel3": 2,
        "twitterId": "lespros_aragaki",
        "profileImageType": "leader"
      }
    }
  ],
  "rank100": [
    {
      "userId": 5281066059440130,
      "score": 18900324,
      "rank": 100,
      "isOwn": false,
      "name": "Saiki",
      "userCard": {
        "cardId": 172,
        "level": 60,
        "masterRank": 5,
        "specialTrainingStatus": "done",
        "defaultImage": "original"
      },
      "userProfile": {
        "userId": 5281066059440130,
        "word": "音ゲーむずい",
        "honorId1": 14,
        "honorLevel1": 1,
        "honorId2": 195,
        "honorLevel2": 1,
        "honorId3": 126,
        "honorLevel3": 1,
        "twitterId": "ProbablySaiki",
        "profileImageType": "leader"
      }
    }
  ],
  "rank200": [
    {
      "userId": 5283248184442888,
      "score": 8752992,
      "rank": 200,
      "isOwn": false,
      "name": "アクア今イベ走ります",
      "userCard": {
        "cardId": 88,
        "level": 60,
        "masterRank": 5,
        "specialTrainingStatus": "done",
        "defaultImage": "special_training"
      },
      "userProfile": {
        "userId": 5283248184442888,
        "word": "2/5 0309 miku໒꒱ トワイライト走ります 志歩神",
        "honorId1": 447,
        "honorLevel1": 1,
        "honorId2": 82,
        "honorLevel2": 1,
        "honorId3": 106,
        "honorLevel3": 1,
        "twitterId": "akuapuroseka",
        "profileImageType": "leader"
      }
    }
  ],
  "rank300": [
    {
      "userId": 6397937496731660,
      "score": 7299537,
      "rank": 300,
      "isOwn": false,
      "name": "げこたこ",
      "userCard": {
        "cardId": 172,
        "level": 60,
        "masterRank": 5,
        "specialTrainingStatus": "done",
        "defaultImage": "original"
      },
      "userProfile": {
        "userId": 6397937496731660,
        "word": "",
        "honorId1": 9,
        "honorLevel1": 5,
        "honorId2": 232,
        "honorLevel2": 1,
        "honorId3": 470,
        "honorLevel3": 1,
        "twitterId": "",
        "profileImageType": "leader"
      }
    }
  ],
  "rank400": [
    {
      "userId": 16394783140368384,
      "score": 6499844,
      "rank": 400,
      "isOwn": false,
      "name": "myonpi",
      "userCard": {
        "cardId": 119,
        "level": 60,
        "masterRank": 3,
        "specialTrainingStatus": "done",
        "defaultImage": "original"
      },
      "userProfile": {
        "userId": 16394783140368384,
        "word": "イベ乙",
        "honorId1": 295,
        "honorLevel1": 1,
        "honorId2": 49,
        "honorLevel2": 5,
        "honorId3": 111,
        "honorLevel3": 1,
        "twitterId": "",
        "profileImageType": "leader"
      }
    }
  ],
  "rank500": [
    {
      "userId": 51983834170093580,
      "score": 6076193,
      "rank": 500,
      "isOwn": false,
      "name": "ふうのひ",
      "userCard": {
        "cardId": 172,
        "level": 60,
        "masterRank": 0,
        "specialTrainingStatus": "done",
        "defaultImage": "original"
      },
      "userProfile": {
        "userId": 51983834170093580,
        "word": "2021年2月6日 始めました 穂波推し 目指せTOP500",
        "honorId1": 9,
        "honorLevel1": 2,
        "honorId2": 13,
        "honorLevel2": 1,
        "honorId3": 535,
        "honorLevel3": 1,
        "twitterId": "",
        "profileImageType": "leader"
      }
    }
  ],
  "rank1000": [
    {
      "userId": 6041556587171855,
      "score": 4085987,
      "rank": 1000,
      "isOwn": false,
      "name": "しんでも最後までして",
      "userCard": {
        "cardId": 156,
        "level": 2,
        "masterRank": 0,
        "specialTrainingStatus": "not_doing",
        "defaultImage": "original"
      },
      "userProfile": {
        "userId": 6041556587171855,
        "word": "天馬家推し",
        "honorId1": 50,
        "honorLevel1": 1,
        "honorId2": 219,
        "honorLevel2": 2,
        "honorId3": 400,
        "honorLevel3": 1,
        "twitterId": "바보병신츠카사",
        "profileImageType": "leader"
      }
    }
  ],
  "rank2000": [
    {
      "userId": 5247498512093193,
      "score": 2351894,
      "rank": 2000,
      "isOwn": false,
      "name": "Roy",
      "userCard": {
        "cardId": 15,
        "level": 50,
        "masterRank": 0,
        "specialTrainingStatus": "done",
        "defaultImage": "special_training"
      },
      "userProfile": {
        "userId": 5247498512093193,
        "word": "",
        "honorId1": 37,
        "honorLevel1": 3,
        "honorId2": 33,
        "honorLevel2": 3,
        "honorId3": 529,
        "honorLevel3": 1,
        "twitterId": "saku120588",
        "profileImageType": "leader"
      }
    }
  ],
  "rank3000": [
    {
      "userId": 13628109509275664,
      "score": 1897737,
      "rank": 3000,
      "isOwn": false,
      "name": "なりう",
      "userCard": {
        "cardId": 120,
        "level": 60,
        "masterRank": 4,
        "specialTrainingStatus": "done",
        "defaultImage": "special_training"
      },
      "userProfile": {
        "userId": 13628109509275664,
        "word": "司くん最推しワンダショ箱推し　よろしくお願いします！！",
        "honorId1": 49,
        "honorLevel1": 4,
        "honorId2": 61,
        "honorLevel2": 4,
        "honorId3": 219,
        "honorLevel3": 1,
        "twitterId": "",
        "profileImageType": "leader"
      }
    }
  ],
  "rank4000": [
    {
      "userId": 5953163912065024,
      "score": 1700972,
      "rank": 4000,
      "isOwn": false,
      "name": "ラス",
      "userCard": {
        "cardId": 63,
        "level": 50,
        "masterRank": 5,
        "specialTrainingStatus": "done",
        "defaultImage": "special_training"
      },
      "userProfile": {
        "userId": 5953163912065024,
        "word": "ケモケモ可愛すぎてクリスタルが消えた。類司民の人とフレド希望",
        "honorId1": 61,
        "honorLevel1": 4,
        "honorId2": 535,
        "honorLevel2": 1,
        "honorId3": 49,
        "honorLevel3": 3,
        "twitterId": "",
        "profileImageType": "leader"
      }
    }
  ],
  "rank5000": [
    {
      "userId": 8877176779259917,
      "score": 1643418,
      "rank": 5000,
      "isOwn": false,
      "name": "株式会社",
      "userCard": {
        "cardId": 111,
        "level": 60,
        "masterRank": 3,
        "specialTrainingStatus": "done",
        "defaultImage": "original"
      },
      "userProfile": {
        "userId": 8877176779259917,
        "word": "志歩がかわいすぎる",
        "honorId1": 13,
        "honorLevel1": 4,
        "honorId2": 106,
        "honorLevel2": 1,
        "honorId3": 115,
        "honorLevel3": 1,
        "twitterId": "",
        "profileImageType": "leader"
      }
    }
  ],
  "rank10000": [
    {
      "userId": 24679862799450110,
      "score": 1223410,
      "rank": 10000,
      "isOwn": false,
      "name": "WIZお疲れ様〜",
      "userCard": {
        "cardId": 152,
        "level": 60,
        "masterRank": 1,
        "specialTrainingStatus": "done",
        "defaultImage": "special_training"
      },
      "userProfile": {
        "userId": 24679862799450110,
        "word": "マリオネットの時のえななん欲しい〜",
        "honorId1": 445,
        "honorLevel1": 1,
        "honorId2": 73,
        "honorLevel2": 4,
        "honorId3": 106,
        "honorLevel3": 1,
        "twitterId": "WIZ_prsk",
        "profileImageType": "leader"
      }
    }
  ],
  "rank20000": [
    {
      "userId": 10696567765962758,
      "score": 956745,
      "rank": 20000,
      "isOwn": false,
      "name": "へぶー",
      "userCard": {
        "cardId": 63,
        "level": 50,
        "masterRank": 0,
        "specialTrainingStatus": "done",
        "defaultImage": "special_training"
      },
      "userProfile": {
        "userId": 10696567765962758,
        "word": "彰人くん冬弥くん類くん司くんKAITO兄さん大好き魔人です",
        "honorId1": 41,
        "honorLevel1": 2,
        "honorId2": 101,
        "honorLevel2": 3,
        "honorId3": 527,
        "honorLevel3": 1,
        "twitterId": "",
        "profileImageType": "leader"
      }
    }
  ],
  "rank30000": [
    {
      "userId": 8383123163881474,
      "score": 849601,
      "rank": 30000,
      "isOwn": false,
      "name": "モジカ",
      "userCard": {
        "cardId": 145,
        "level": 60,
        "masterRank": 0,
        "specialTrainingStatus": "done",
        "defaultImage": "special_training"
      },
      "userProfile": {
        "userId": 8383123163881474,
        "word": "",
        "honorId1": 118,
        "honorLevel1": 3,
        "honorId2": 131,
        "honorLevel2": 1,
        "honorId3": 226,
        "honorLevel3": 2,
        "twitterId": "",
        "profileImageType": "leader"
      }
    }
  ],
  "rank40000": [
    {
      "userId": 7128656896499713,
      "score": 775545,
      "rank": 40000,
      "isOwn": false,
      "name": "りな",
      "userCard": {
        "cardId": 50,
        "level": 30,
        "masterRank": 5,
        "specialTrainingStatus": "not_doing",
        "defaultImage": "original"
      },
      "userProfile": {
        "userId": 7128656896499713,
        "word": "あったまてっかーてーか",
        "honorId1": 532,
        "honorLevel1": 1,
        "honorId2": 49,
        "honorLevel2": 3,
        "honorId3": 5,
        "honorLevel3": 3,
        "twitterId": "",
        "profileImageType": "leader"
      }
    }
  ],
  "rank50000": [
    {
      "userId": 5257041816309772,
      "score": 725814,
      "rank": 50000,
      "isOwn": false,
      "name": "Kank",
      "userCard": {
        "cardId": 88,
        "level": 60,
        "masterRank": 0,
        "specialTrainingStatus": "done",
        "defaultImage": "special_training"
      },
      "userProfile": {
        "userId": 5257041816309772,
        "word": "えななんイベ来るかもしれん恐怖",
        "honorId1": 73,
        "honorLevel1": 4,
        "honorId2": 33,
        "honorLevel2": 3,
        "honorId3": 240,
        "honorLevel3": 1,
        "twitterId": "",
        "profileImageType": "leader"
      }
    }
  ],
  "rank100000": [
    {
      "userId": 5148923526602759,
      "score": 517227,
      "rank": 100000,
      "isOwn": false,
      "name": "たかな",
      "userCard": {
        "cardId": 15,
        "level": 40,
        "masterRank": 2,
        "specialTrainingStatus": "not_doing",
        "defaultImage": "original"
      },
      "userProfile": {
        "userId": 5148923526602759,
        "word": "ゆっくりやってます～。2339!",
        "honorId1": 101,
        "honorLevel1": 3,
        "honorId2": 81,
        "honorLevel2": 3,
        "honorId3": 300,
        "honorLevel3": 1,
        "twitterId": "",
        "profileImageType": "leader"
      }
    }
  ]
}