{
  "time": 1605615358825,
  "first10": [
    {
      "userId": 6980107159744517,
      "score": 108457119,
      "rank": 1,
      "isOwn": false,
      "name": "やらしぃハチマキ",
      "userCard": {
        "cardId": 124,
        "level": 60,
        "masterRank": 5,
        "specialTrainingStatus": "done",
        "defaultImage": "original"
      },
      "userProfile": {
        "userId": 6980107159744517,
        "word": "お疲れ様でした",
        "honorId1": 9,
        "honorLevel1": 3,
        "honorId2": 232,
        "honorLevel2": 1,
        "honorId3": 254,
        "honorLevel3": 1,
        "twitterId": "gyiproject",
        "profileImageType": "leader",
        "userVirtualLiveTop10Rankings": []
      }
    },
    {
      "userId": 5149627766558726,
      "score": 100000000,
      "rank": 2,
      "isOwn": false,
      "name": "きゅあぶしどー☆",
      "userCard": {
        "cardId": 128,
        "level": 30,
        "masterRank": 5,
        "specialTrainingStatus": "not_doing",
        "defaultImage": "original"
      },
      "userProfile": {
        "userId": 5149627766558726,
        "word": "お疲れ様でした",
        "honorId1": 240,
        "honorLevel1": 1,
        "honorId2": 232,
        "honorLevel2": 1,
        "honorId3": 254,
        "honorLevel3": 1,
        "twitterId": "",
        "profileImageType": "leader",
        "userVirtualLiveTop10Rankings": []
      }
    },
    {
      "userId": 5225539418087429,
      "score": 74200000,
      "rank": 3,
      "isOwn": false,
      "name": "ゆなさや",
      "userCard": {
        "cardId": 75,
        "level": 50,
        "masterRank": 5,
        "specialTrainingStatus": "done",
        "defaultImage": "original"
      },
      "userProfile": {
        "userId": 5225539418087429,
        "word": "イベ中叩いた　EX30回　MAS0回敗北しか知らない　イベ乙",
        "honorId1": 74,
        "honorLevel1": 1,
        "honorId2": 260,
        "honorLevel2": 1,
        "honorId3": 22,
        "honorLevel3": 1,
        "twitterId": "yunasayaenaaaaa",
        "profileImageType": "leader",
        "userVirtualLiveTop10Rankings": []
      }
    },
    {
      "userId": 5343597838897160,
      "score": 62626262,
      "rank": 4,
      "isOwn": false,
      "name": "モジャンプ新鋭隊",
      "userCard": {
        "cardId": 125,
        "level": 60,
        "masterRank": 3,
        "specialTrainingStatus": "done",
        "defaultImage": "special_training"
      },
      "userProfile": {
        "userId": 5343597838897160,
        "word": "夢中にさせてくれてありがとう。いつか表彰台に登ろうね。",
        "twitterId": "",
        "profileImageType": "leader",
        "userVirtualLiveTop10Rankings": []
      }
    },
    {
      "userId": 5231839237419012,
      "score": 61697307,
      "rank": 5,
      "isOwn": false,
      "name": "4位ツイアカはよ",
      "userCard": {
        "cardId": 59,
        "level": 50,
        "masterRank": 5,
        "specialTrainingStatus": "done",
        "defaultImage": "special_training"
      },
      "userProfile": {
        "userId": 5231839237419012,
        "word": "プロセカ腐男子部とかない? フォロバするよ挨拶頂戴",
        "honorId1": 219,
        "honorLevel1": 1,
        "honorId2": 57,
        "honorLevel2": 4,
        "honorId3": 53,
        "honorLevel3": 4,
        "twitterId": "Hiiragi_Syu__",
        "profileImageType": "leader",
        "userVirtualLiveTop10Rankings": []
      }
    },
    {
      "userId": 5158572439240707,
      "score": 60010493,
      "rank": 6,
      "isOwn": false,
      "name": "り",
      "userCard": {
        "cardId": 125,
        "level": 60,
        "masterRank": 5,
        "specialTrainingStatus": "done",
        "defaultImage": "original"
      },
      "userProfile": {
        "userId": 5158572439240707,
        "word": "いべおつ",
        "honorId1": 22,
        "honorLevel1": 1,
        "honorId2": 235,
        "honorLevel2": 1,
        "honorId3": 210,
        "honorLevel3": 1,
        "twitterId": "774ry",
        "profileImageType": "leader",
        "userVirtualLiveTop10Rankings": []
      }
    },
    {
      "userId": 5455813087252488,
      "score": 53559840,
      "rank": 7,
      "isOwn": false,
      "name": "お財布わんだほーい！",
      "userCard": {
        "cardId": 124,
        "level": 60,
        "masterRank": 5,
        "specialTrainingStatus": "done",
        "defaultImage": "special_training"
      },
      "userProfile": {
        "userId": 5455813087252488,
        "word": "お前もＷＡＮＤＡＨＯＩにしてやろうかァ！！",
        "honorId1": 131,
        "honorLevel1": 1,
        "honorId2": 54,
        "honorLevel2": 1,
        "honorId3": 123,
        "honorLevel3": 1,
        "twitterId": "enusansan",
        "profileImageType": "leader",
        "userVirtualLiveTop10Rankings": []
      }
    },
    {
      "userId": 5260756250087434,
      "score": 51767288,
      "rank": 8,
      "isOwn": false,
      "name": "ビバ部まらお",
      "userCard": {
        "cardId": 109,
        "level": 60,
        "masterRank": 5,
        "specialTrainingStatus": "done",
        "defaultImage": "special_training"
      },
      "userProfile": {
        "userId": 5260756250087434,
        "word": "まらしぃさんです",
        "honorId1": 5,
        "honorLevel1": 5,
        "honorId2": 290,
        "honorLevel2": 1,
        "honorId3": 123,
        "honorLevel3": 1,
        "twitterId": "marasy8",
        "profileImageType": "leader",
        "userVirtualLiveTop10Rankings": []
      }
    },
    {
      "userId": 5121205737328649,
      "score": 49460114,
      "rank": 9,
      "isOwn": false,
      "name": "みょん",
      "userCard": {
        "cardId": 124,
        "level": 60,
        "masterRank": 0,
        "specialTrainingStatus": "done",
        "defaultImage": "original"
      },
      "userProfile": {
        "userId": 5121205737328649,
        "word": "お疲れ様でした",
        "honorId1": 53,
        "honorLevel1": 4,
        "honorId2": 192,
        "honorLevel2": 1,
        "honorId3": 291,
        "honorLevel3": 1,
        "twitterId": "",
        "profileImageType": "leader",
        "userVirtualLiveTop10Rankings": []
      }
    },
    {
      "userId": 6398950022868998,
      "score": 49005025,
      "rank": 10,
      "isOwn": false,
      "name": "和田アキ子208cm",
      "userCard": {
        "cardId": 125,
        "level": 60,
        "masterRank": 4,
        "specialTrainingStatus": "done",
        "defaultImage": "special_training"
      },
      "userProfile": {
        "userId": 6398950022868998,
        "word": "指あっつ",
        "honorId1": 9,
        "honorLevel1": 1,
        "honorId2": 232,
        "honorLevel2": 1,
        "honorId3": 254,
        "honorLevel3": 1,
        "twitterId": "208cm1",
        "profileImageType": "leader",
        "userVirtualLiveTop10Rankings": []
      }
    }
  ],
  "rank20": [
    {
      "userId": 17626153162665994,
      "score": 35851403,
      "rank": 20,
      "isOwn": false,
      "name": "かおり",
      "userCard": {
        "cardId": 124,
        "level": 60,
        "masterRank": 1,
        "specialTrainingStatus": "done",
        "defaultImage": "special_training"
      },
      "userProfile": {
        "userId": 17626153162665994,
        "word": "始めて約2週間の初心者。Exできません…",
        "honorId1": 5,
        "honorLevel1": 2,
        "honorId2": 129,
        "honorLevel2": 1,
        "twitterId": "_k0107h0128",
        "profileImageType": "leader",
        "userVirtualLiveTop10Rankings": []
      }
    }
  ],
  "rank30": [
    {
      "userId": 8396757826793482,
      "score": 30000000,
      "rank": 30,
      "isOwn": false,
      "name": "顔面崩壊釜戸炭太郎娘",
      "userCard": {
        "cardId": 126,
        "level": 60,
        "masterRank": 2,
        "specialTrainingStatus": "done",
        "defaultImage": "special_training"
      },
      "userProfile": {
        "userId": 8396757826793482,
        "word": "体育祭30位3000万ポイント調整達成したっぺ",
        "honorId1": 5,
        "honorLevel1": 3,
        "honorId2": 108,
        "honorLevel2": 1,
        "honorId3": 123,
        "honorLevel3": 1,
        "twitterId": "adelheidvo",
        "profileImageType": "leader",
        "userVirtualLiveTop10Rankings": []
      }
    }
  ],
  "rank40": [
    {
      "userId": 5166593797574665,
      "score": 25169416,
      "rank": 40,
      "isOwn": false,
      "name": "ぱるたん",
      "userCard": {
        "cardId": 126,
        "level": 60,
        "masterRank": 0,
        "specialTrainingStatus": "done",
        "defaultImage": "original"
      },
      "userProfile": {
        "userId": 5166593797574665,
        "word": "",
        "honorId1": 115,
        "honorLevel1": 1,
        "honorId2": 126,
        "honorLevel2": 1,
        "honorId3": 108,
        "honorLevel3": 1,
        "twitterId": "paruparunnn",
        "profileImageType": "leader",
        "userVirtualLiveTop10Rankings": []
      }
    }
  ],
  "rank50": [
    {
      "userId": 5119563444305926,
      "score": 22485979,
      "rank": 50,
      "isOwn": false,
      "name": "えむちゃんといっしょ",
      "userCard": {
        "cardId": 124,
        "level": 60,
        "masterRank": 5,
        "specialTrainingStatus": "done",
        "defaultImage": "special_training"
      },
      "userProfile": {
        "userId": 5119563444305926,
        "word": "ふふふ、わんだほーい。じゃあね、おやすみ",
        "honorId1": 54,
        "honorLevel1": 1,
        "honorId2": 284,
        "honorLevel2": 1,
        "honorId3": 123,
        "honorLevel3": 1,
        "twitterId": "おおとりえむ",
        "profileImageType": "leader",
        "userVirtualLiveTop10Rankings": []
      }
    }
  ],
  "rank100": [
    {
      "userId": 5415881220407299,
      "score": 15591195,
      "rank": 100,
      "isOwn": false,
      "name": "イベ乙",
      "userCard": {
        "cardId": 116,
        "level": 60,
        "masterRank": 0,
        "specialTrainingStatus": "done",
        "defaultImage": "special_training"
      },
      "userProfile": {
        "userId": 5415881220407299,
        "word": "浮遊感依存症",
        "honorId1": 105,
        "honorLevel1": 1,
        "honorId2": 132,
        "honorLevel2": 1,
        "honorId3": 131,
        "honorLevel3": 1,
        "twitterId": "",
        "profileImageType": "leader",
        "userVirtualLiveTop10Rankings": []
      }
    }
  ],
  "rank200": [
    {
      "userId": 5650484715511816,
      "score": 8217511,
      "rank": 200,
      "isOwn": false,
      "name": "しげ桜@遥わんだほい",
      "userCard": {
        "cardId": 92,
        "level": 60,
        "masterRank": 1,
        "specialTrainingStatus": "done",
        "defaultImage": "special_training"
      },
      "userProfile": {
        "userId": 5650484715511816,
        "word": "200位以内に残れるように頑張ろう(100位以内は無理だ)",
        "honorId1": 197,
        "honorLevel1": 1,
        "honorId2": 5,
        "honorLevel2": 3,
        "honorId3": 21,
        "honorLevel3": 3,
        "twitterId": "Starlightmoon39",
        "profileImageType": "leader",
        "userVirtualLiveTop10Rankings": []
      }
    }
  ],
  "rank300": [
    {
      "userId": 14279268477952008,
      "score": 6623979,
      "rank": 300,
      "isOwn": false,
      "name": "カゲロウ",
      "userCard": {
        "cardId": 126,
        "level": 60,
        "masterRank": 0,
        "specialTrainingStatus": "done",
        "defaultImage": "special_training"
      },
      "userProfile": {
        "userId": 14279268477952008,
        "word": "",
        "honorId1": 226,
        "honorLevel1": 1,
        "honorId2": 81,
        "honorLevel2": 2,
        "honorId3": 105,
        "honorLevel3": 1,
        "twitterId": "",
        "profileImageType": "leader",
        "userVirtualLiveTop10Rankings": []
      }
    }
  ],
  "rank400": [
    {
      "userId": 16811964307279874,
      "score": 5781439,
      "rank": 400,
      "isOwn": false,
      "name": "りみあ",
      "userCard": {
        "cardId": 122,
        "level": 50,
        "masterRank": 5,
        "specialTrainingStatus": "done",
        "defaultImage": "special_training"
      },
      "userProfile": {
        "userId": 16811964307279874,
        "word": "",
        "honorId1": 45,
        "honorLevel1": 1,
        "honorId2": 61,
        "honorLevel2": 1,
        "honorId3": 49,
        "honorLevel3": 2,
        "twitterId": "",
        "profileImageType": "leader",
        "userVirtualLiveTop10Rankings": []
      }
    }
  ],
  "rank500": [
    {
      "userId": 14287771385225222,
      "score": 5542823,
      "rank": 500,
      "isOwn": false,
      "name": "Lie*a",
      "userCard": {
        "cardId": 126,
        "level": 60,
        "masterRank": 0,
        "specialTrainingStatus": "done",
        "defaultImage": "original"
      },
      "userProfile": {
        "userId": 14287771385225222,
        "word": "",
        "honorId1": 37,
        "honorLevel1": 2,
        "honorId2": 123,
        "honorLevel2": 1,
        "honorId3": 298,
        "honorLevel3": 1,
        "twitterId": "",
        "profileImageType": "leader",
        "userVirtualLiveTop10Rankings": []
      }
    }
  ],
  "rank1000": [
    {
      "userId": 15284322429075456,
      "score": 3882989,
      "rank": 1000,
      "isOwn": false,
      "name": "R&H",
      "userCard": {
        "cardId": 124,
        "level": 60,
        "masterRank": 0,
        "specialTrainingStatus": "done",
        "defaultImage": "original"
      },
      "userProfile": {
        "userId": 15284322429075456,
        "word": "私はここで英雄になる",
        "honorId1": 53,
        "honorLevel1": 2,
        "honorId2": 13,
        "honorLevel2": 3,
        "honorId3": 254,
        "honorLevel3": 1,
        "twitterId": "",
        "profileImageType": "leader",
        "userVirtualLiveTop10Rankings": []
      }
    }
  ],
  "rank2000": [
    {
      "userId": 5144427509563398,
      "score": 2344377,
      "rank": 2000,
      "isOwn": false,
      "name": "はろはろ",
      "userCard": {
        "cardId": 126,
        "level": 60,
        "masterRank": 0,
        "specialTrainingStatus": "done",
        "defaultImage": "special_training"
      },
      "userProfile": {
        "userId": 5144427509563398,
        "word": "",
        "honorId1": 5,
        "honorLevel1": 4,
        "honorId2": 13,
        "honorLevel2": 2,
        "honorId3": 1,
        "honorLevel3": 2,
        "twitterId": "",
        "profileImageType": "leader",
        "userVirtualLiveTop10Rankings": []
      }
    }
  ],
  "rank3000": [
    {
      "userId": 8794048198864907,
      "score": 1895489,
      "rank": 3000,
      "isOwn": false,
      "name": "Nea-LMS",
      "userCard": {
        "cardId": 109,
        "level": 60,
        "masterRank": 0,
        "specialTrainingStatus": "done",
        "defaultImage": "special_training"
      },
      "userProfile": {
        "userId": 8794048198864907,
        "word": "",
        "honorId1": 5,
        "honorLevel1": 2,
        "honorId2": 204,
        "honorLevel2": 1,
        "honorId3": 300,
        "honorLevel3": 1,
        "twitterId": "",
        "profileImageType": "leader",
        "userVirtualLiveTop10Rankings": []
      }
    }
  ],
  "rank4000": [
    {
      "userId": 15308875192565770,
      "score": 1669359,
      "rank": 4000,
      "isOwn": false,
      "name": "Prunhub",
      "userCard": {
        "cardId": 125,
        "level": 60,
        "masterRank": 0,
        "specialTrainingStatus": "done",
        "defaultImage": "special_training"
      },
      "userProfile": {
        "userId": 15308875192565770,
        "word": "",
        "honorId1": 69,
        "honorLevel1": 2,
        "twitterId": "",
        "profileImageType": "leader",
        "userVirtualLiveTop10Rankings": []
      }
    }
  ],
  "rank5000": [
    {
      "userId": 7482443271700489,
      "score": 1595464,
      "rank": 5000,
      "isOwn": false,
      "name": "泉梛",
      "userCard": {
        "cardId": 96,
        "level": 16,
        "masterRank": 0,
        "specialTrainingStatus": "not_doing",
        "defaultImage": "original"
      },
      "userProfile": {
        "userId": 7482443271700489,
        "word": "のんびりまったり(つ´∀｀)つ  EXPERT…無理…orz",
        "honorId1": 128,
        "honorLevel1": 1,
        "honorId2": 131,
        "honorLevel2": 1,
        "honorId3": 136,
        "honorLevel3": 1,
        "twitterId": "",
        "profileImageType": "leader",
        "userVirtualLiveTop10Rankings": []
      }
    }
  ],
  "rank10000": [
    {
      "userId": 7432907920859151,
      "score": 1174230,
      "rank": 10000,
      "isOwn": false,
      "name": "ジェム寄越せ",
      "userCard": {
        "cardId": 125,
        "level": 60,
        "masterRank": 2,
        "specialTrainingStatus": "done",
        "defaultImage": "special_training"
      },
      "userProfile": {
        "userId": 7432907920859151,
        "word": "",
        "honorId1": 21,
        "honorLevel1": 3,
        "honorId2": 278,
        "honorLevel2": 1,
        "honorId3": 127,
        "honorLevel3": 1,
        "twitterId": "toholv123",
        "profileImageType": "leader",
        "userVirtualLiveTop10Rankings": []
      }
    }
  ],
  "rank20000": [
    {
      "userId": 5244137616113676,
      "score": 882343,
      "rank": 20000,
      "isOwn": false,
      "name": "哲",
      "userCard": {
        "cardId": 92,
        "level": 60,
        "masterRank": 0,
        "specialTrainingStatus": "done",
        "defaultImage": "special_training"
      },
      "userProfile": {
        "userId": 5244137616113676,
        "word": "",
        "honorId1": 127,
        "honorLevel1": 1,
        "honorId2": 105,
        "honorLevel2": 1,
        "honorId3": 136,
        "honorLevel3": 1,
        "twitterId": "",
        "profileImageType": "leader",
        "userVirtualLiveTop10Rankings": []
      }
    }
  ],
  "rank30000": [
    {
      "userId": 5172150957215747,
      "score": 768802,
      "rank": 30000,
      "isOwn": false,
      "name": "レンゲ",
      "userCard": {
        "cardId": 122,
        "level": 50,
        "masterRank": 5,
        "specialTrainingStatus": "done",
        "defaultImage": "special_training"
      },
      "userProfile": {
        "userId": 5172150957215747,
        "word": "わんだほーい！！！",
        "honorId1": 53,
        "honorLevel1": 3,
        "honorId2": 49,
        "honorLevel2": 3,
        "honorId3": 218,
        "honorLevel3": 1,
        "twitterId": "",
        "profileImageType": "leader",
        "userVirtualLiveTop10Rankings": []
      }
    }
  ],
  "rank40000": [
    {
      "userId": 5934725995245569,
      "score": 689596,
      "rank": 40000,
      "isOwn": false,
      "name": "セカイの住人",
      "userCard": {
        "cardId": 67,
        "level": 50,
        "masterRank": 5,
        "specialTrainingStatus": "done",
        "defaultImage": "special_training"
      },
      "userProfile": {
        "userId": 5934725995245569,
        "word": "",
        "honorId1": 65,
        "honorLevel1": 3,
        "honorId2": 45,
        "honorLevel2": 2,
        "honorId3": 41,
        "honorLevel3": 1,
        "twitterId": "",
        "profileImageType": "leader",
        "userVirtualLiveTop10Rankings": []
      }
    }
  ],
  "rank50000": [
    {
      "userId": 8726394347634702,
      "score": 636781,
      "rank": 50000,
      "isOwn": false,
      "name": "いるっち",
      "userCard": {
        "cardId": 88,
        "level": 60,
        "masterRank": 0,
        "specialTrainingStatus": "done",
        "defaultImage": "special_training"
      },
      "userProfile": {
        "userId": 8726394347634702,
        "word": "",
        "honorId1": 65,
        "honorLevel1": 1,
        "honorId2": 81,
        "honorLevel2": 1,
        "honorId3": 93,
        "honorLevel3": 1,
        "twitterId": "",
        "profileImageType": "leader",
        "userVirtualLiveTop10Rankings": []
      }
    }
  ],
  "rank100000": [
    {
      "userId": 6116352188416012,
      "score": 425037,
      "rank": 100000,
      "isOwn": false,
      "name": "ひろ",
      "userCard": {
        "cardId": 92,
        "level": 60,
        "masterRank": 0,
        "specialTrainingStatus": "done",
        "defaultImage": "special_training"
      },
      "userProfile": {
        "userId": 6116352188416012,
        "word": "",
        "honorId1": 81,
        "honorLevel1": 2,
        "honorId2": 105,
        "honorLevel2": 1,
        "honorId3": 129,
        "honorLevel3": 1,
        "twitterId": "",
        "profileImageType": "leader",
        "userVirtualLiveTop10Rankings": []
      }
    }
  ]
}