{
  "time": 1607429758844,
  "first10": [
    {
      "userId": 5208207878561802,
      "score": 80000582,
      "rank": 1,
      "isOwn": false,
      "name": "こはねすたんぷ",
      "userCard": {
        "cardId": 135,
        "level": 60,
        "masterRank": 5,
        "specialTrainingStatus": "done",
        "defaultImage": "original"
      },
      "userProfile": {
        "userId": 5208207878561802,
        "word": "みなさんイベ乙でした！これからもビビバス！こはねを推します！",
        "honorId1": 34,
        "honorLevel1": 1,
        "honorId2": 37,
        "honorLevel2": 5,
        "honorId3": 41,
        "honorLevel3": 5,
        "twitterId": "",
        "profileImageType": "leader"
      }
    },
    {
      "userId": 5264523754176512,
      "score": 77777777,
      "rank": 2,
      "isOwn": false,
      "name": "いつか、背中あわせの",
      "userCard": {
        "cardId": 135,
        "level": 60,
        "masterRank": 5,
        "specialTrainingStatus": "done",
        "defaultImage": "special_training"
      },
      "userProfile": {
        "userId": 5264523754176512,
        "word": "彼方さんは相棒と書いてライバル！ありがとう！",
        "honorId1": 357,
        "honorLevel1": 1,
        "honorId2": 34,
        "honorLevel2": 1,
        "honorId3": 37,
        "honorLevel3": 4,
        "twitterId": "nana_on_7",
        "profileImageType": "leader"
      }
    },
    {
      "userId": 5289231539277828,
      "score": 77770000,
      "rank": 3,
      "isOwn": false,
      "name": "リリックを☆",
      "userCard": {
        "cardId": 137,
        "level": 50,
        "masterRank": 5,
        "specialTrainingStatus": "done",
        "defaultImage": "special_training"
      },
      "userProfile": {
        "userId": 5289231539277828,
        "word": "ななさんは相棒と書いてライバル！ありがとう！",
        "honorId1": 357,
        "honorLevel1": 1,
        "honorId2": 46,
        "honorLevel2": 1,
        "honorId3": 41,
        "honorLevel3": 5,
        "twitterId": "kanata_prsk",
        "profileImageType": "leader"
      }
    },
    {
      "userId": 9956255858962444,
      "score": 75279349,
      "rank": 4,
      "isOwn": false,
      "name": "さちお",
      "userCard": {
        "cardId": 134,
        "level": 60,
        "masterRank": 5,
        "specialTrainingStatus": "done",
        "defaultImage": "special_training"
      },
      "userProfile": {
        "userId": 9956255858962444,
        "word": "皆様本当に本当に",
        "honorId1": 38,
        "honorLevel1": 1,
        "honorId2": 357,
        "honorLevel2": 1,
        "honorId3": 106,
        "honorLevel3": 1,
        "twitterId": "akikoha_39",
        "profileImageType": "leader"
      }
    },
    {
      "userId": 5253223237980166,
      "score": 72027375,
      "rank": 5,
      "isOwn": false,
      "name": "さくらい",
      "userCard": {
        "cardId": 134,
        "level": 60,
        "masterRank": 3,
        "specialTrainingStatus": "done",
        "defaultImage": "special_training"
      },
      "userProfile": {
        "userId": 5253223237980166,
        "word": "杏ちゃんファンのファンクビートおじさんo(｀ω´ )o",
        "honorId1": 38,
        "honorLevel1": 1,
        "honorId2": 105,
        "honorLevel2": 1,
        "honorId3": 106,
        "honorLevel3": 1,
        "twitterId": "",
        "profileImageType": "leader"
      }
    },
    {
      "userId": 7443508600467470,
      "score": 71131350,
      "rank": 6,
      "isOwn": false,
      "name": "たすく",
      "userCard": {
        "cardId": 134,
        "level": 60,
        "masterRank": 4,
        "specialTrainingStatus": "done",
        "defaultImage": "special_training"
      },
      "userProfile": {
        "userId": 7443508600467470,
        "word": "全ての人に心から感謝を",
        "honorId1": 37,
        "honorLevel1": 5,
        "honorId2": 33,
        "honorLevel2": 2,
        "honorId3": 41,
        "honorLevel3": 2,
        "twitterId": "TSK7_",
        "profileImageType": "leader"
      }
    },
    {
      "userId": 5154553838440462,
      "score": 70002660,
      "rank": 7,
      "isOwn": false,
      "name": "計算ミスwwwww→",
      "userCard": {
        "cardId": 135,
        "level": 60,
        "masterRank": 5,
        "specialTrainingStatus": "done",
        "defaultImage": "original"
      },
      "userProfile": {
        "userId": 5154553838440462,
        "word": "最高のイベントをありがとう！",
        "honorId1": 136,
        "honorLevel1": 1,
        "twitterId": "〜@)ﾉｼ",
        "profileImageType": "leader"
      }
    },
    {
      "userId": 5165379638902797,
      "score": 69998310,
      "rank": 8,
      "isOwn": false,
      "name": "ぷるぷるコイン",
      "userCard": {
        "cardId": 136,
        "level": 60,
        "masterRank": 5,
        "specialTrainingStatus": "done",
        "defaultImage": "special_training"
      },
      "userProfile": {
        "userId": 5165379638902797,
        "word": "一緒に走ってくれた人たち、ありがとう！楽しかったよ！",
        "honorId1": 33,
        "honorLevel1": 5,
        "honorId2": 115,
        "honorLevel2": 1,
        "honorId3": 112,
        "honorLevel3": 1,
        "twitterId": "",
        "profileImageType": "leader"
      }
    },
    {
      "userId": 6629880460541966,
      "score": 69003930,
      "rank": 9,
      "isOwn": false,
      "name": "矢部浩之",
      "userCard": {
        "cardId": 116,
        "level": 60,
        "masterRank": 5,
        "specialTrainingStatus": "done",
        "defaultImage": "special_training"
      },
      "userProfile": {
        "userId": 6629880460541966,
        "word": "やべっちFC",
        "honorId1": 127,
        "honorLevel1": 1,
        "twitterId": "mlxju",
        "profileImageType": "leader"
      }
    },
    {
      "userId": 6707292670795783,
      "score": 68808317,
      "rank": 10,
      "isOwn": false,
      "name": "岡村隆史",
      "userCard": {
        "cardId": 136,
        "level": 60,
        "masterRank": 5,
        "specialTrainingStatus": "done",
        "defaultImage": "special_training"
      },
      "userProfile": {
        "userId": 6707292670795783,
        "word": "寝たい",
        "honorId1": 127,
        "honorLevel1": 1,
        "twitterId": "rrr_pp_ak",
        "profileImageType": "leader"
      }
    }
  ],
  "rank20": [
    {
      "userId": 5243938516668424,
      "score": 52726509,
      "rank": 20,
      "isOwn": false,
      "name": "20位の番人",
      "userCard": {
        "cardId": 134,
        "level": 60,
        "masterRank": 5,
        "specialTrainingStatus": "done",
        "defaultImage": "special_training"
      },
      "userProfile": {
        "userId": 5243938516668424,
        "word": "咲希杏を信じろ卍卍卍卍卍卍卍",
        "honorId1": 38,
        "honorLevel1": 1,
        "honorId2": 6,
        "honorLevel2": 2,
        "honorId3": 186,
        "honorLevel3": 1,
        "twitterId": "aya23_912",
        "profileImageType": "leader"
      }
    }
  ],
  "rank30": [
    {
      "userId": 5401625481310209,
      "score": 48608139,
      "rank": 30,
      "isOwn": false,
      "name": "エステル",
      "userCard": {
        "cardId": 75,
        "level": 50,
        "masterRank": 5,
        "specialTrainingStatus": "done",
        "defaultImage": "original"
      },
      "userProfile": {
        "userId": 5401625481310209,
        "word": "TOP30目標",
        "honorId1": 74,
        "honorLevel1": 1,
        "honorId2": 260,
        "honorLevel2": 1,
        "honorId3": 82,
        "honorLevel3": 1,
        "twitterId": "ESteru920",
        "profileImageType": "leader"
      }
    }
  ],
  "rank40": [
    {
      "userId": 14420617659121680,
      "score": 45154534,
      "rank": 40,
      "isOwn": false,
      "name": "みぃぜ",
      "userCard": {
        "cardId": 134,
        "level": 60,
        "masterRank": 5,
        "specialTrainingStatus": "done",
        "defaultImage": "special_training"
      },
      "userProfile": {
        "userId": 14420617659121680,
        "word": "相棒だから…",
        "honorId1": 37,
        "honorLevel1": 4,
        "honorId2": 357,
        "honorLevel2": 1,
        "honorId3": 45,
        "honorLevel3": 1,
        "twitterId": "rotten_tanak",
        "profileImageType": "leader"
      }
    }
  ],
  "rank50": [
    {
      "userId": 5119800586338310,
      "score": 44302222,
      "rank": 50,
      "isOwn": false,
      "name": "小豆沢koala",
      "userCard": {
        "cardId": 135,
        "level": 60,
        "masterRank": 5,
        "specialTrainingStatus": "done",
        "defaultImage": "original"
      },
      "userProfile": {
        "userId": 5119800586338310,
        "word": "From",
        "honorId1": 34,
        "honorLevel1": 1,
        "honorId2": 45,
        "honorLevel2": 3,
        "honorId3": 192,
        "honorLevel3": 1,
        "twitterId": "",
        "profileImageType": "leader"
      }
    }
  ],
  "rank100": [
    {
      "userId": 6007491700191245,
      "score": 34583106,
      "rank": 100,
      "isOwn": false,
      "name": "もやし",
      "userCard": {
        "cardId": 45,
        "level": 20,
        "masterRank": 5,
        "specialTrainingStatus": "not_doing",
        "defaultImage": "original"
      },
      "userProfile": {
        "userId": 6007491700191245,
        "word": "たのしー",
        "honorId1": 45,
        "honorLevel1": 4,
        "honorId2": 357,
        "honorLevel2": 1,
        "honorId3": 146,
        "honorLevel3": 1,
        "twitterId": "moyashikacho",
        "profileImageType": "leader"
      }
    }
  ],
  "rank200": [
    {
      "userId": 5242406841335815,
      "score": 18018947,
      "rank": 200,
      "isOwn": false,
      "name": "ふぁい",
      "userCard": {
        "cardId": 134,
        "level": 60,
        "masterRank": 5,
        "specialTrainingStatus": "done",
        "defaultImage": "original"
      },
      "userProfile": {
        "userId": 5242406841335815,
        "word": "もう200位以内で妥協する",
        "honorId1": 37,
        "honorLevel1": 4,
        "honorId2": 1,
        "honorLevel2": 3,
        "honorId3": 108,
        "honorLevel3": 1,
        "twitterId": " f_a_i_f_a_",
        "profileImageType": "leader"
      }
    }
  ],
  "rank300": [
    {
      "userId": 27266640328884230,
      "score": 14487325,
      "rank": 300,
      "isOwn": false,
      "name": "岩塩",
      "userCard": {
        "cardId": 134,
        "level": 60,
        "masterRank": 1,
        "specialTrainingStatus": "done",
        "defaultImage": "special_training"
      },
      "userProfile": {
        "userId": 27266640328884230,
        "word": "お疲れ様でした",
        "honorId1": 127,
        "honorLevel1": 1,
        "honorId2": 37,
        "honorLevel2": 4,
        "honorId3": 33,
        "honorLevel3": 2,
        "twitterId": "",
        "profileImageType": "leader"
      }
    }
  ],
  "rank400": [
    {
      "userId": 11454983056936960,
      "score": 12592605,
      "rank": 400,
      "isOwn": false,
      "name": "　",
      "userCard": {
        "cardId": 111,
        "level": 60,
        "masterRank": 5,
        "specialTrainingStatus": "done",
        "defaultImage": "original"
      },
      "userProfile": {
        "userId": 11454983056936960,
        "word": "ひーん",
        "honorId1": 65,
        "honorLevel1": 4,
        "twitterId": "mak1R0II",
        "profileImageType": "leader"
      }
    }
  ],
  "rank500": [
    {
      "userId": 20160327085797384,
      "score": 11962014,
      "rank": 500,
      "isOwn": false,
      "name": "指逝った",
      "userCard": {
        "cardId": 96,
        "level": 60,
        "masterRank": 1,
        "specialTrainingStatus": "done",
        "defaultImage": "original"
      },
      "userProfile": {
        "userId": 20160327085797384,
        "word": "11/10から始めました",
        "honorId1": 343,
        "honorLevel1": 1,
        "honorId2": 45,
        "honorLevel2": 3,
        "honorId3": 89,
        "honorLevel3": 3,
        "twitterId": "",
        "profileImageType": "leader"
      }
    }
  ],
  "rank1000": [
    {
      "userId": 9601513077366784,
      "score": 8265429,
      "rank": 1000,
      "isOwn": false,
      "name": "寒くて指が動かん",
      "userCard": {
        "cardId": 23,
        "level": 50,
        "masterRank": 5,
        "specialTrainingStatus": "done",
        "defaultImage": "special_training"
      },
      "userProfile": {
        "userId": 9601513077366784,
        "word": "",
        "honorId1": 5,
        "honorLevel1": 2,
        "honorId2": 146,
        "honorLevel2": 1,
        "honorId3": 108,
        "honorLevel3": 1,
        "twitterId": "Swasabi215",
        "profileImageType": "leader"
      }
    }
  ],
  "rank2000": [
    {
      "userId": 19662119460941830,
      "score": 4150476,
      "rank": 2000,
      "isOwn": false,
      "name": "네물 ໒꒱· ﾟ",
      "userCard": {
        "cardId": 136,
        "level": 60,
        "masterRank": 1,
        "specialTrainingStatus": "done",
        "defaultImage": "special_training"
      },
      "userProfile": {
        "userId": 19662119460941830,
        "word": "端末が限界",
        "honorId1": 33,
        "honorLevel1": 2,
        "honorId2": 41,
        "honorLevel2": 2,
        "honorId3": 214,
        "honorLevel3": 1,
        "twitterId": "ri_suvr",
        "profileImageType": "leader"
      }
    }
  ],
  "rank3000": [
    {
      "userId": 6979663931314182,
      "score": 3098509,
      "rank": 3000,
      "isOwn": false,
      "name": "ハードが限界ごめん",
      "userCard": {
        "cardId": 135,
        "level": 60,
        "masterRank": 0,
        "specialTrainingStatus": "done",
        "defaultImage": "special_training"
      },
      "userProfile": {
        "userId": 6979663931314182,
        "word": "みんな大好き",
        "honorId1": 112,
        "honorLevel1": 1,
        "honorId2": 53,
        "honorLevel2": 3,
        "honorId3": 69,
        "honorLevel3": 3,
        "twitterId": "",
        "profileImageType": "leader"
      }
    }
  ],
  "rank4000": [
    {
      "userId": 5188259752173571,
      "score": 2611841,
      "rank": 4000,
      "isOwn": false,
      "name": "彩稀",
      "userCard": {
        "cardId": 35,
        "level": 50,
        "masterRank": 0,
        "specialTrainingStatus": "done",
        "defaultImage": "special_training"
      },
      "userProfile": {
        "userId": 5188259752173571,
        "word": "冬弥くん寄りビビバス推し",
        "honorId1": 123,
        "honorLevel1": 1,
        "honorId2": 89,
        "honorLevel2": 2,
        "honorId3": 45,
        "honorLevel3": 3,
        "twitterId": "sakimypase",
        "profileImageType": "leader"
      }
    }
  ],
  "rank5000": [
    {
      "userId": 5975320809209868,
      "score": 2483048,
      "rank": 5000,
      "isOwn": false,
      "name": "ねじ",
      "userCard": {
        "cardId": 136,
        "level": 60,
        "masterRank": 5,
        "specialTrainingStatus": "done",
        "defaultImage": "special_training"
      },
      "userProfile": {
        "userId": 5975320809209868,
        "word": "推しイベありがとう",
        "honorId1": 41,
        "honorLevel1": 3,
        "honorId2": 240,
        "honorLevel2": 1,
        "honorId3": 105,
        "honorLevel3": 1,
        "twitterId": "ryokutyamilk",
        "profileImageType": "leader"
      }
    }
  ],
  "rank10000": [
    {
      "userId": 16812773640196104,
      "score": 1611706,
      "rank": 10000,
      "isOwn": false,
      "name": "セカイの住人",
      "userCard": {
        "cardId": 132,
        "level": 50,
        "masterRank": 0,
        "specialTrainingStatus": "done",
        "defaultImage": "special_training"
      },
      "userProfile": {
        "userId": 16812773640196104,
        "word": "",
        "honorId1": 1,
        "honorLevel1": 2,
        "honorId2": 9,
        "honorLevel2": 1,
        "honorId3": 13,
        "honorLevel3": 1,
        "twitterId": "",
        "profileImageType": "leader"
      }
    }
  ],
  "rank20000": [
    {
      "userId": 8034014678028289,
      "score": 1057613,
      "rank": 20000,
      "isOwn": false,
      "name": "IF",
      "userCard": {
        "cardId": 115,
        "level": 60,
        "masterRank": 0,
        "specialTrainingStatus": "done",
        "defaultImage": "special_training"
      },
      "userProfile": {
        "userId": 8034014678028289,
        "word": "10/8入",
        "honorId1": 65,
        "honorLevel1": 1,
        "honorId2": 81,
        "honorLevel2": 1,
        "honorId3": 69,
        "honorLevel3": 1,
        "twitterId": "",
        "profileImageType": "leader"
      }
    }
  ],
  "rank30000": [
    {
      "userId": 8851289521913863,
      "score": 890446,
      "rank": 30000,
      "isOwn": false,
      "name": "親指を怪我したユウ",
      "userCard": {
        "cardId": 47,
        "level": 50,
        "masterRank": 0,
        "specialTrainingStatus": "done",
        "defaultImage": "special_training"
      },
      "userProfile": {
        "userId": 8851289521913863,
        "word": "ロングノーツからのフリック抜け100%",
        "honorId1": 133,
        "honorLevel1": 1,
        "honorId2": 127,
        "honorLevel2": 1,
        "honorId3": 105,
        "honorLevel3": 1,
        "twitterId": "",
        "profileImageType": "leader"
      }
    }
  ],
  "rank40000": [
    {
      "userId": 6892693066383364,
      "score": 789697,
      "rank": 40000,
      "isOwn": false,
      "name": "Eric'",
      "userCard": {
        "cardId": 63,
        "level": 47,
        "masterRank": 1,
        "specialTrainingStatus": "done",
        "defaultImage": "special_training"
      },
      "userProfile": {
        "userId": 6892693066383364,
        "word": "",
        "honorId1": 301,
        "honorLevel1": 1,
        "honorId2": 61,
        "honorLevel2": 3,
        "honorId3": 101,
        "honorLevel3": 2,
        "twitterId": "",
        "profileImageType": "leader"
      }
    }
  ],
  "rank50000": [
    {
      "userId": 5191945601228802,
      "score": 728975,
      "rank": 50000,
      "isOwn": false,
      "name": "Los",
      "userCard": {
        "cardId": 96,
        "level": 60,
        "masterRank": 0,
        "specialTrainingStatus": "done",
        "defaultImage": "special_training"
      },
      "userProfile": {
        "userId": 5191945601228802,
        "word": "初めての音ゲーです( ´∀｀)",
        "honorId1": 85,
        "honorLevel1": 3,
        "honorId2": 114,
        "honorLevel2": 1,
        "honorId3": 105,
        "honorLevel3": 1,
        "twitterId": "",
        "profileImageType": "leader"
      }
    }
  ],
  "rank100000": [
    {
      "userId": 5233101064437774,
      "score": 474180,
      "rank": 100000,
      "isOwn": false,
      "name": "紅舞",
      "userCard": {
        "cardId": 35,
        "level": 50,
        "masterRank": 0,
        "specialTrainingStatus": "done",
        "defaultImage": "special_training"
      },
      "userProfile": {
        "userId": 5233101064437774,
        "word": "よろしゅう",
        "honorId1": 9,
        "honorLevel1": 3,
        "honorId2": 232,
        "honorLevel2": 1,
        "honorId3": 206,
        "honorLevel3": 1,
        "twitterId": "",
        "profileImageType": "leader"
      }
    }
  ]
}