{
  "time": 1632917758049,
  "first10": [
    {
      "userId": 5233910766825476,
      "score": 182700127,
      "rank": 1,
      "isOwn": false,
      "name": "みりん",
      "userCard": {
        "cardId": 284,
        "level": 60,
        "masterRank": 5,
        "specialTrainingStatus": "done",
        "defaultImage": "special_training"
      },
      "userProfile": {
        "userId": 5233910766825476,
        "word": "素敵なストーリーをありがとう",
        "honorId1": 562,
        "honorLevel1": 1,
        "honorId2": 70,
        "honorLevel2": 3,
        "honorId3": 78,
        "honorLevel3": 3,
        "twitterId": "25_mirin",
        "profileImageType": "leader"
      },
      "userCheerfulCarnival": {}
    },
    {
      "userId": 5137453489233927,
      "score": 163000127,
      "rank": 2,
      "isOwn": false,
      "name": "ライチ",
      "userCard": {
        "cardId": 284,
        "level": 60,
        "masterRank": 5,
        "specialTrainingStatus": "done",
        "defaultImage": "special_training"
      },
      "userProfile": {
        "userId": 5137453489233927,
        "word": "まふゆ推し",
        "honorId1": 565,
        "honorLevel1": 1,
        "honorId2": 70,
        "honorLevel2": 3,
        "honorId3": 86,
        "honorLevel3": 1,
        "twitterId": "種が欲しいな…",
        "profileImageType": "leader"
      },
      "userCheerfulCarnival": {}
    },
    {
      "userId": 7743306549682180,
      "score": 150000127,
      "rank": 3,
      "isOwn": false,
      "name": "myu",
      "userCard": {
        "cardId": 284,
        "level": 60,
        "masterRank": 5,
        "specialTrainingStatus": "done",
        "defaultImage": "special_training"
      },
      "userProfile": {
        "userId": 7743306549682180,
        "word": "ニーゴが好きです",
        "honorId1": 681,
        "honorLevel1": 1,
        "honorId2": 70,
        "honorLevel2": 3,
        "honorId3": 78,
        "honorLevel3": 3,
        "twitterId": "",
        "profileImageType": "leader"
      },
      "userCheerfulCarnival": {}
    },
    {
      "userId": 5223737238544396,
      "score": 140453325,
      "rank": 4,
      "isOwn": false,
      "name": "朝比奈マフティー",
      "userCard": {
        "cardId": 177,
        "level": 60,
        "masterRank": 5,
        "specialTrainingStatus": "done",
        "defaultImage": "original"
      },
      "userProfile": {
        "userId": 5223737238544396,
        "word": "閃光のえなウェイ",
        "honorId1": 70,
        "honorLevel1": 1,
        "honorId2": 66,
        "honorLevel2": 1,
        "honorId3": 78,
        "honorLevel3": 1,
        "twitterId": "emil_nogenora",
        "profileImageType": "leader"
      },
      "userCheerfulCarnival": {}
    },
    {
      "userId": 6438699089326093,
      "score": 120000127,
      "rank": 5,
      "isOwn": false,
      "name": "しごさばきにあう",
      "userCard": {
        "cardId": 284,
        "level": 60,
        "masterRank": 5,
        "specialTrainingStatus": "done",
        "defaultImage": "special_training"
      },
      "userProfile": {
        "userId": 6438699089326093,
        "word": "魔法がもう1人のあなたを露にする",
        "honorId2": 74,
        "honorLevel2": 1,
        "honorId3": 70,
        "honorLevel3": 2,
        "twitterId": "illlain",
        "profileImageType": "leader"
      },
      "userCheerfulCarnival": {}
    },
    {
      "userId": 35949326283010056,
      "score": 115210127,
      "rank": 6,
      "isOwn": false,
      "name": "yuri☆",
      "userCard": {
        "cardId": 285,
        "level": 60,
        "masterRank": 5,
        "specialTrainingStatus": "done",
        "defaultImage": "special_training"
      },
      "userProfile": {
        "userId": 35949326283010056,
        "word": "イベントお疲れ様でした♪",
        "honorId1": 661,
        "honorLevel1": 1,
        "honorId2": 78,
        "honorLevel2": 1,
        "honorId3": 66,
        "honorLevel3": 1,
        "twitterId": "yuriii_p",
        "profileImageType": "leader"
      },
      "userCheerfulCarnival": {}
    },
    {
      "userId": 5120351843688450,
      "score": 112590127,
      "rank": 7,
      "isOwn": false,
      "name": "翠雨",
      "userCard": {
        "cardId": 284,
        "level": 60,
        "masterRank": 5,
        "specialTrainingStatus": "done",
        "defaultImage": "special_training"
      },
      "userProfile": {
        "userId": 5120351843688450,
        "word": "関わった全ての方に最大級の感謝を！",
        "honorId1": 223,
        "honorLevel1": 5,
        "honorId2": 70,
        "honorLevel2": 3,
        "honorId3": 74,
        "honorLevel3": 1,
        "twitterId": "",
        "profileImageType": "leader"
      },
      "userCheerfulCarnival": {}
    },
    {
      "userId": 6567367240888327,
      "score": 112233444,
      "rank": 8,
      "isOwn": false,
      "name": "ただの看護師✿",
      "userCard": {
        "cardId": 187,
        "level": 60,
        "masterRank": 5,
        "specialTrainingStatus": "done",
        "defaultImage": "original"
      },
      "userProfile": {
        "userId": 6567367240888327,
        "word": "皆さんコロナだけでなく体調管理にも注意しましょう。Ü",
        "honorId1": 263,
        "honorLevel1": 1,
        "honorId2": 252,
        "honorLevel2": 1,
        "honorId3": 89,
        "honorLevel3": 4,
        "twitterId": "S_chan1202",
        "profileImageType": "leader"
      },
      "userCheerfulCarnival": {}
    },
    {
      "userId": 5597740436353024,
      "score": 110827127,
      "rank": 9,
      "isOwn": false,
      "name": "ambryllis",
      "userCard": {
        "cardId": 286,
        "level": 60,
        "masterRank": 0,
        "specialTrainingStatus": "done",
        "defaultImage": "special_training"
      },
      "userProfile": {
        "userId": 5597740436353024,
        "word": "all for mizuki and mafuyu ♡",
        "honorId1": 690,
        "honorLevel1": 1,
        "honorId2": 78,
        "honorLevel2": 2,
        "honorId3": 69,
        "honorLevel3": 5,
        "twitterId": "ambryllis",
        "profileImageType": "leader"
      },
      "userCheerfulCarnival": {}
    },
    {
      "userId": 5201614705012747,
      "score": 110001227,
      "rank": 10,
      "isOwn": false,
      "name": "る り な",
      "userCard": {
        "cardId": 286,
        "level": 60,
        "masterRank": 5,
        "specialTrainingStatus": "done",
        "defaultImage": "special_training"
      },
      "userProfile": {
        "userId": 5201614705012747,
        "word": "VSかがみねりん！！",
        "honorId1": 540,
        "honorLevel1": 1,
        "honorId2": 86,
        "honorLevel2": 3,
        "honorId3": 74,
        "honorLevel3": 1,
        "twitterId": "Pi3vT",
        "profileImageType": "leader"
      },
      "userCheerfulCarnival": {}
    }
  ],
  "rank20": [
    {
      "userId": 16859426749313028,
      "score": 83000127,
      "rank": 20,
      "isOwn": false,
      "name": "ぐーさん",
      "userCard": {
        "cardId": 284,
        "level": 60,
        "masterRank": 0,
        "specialTrainingStatus": "done",
        "defaultImage": "special_training"
      },
      "userProfile": {
        "userId": 16859426749313028,
        "word": "えび周回はお仕事です( ˘꒳˘  )",
        "honorId1": 70,
        "honorLevel1": 2,
        "honorId2": 66,
        "honorLevel2": 3,
        "honorId3": 78,
        "honorLevel3": 1,
        "twitterId": "gusan125",
        "profileImageType": "leader"
      },
      "userCheerfulCarnival": {}
    }
  ],
  "rank30": [
    {
      "userId": 5279505606488072,
      "score": 71051025,
      "rank": 30,
      "isOwn": false,
      "name": "セカイのかとれあ",
      "userCard": {
        "cardId": 284,
        "level": 60,
        "masterRank": 5,
        "specialTrainingStatus": "done",
        "defaultImage": "original"
      },
      "userProfile": {
        "userId": 5279505606488072,
        "word": "ないとこーどあっとにーご",
        "honorId1": 70,
        "honorLevel1": 3,
        "honorId2": 66,
        "honorLevel2": 2,
        "honorId3": 247,
        "honorLevel3": 1,
        "twitterId": "",
        "profileImageType": "leader"
      },
      "userCheerfulCarnival": {}
    }
  ],
  "rank40": [
    {
      "userId": 5555901868376075,
      "score": 66765908,
      "rank": 40,
      "isOwn": false,
      "name": "さや",
      "userCard": {
        "cardId": 177,
        "level": 60,
        "masterRank": 0,
        "specialTrainingStatus": "done",
        "defaultImage": "special_training"
      },
      "userProfile": {
        "userId": 5555901868376075,
        "word": "まふゆちゃんがんばろうね",
        "honorId1": 70,
        "honorLevel1": 3,
        "honorId2": 246,
        "honorLevel2": 1,
        "honorId3": 247,
        "honorLevel3": 1,
        "twitterId": "",
        "profileImageType": "leader"
      },
      "userCheerfulCarnival": {}
    }
  ],
  "rank50": [
    {
      "userId": 5246277886136332,
      "score": 65000000,
      "rank": 50,
      "isOwn": false,
      "name": "どすこい",
      "userCard": {
        "cardId": 116,
        "level": 60,
        "masterRank": 5,
        "specialTrainingStatus": "done",
        "defaultImage": "special_training"
      },
      "userProfile": {
        "userId": 5246277886136332,
        "word": "鮮度ぴっちぴち　イベ乙定期　　エビバ部（入れん部）",
        "honorId1": 82,
        "honorLevel1": 4,
        "honorId2": 689,
        "honorLevel2": 1,
        "honorId3": 858,
        "honorLevel3": 1,
        "twitterId": "hiratefu_0306",
        "profileImageType": "leader"
      },
      "userCheerfulCarnival": {}
    }
  ],
  "rank100": [
    {
      "userId": 6924834194505741,
      "score": 43024968,
      "rank": 100,
      "isOwn": false,
      "name": "麻婆トウフ",
      "userCard": {
        "cardId": 284,
        "level": 60,
        "masterRank": 5,
        "specialTrainingStatus": "done",
        "defaultImage": "original"
      },
      "userProfile": {
        "userId": 6924834194505741,
        "word": "フレ申とともに応援メッセージ、送ってくれた方々ありがとう。",
        "honorId1": 70,
        "honorLevel1": 4,
        "honorId2": 440,
        "honorLevel2": 1,
        "twitterId": "まふえむあいしずしほ",
        "profileImageType": "leader"
      },
      "userCheerfulCarnival": {}
    }
  ],
  "rank200": [
    {
      "userId": 64733214161641470,
      "score": 23316810,
      "rank": 200,
      "isOwn": false,
      "name": "推しに恋した一般人",
      "userCard": {
        "cardId": 284,
        "level": 60,
        "masterRank": 2,
        "specialTrainingStatus": "done",
        "defaultImage": "special_training"
      },
      "userProfile": {
        "userId": 64733214161641470,
        "word": "恋した推しが幸せになりますように。",
        "honorId1": 70,
        "honorLevel1": 1,
        "honorId2": 874,
        "honorLevel2": 1,
        "honorId3": 65,
        "honorLevel3": 4,
        "twitterId": "",
        "profileImageType": "leader"
      },
      "userCheerfulCarnival": {}
    }
  ],
  "rank300": [
    {
      "userId": 5219176973144064,
      "score": 18755767,
      "rank": 300,
      "isOwn": false,
      "name": "キョロ",
      "userCard": {
        "cardId": 284,
        "level": 60,
        "masterRank": 0,
        "specialTrainingStatus": "done",
        "defaultImage": "original"
      },
      "userProfile": {
        "userId": 5219176973144064,
        "word": "",
        "honorId1": 239,
        "honorLevel1": 1,
        "honorId2": 248,
        "honorLevel2": 1,
        "honorId3": 73,
        "honorLevel3": 3,
        "twitterId": "",
        "profileImageType": "leader"
      },
      "userCheerfulCarnival": {}
    }
  ],
  "rank400": [
    {
      "userId": 7067735469522944,
      "score": 16192330,
      "rank": 400,
      "isOwn": false,
      "name": "るん/need",
      "userCard": {
        "cardId": 195,
        "level": 60,
        "masterRank": 5,
        "specialTrainingStatus": "done",
        "defaultImage": "original"
      },
      "userProfile": {
        "userId": 7067735469522944,
        "word": "最速で最短で真っ直ぐに一直線にぃぃ！奏をすこれぇぇ",
        "honorId1": 857,
        "honorLevel1": 1,
        "honorId2": 66,
        "honorLevel2": 3,
        "honorId3": 70,
        "honorLevel3": 3,
        "twitterId": "kanade250210",
        "profileImageType": "leader"
      },
      "userCheerfulCarnival": {}
    }
  ],
  "rank500": [
    {
      "userId": 5182536800694273,
      "score": 15613355,
      "rank": 500,
      "isOwn": false,
      "name": "懍々",
      "userCard": {
        "cardId": 284,
        "level": 60,
        "masterRank": 5,
        "specialTrainingStatus": "done",
        "defaultImage": "special_training"
      },
      "userProfile": {
        "userId": 5182536800694273,
        "word": "モモジャン&瑞希推しのリン廃です(^_^)",
        "honorId1": 110,
        "honorLevel1": 1,
        "honorId2": 86,
        "honorLevel2": 2,
        "honorId3": 78,
        "honorLevel3": 2,
        "twitterId": "",
        "profileImageType": "leader"
      },
      "userCheerfulCarnival": {}
    }
  ],
  "rank1000": [
    {
      "userId": 21575543661101064,
      "score": 11064421,
      "rank": 1000,
      "isOwn": false,
      "name": "ぽるか",
      "userCard": {
        "cardId": 119,
        "level": 60,
        "masterRank": 5,
        "specialTrainingStatus": "done",
        "defaultImage": "original"
      },
      "userProfile": {
        "userId": 21575543661101064,
        "word": "わんだほーい☆お金の力って偉大だぁ( T∀T)",
        "honorId1": 62,
        "honorLevel1": 1,
        "honorId2": 69,
        "honorLevel2": 3,
        "honorId3": 867,
        "honorLevel3": 1,
        "twitterId": "",
        "profileImageType": "leader"
      },
      "userCheerfulCarnival": {}
    }
  ],
  "rank2000": [
    {
      "userId": 5897576109137923,
      "score": 5753669,
      "rank": 2000,
      "isOwn": false,
      "name": "ありす",
      "userCard": {
        "cardId": 284,
        "level": 60,
        "masterRank": 1,
        "specialTrainingStatus": "done",
        "defaultImage": "special_training"
      },
      "userProfile": {
        "userId": 5897576109137923,
        "word": "確定まで回せば出る",
        "honorId1": 70,
        "honorLevel1": 1,
        "honorId2": 123,
        "honorLevel2": 1,
        "honorId3": 247,
        "honorLevel3": 1,
        "twitterId": "",
        "profileImageType": "leader"
      },
      "userCheerfulCarnival": {}
    }
  ],
  "rank3000": [
    {
      "userId": 71887236467007490,
      "score": 4359816,
      "rank": 3000,
      "isOwn": false,
      "name": "豆腐ハンバーグ",
      "userCard": {
        "cardId": 156,
        "level": 60,
        "masterRank": 0,
        "specialTrainingStatus": "done",
        "defaultImage": "special_training"
      },
      "userProfile": {
        "userId": 71887236467007490,
        "word": "",
        "honorId1": 77,
        "honorLevel1": 5,
        "honorId2": 249,
        "honorLevel2": 1,
        "honorId3": 962,
        "honorLevel3": 1,
        "twitterId": "",
        "profileImageType": "leader"
      },
      "userCheerfulCarnival": {}
    }
  ],
  "rank4000": [
    {
      "userId": 6042930033221639,
      "score": 3712871,
      "rank": 4000,
      "isOwn": false,
      "name": "わたあめ",
      "userCard": {
        "cardId": 175,
        "level": 60,
        "masterRank": 0,
        "specialTrainingStatus": "done",
        "defaultImage": "special_training"
      },
      "userProfile": {
        "userId": 6042930033221639,
        "word": "えなえなにしてやんよ！！　　　　(されてぇなぁ！！)",
        "honorId1": 74,
        "honorLevel1": 1,
        "honorId2": 248,
        "honorLevel2": 1,
        "honorId3": 112,
        "honorLevel3": 1,
        "twitterId": "",
        "profileImageType": "leader"
      },
      "userCheerfulCarnival": {}
    }
  ],
  "rank5000": [
    {
      "userId": 69227135549636616,
      "score": 3540423,
      "rank": 5000,
      "isOwn": false,
      "name": "ズッキーニャ",
      "userCard": {
        "cardId": 286,
        "level": 60,
        "masterRank": 0,
        "specialTrainingStatus": "done",
        "defaultImage": "special_training"
      },
      "userProfile": {
        "userId": 69227135549636616,
        "word": "誰か☆4ニーゴと実力を下さい",
        "honorId1": 112,
        "honorLevel1": 1,
        "honorId2": 77,
        "honorLevel2": 4,
        "honorId3": 249,
        "honorLevel3": 1,
        "twitterId": "kiridouhu",
        "profileImageType": "leader"
      },
      "userCheerfulCarnival": {}
    }
  ],
  "rank10000": [
    {
      "userId": 5203965100859405,
      "score": 2438672,
      "rank": 10000,
      "isOwn": false,
      "name": "('ω')（仮）",
      "userCard": {
        "cardId": 67,
        "level": 50,
        "masterRank": 5,
        "specialTrainingStatus": "done",
        "defaultImage": "original"
      },
      "userProfile": {
        "userId": 5203965100859405,
        "word": "",
        "honorId1": 65,
        "honorLevel1": 5,
        "honorId2": 246,
        "honorLevel2": 1,
        "honorId3": 110,
        "honorLevel3": 1,
        "twitterId": "",
        "profileImageType": "leader"
      },
      "userCheerfulCarnival": {}
    }
  ],
  "rank20000": [
    {
      "userId": 24812226498367496,
      "score": 1541809,
      "rank": 20000,
      "isOwn": false,
      "name": "金欠",
      "userCard": {
        "cardId": 195,
        "level": 60,
        "masterRank": 5,
        "specialTrainingStatus": "done",
        "defaultImage": "original"
      },
      "userProfile": {
        "userId": 24812226498367496,
        "word": "無課金(のつもりだった)勢",
        "honorId1": 223,
        "honorLevel1": 5,
        "honorId2": 66,
        "honorLevel2": 1,
        "honorId3": 74,
        "honorLevel3": 2,
        "twitterId": "_43O7O",
        "profileImageType": "leader"
      },
      "userCheerfulCarnival": {}
    }
  ],
  "rank30000": [
    {
      "userId": 5236069084368900,
      "score": 1301718,
      "rank": 30000,
      "isOwn": false,
      "name": "セカイの住人",
      "userCard": {
        "cardId": 120,
        "level": 60,
        "masterRank": 0,
        "specialTrainingStatus": "done",
        "defaultImage": "special_training"
      },
      "userProfile": {
        "userId": 5236069084368900,
        "word": "",
        "twitterId": "",
        "profileImageType": "leader"
      },
      "userCheerfulCarnival": {}
    }
  ],
  "rank40000": [
    {
      "userId": 43528431983546370,
      "score": 1177208,
      "rank": 40000,
      "isOwn": false,
      "name": "ノゾミ",
      "userCard": {
        "cardId": 282,
        "level": 21,
        "masterRank": 0,
        "specialTrainingStatus": "not_doing",
        "defaultImage": "original"
      },
      "userProfile": {
        "userId": 43528431983546370,
        "word": "Unnamed Harmony 2936位！ガチャ禁！！",
        "honorId1": 45,
        "honorLevel1": 4,
        "honorId2": 41,
        "honorLevel2": 4,
        "honorId3": 13,
        "honorLevel3": 4,
        "twitterId": "",
        "profileImageType": "leader"
      },
      "userCheerfulCarnival": {}
    }
  ],
  "rank50000": [
    {
      "userId": 5167128504287233,
      "score": 1125210,
      "rank": 50000,
      "isOwn": false,
      "name": "アクセ73",
      "userCard": {
        "cardId": 280,
        "level": 60,
        "masterRank": 2,
        "specialTrainingStatus": "done",
        "defaultImage": "special_training"
      },
      "userProfile": {
        "userId": 5167128504287233,
        "word": "フリックノーツアンチ",
        "honorId1": 102,
        "honorLevel1": 1,
        "honorId2": 255,
        "honorLevel2": 1,
        "honorId3": 123,
        "honorLevel3": 1,
        "twitterId": "sirauo49",
        "profileImageType": "leader"
      },
      "userCheerfulCarnival": {}
    }
  ],
  "rank100000": [
    {
      "userId": 5159270279307272,
      "score": 800965,
      "rank": 100000,
      "isOwn": false,
      "name": "小豆沢の父",
      "userCard": {
        "cardId": 67,
        "level": 50,
        "masterRank": 0,
        "specialTrainingStatus": "done",
        "defaultImage": "special_training"
      },
      "userProfile": {
        "userId": 5159270279307272,
        "word": "娘が世話になってます",
        "honorId1": 34,
        "honorLevel1": 1,
        "honorId2": 238,
        "honorLevel2": 1,
        "honorId3": 913,
        "honorLevel3": 1,
        "twitterId": "",
        "profileImageType": "leader"
      },
      "userCheerfulCarnival": {}
    }
  ]
}