{
  "time": 1610108158135,
  "first10": [
    {
      "userId": 5119914780438534,
      "score": 123456789,
      "rank": 1,
      "isOwn": false,
      "name": "かんぱり",
      "userCard": {
        "cardId": 149,
        "level": 60,
        "masterRank": 5,
        "specialTrainingStatus": "done",
        "defaultImage": "original"
      },
      "userProfile": {
        "userId": 5119914780438534,
        "word": "私が一番楽しもう！",
        "honorId1": 82,
        "honorLevel1": 3,
        "honorId2": 183,
        "honorLevel2": 1,
        "honorId3": 409,
        "honorLevel3": 1,
        "twitterId": "kwang8e_jp",
        "profileImageType": "leader"
      }
    },
    {
      "userId": 5135586663047175,
      "score": 112525250,
      "rank": 2,
      "isOwn": false,
      "name": "†東雲える†",
      "userCard": {
        "cardId": 152,
        "level": 60,
        "masterRank": 5,
        "specialTrainingStatus": "done",
        "defaultImage": "special_training"
      },
      "userProfile": {
        "userId": 5135586663047175,
        "word": "にゃー僕は僕だぞー",
        "honorId1": 78,
        "honorLevel1": 1,
        "honorId2": 70,
        "honorLevel2": 1,
        "honorId3": 66,
        "honorLevel3": 1,
        "twitterId": "snnm_eru",
        "profileImageType": "leader"
      }
    },
    {
      "userId": 5216321994940421,
      "score": 106740970,
      "rank": 3,
      "isOwn": false,
      "name": "オルグ",
      "userCard": {
        "cardId": 151,
        "level": 60,
        "masterRank": 5,
        "specialTrainingStatus": "done",
        "defaultImage": "special_training"
      },
      "userProfile": {
        "userId": 5216321994940421,
        "word": "ランナー→ゾンビ→高級ボロ雑巾",
        "honorId1": 6,
        "honorLevel1": 1,
        "honorId2": 188,
        "honorLevel2": 1,
        "honorId3": 130,
        "honorLevel3": 1,
        "twitterId": "oniorugu1",
        "profileImageType": "leader"
      }
    },
    {
      "userId": 5140038942085128,
      "score": 90964076,
      "rank": 4,
      "isOwn": false,
      "name": "【鳳】ソース",
      "userCard": {
        "cardId": 152,
        "level": 60,
        "masterRank": 5,
        "specialTrainingStatus": "done",
        "defaultImage": "original"
      },
      "userProfile": {
        "userId": 5140038942085128,
        "word": "4位お疲れ様でした",
        "honorId1": 74,
        "honorLevel1": 1,
        "honorId2": 77,
        "honorLevel2": 3,
        "honorId3": 275,
        "honorLevel3": 1,
        "twitterId": "sasisusesoosu01",
        "profileImageType": "leader"
      }
    },
    {
      "userId": 8952118878973960,
      "score": 89757926,
      "rank": 5,
      "isOwn": false,
      "name": "あるぱか",
      "userCard": {
        "cardId": 151,
        "level": 60,
        "masterRank": 5,
        "specialTrainingStatus": "done",
        "defaultImage": "special_training"
      },
      "userProfile": {
        "userId": 8952118878973960,
        "word": "イベラン中に食べた食材　　　　漬物　納豆　鍋　ステーキ　寿司",
        "honorId1": 90,
        "honorLevel1": 1,
        "honorId2": 366,
        "honorLevel2": 1,
        "honorId3": 414,
        "honorLevel3": 1,
        "twitterId": "alpacan_",
        "profileImageType": "leader"
      }
    },
    {
      "userId": 5352309052026888,
      "score": 88888888,
      "rank": 6,
      "isOwn": false,
      "name": "k-p .∙‿∙.”",
      "userCard": {
        "cardId": 152,
        "level": 60,
        "masterRank": 5,
        "specialTrainingStatus": "done",
        "defaultImage": "special_training"
      },
      "userProfile": {
        "userId": 5352309052026888,
        "word": "気軽に絡んでね.∙‿∙.*",
        "honorId1": 74,
        "honorLevel1": 1,
        "honorId2": 106,
        "honorLevel2": 1,
        "honorId3": 264,
        "honorLevel3": 1,
        "twitterId": "Kp14476154",
        "profileImageType": "leader"
      }
    },
    {
      "userId": 5205915209191430,
      "score": 85293293,
      "rank": 7,
      "isOwn": false,
      "name": "くずみかん",
      "userCard": {
        "cardId": 151,
        "level": 60,
        "masterRank": 5,
        "specialTrainingStatus": "done",
        "defaultImage": "special_training"
      },
      "userProfile": {
        "userId": 5205915209191430,
        "word": "12/24 ໒꒱真・皆伝໒꒱",
        "honorId1": 313,
        "honorLevel1": 1,
        "honorId2": 93,
        "honorLevel2": 5,
        "honorId3": 435,
        "honorLevel3": 1,
        "twitterId": "o3o_293",
        "profileImageType": "leader"
      }
    },
    {
      "userId": 11939228695175170,
      "score": 80000000,
      "rank": 8,
      "isOwn": false,
      "name": "リス",
      "userCard": {
        "cardId": 151,
        "level": 60,
        "masterRank": 5,
        "specialTrainingStatus": "done",
        "defaultImage": "special_training"
      },
      "userProfile": {
        "userId": 11939228695175170,
        "word": "ありがとうございました",
        "honorId1": 333,
        "honorLevel1": 1,
        "honorId2": 94,
        "honorLevel2": 1,
        "honorId3": 435,
        "honorLevel3": 1,
        "twitterId": "lys4153p",
        "profileImageType": "leader"
      }
    },
    {
      "userId": 5139723572600835,
      "score": 79250898,
      "rank": 9,
      "isOwn": false,
      "name": "　　　　　　　　隙間",
      "userCard": {
        "cardId": 153,
        "level": 50,
        "masterRank": 5,
        "specialTrainingStatus": "done",
        "defaultImage": "special_training"
      },
      "userProfile": {
        "userId": 5139723572600835,
        "word": "ずっとみんなと　　　　　　　　一緒にいられますように！！",
        "honorId1": 6,
        "honorLevel1": 2,
        "honorId2": 190,
        "honorLevel2": 1,
        "honorId3": 82,
        "honorLevel3": 2,
        "twitterId": "sukima905",
        "profileImageType": "leader"
      }
    },
    {
      "userId": 5204678694535177,
      "score": 77777777,
      "rank": 10,
      "isOwn": false,
      "name": "ピーチ姫♪",
      "userCard": {
        "cardId": 151,
        "level": 60,
        "masterRank": 5,
        "specialTrainingStatus": "done",
        "defaultImage": "special_training"
      },
      "userProfile": {
        "userId": 5204678694535177,
        "word": "みなさんイベントお疲れ様でした！",
        "honorId1": 82,
        "honorLevel1": 3,
        "honorId2": 385,
        "honorLevel2": 1,
        "honorId3": 189,
        "honorLevel3": 1,
        "twitterId": "Peach_hime1022",
        "profileImageType": "leader"
      }
    }
  ],
  "rank20": [
    {
      "userId": 6924834194505741,
      "score": 57575739,
      "rank": 20,
      "isOwn": false,
      "name": "麻婆トウフ",
      "userCard": {
        "cardId": 114,
        "level": 60,
        "masterRank": 5,
        "specialTrainingStatus": "done",
        "defaultImage": "original"
      },
      "userProfile": {
        "userId": 6924834194505741,
        "word": "野良部屋でしか走ってないから　野良で会った人達のおかげです。",
        "honorId1": 70,
        "honorLevel1": 1,
        "honorId2": 222,
        "honorLevel2": 4,
        "honorId3": 53,
        "honorLevel3": 4,
        "twitterId": "みんなありがとう",
        "profileImageType": "leader"
      }
    }
  ],
  "rank30": [
    {
      "userId": 5957982966427661,
      "score": 50000000,
      "rank": 30,
      "isOwn": false,
      "name": "しゅがー",
      "userCard": {
        "cardId": 152,
        "level": 60,
        "masterRank": 5,
        "specialTrainingStatus": "done",
        "defaultImage": "special_training"
      },
      "userProfile": {
        "userId": 5957982966427661,
        "word": "おつかれさまでした",
        "honorId1": 74,
        "honorLevel1": 1,
        "honorId2": 223,
        "honorLevel2": 2,
        "honorId3": 106,
        "honorLevel3": 1,
        "twitterId": "Ria_xxSugar",
        "profileImageType": "leader"
      }
    }
  ],
  "rank40": [
    {
      "userId": 5401625481310209,
      "score": 41124215,
      "rank": 40,
      "isOwn": false,
      "name": "エステル",
      "userCard": {
        "cardId": 152,
        "level": 60,
        "masterRank": 5,
        "specialTrainingStatus": "done",
        "defaultImage": "original"
      },
      "userProfile": {
        "userId": 5401625481310209,
        "word": "今回の縛り⇨0時以外順位を見てはいけない",
        "honorId1": 74,
        "honorLevel1": 1,
        "honorId2": 260,
        "honorLevel2": 1,
        "honorId3": 363,
        "honorLevel3": 1,
        "twitterId": "Es_Teru",
        "profileImageType": "leader"
      }
    }
  ],
  "rank50": [
    {
      "userId": 5264523754176512,
      "score": 37494476,
      "rank": 50,
      "isOwn": false,
      "name": "ぽめらにあん",
      "userCard": {
        "cardId": 152,
        "level": 60,
        "masterRank": 0,
        "specialTrainingStatus": "done",
        "defaultImage": "special_training"
      },
      "userProfile": {
        "userId": 5264523754176512,
        "word": "ちわわんわんありがと",
        "honorId1": 34,
        "honorLevel1": 1,
        "honorId2": 54,
        "honorLevel2": 1,
        "honorId3": 42,
        "honorLevel3": 1,
        "twitterId": "nana_on_7",
        "profileImageType": "leader"
      }
    }
  ],
  "rank100": [
    {
      "userId": 5582460574375942,
      "score": 25244335,
      "rank": 100,
      "isOwn": false,
      "name": "ちゃんけい",
      "userCard": {
        "cardId": 126,
        "level": 60,
        "masterRank": 0,
        "specialTrainingStatus": "done",
        "defaultImage": "original"
      },
      "userProfile": {
        "userId": 5582460574375942,
        "word": "wonderhoooooooyyyyyy!!!!!!!!!",
        "honorId1": 357,
        "honorLevel1": 1,
        "honorId2": 105,
        "honorLevel2": 1,
        "honorId3": 81,
        "honorLevel3": 5,
        "twitterId": "vocalo_amole",
        "profileImageType": "leader"
      }
    }
  ],
  "rank200": [
    {
      "userId": 31127784357314576,
      "score": 13948868,
      "rank": 200,
      "isOwn": false,
      "name": "エンヴィから逃げるな",
      "userCard": {
        "cardId": 152,
        "level": 60,
        "masterRank": 0,
        "specialTrainingStatus": "done",
        "defaultImage": "special_training"
      },
      "userProfile": {
        "userId": 31127784357314576,
        "word": "モンストから逃げてきた限界オタク",
        "honorId1": 146,
        "honorLevel1": 1,
        "honorId2": 17,
        "honorLevel2": 4,
        "honorId3": 421,
        "honorLevel3": 1,
        "twitterId": "enasan_Lobi",
        "profileImageType": "leader"
      }
    }
  ],
  "rank300": [
    {
      "userId": 22910086712246280,
      "score": 10608987,
      "rank": 300,
      "isOwn": false,
      "name": "はい俺の勝ち卍",
      "userCard": {
        "cardId": 124,
        "level": 60,
        "masterRank": 0,
        "specialTrainingStatus": "done",
        "defaultImage": "special_training"
      },
      "userProfile": {
        "userId": 22910086712246280,
        "word": "お疲れ様でしたっっっっ",
        "honorId1": 81,
        "honorLevel1": 4,
        "honorId2": 421,
        "honorLevel2": 1,
        "honorId3": 351,
        "honorLevel3": 1,
        "twitterId": "ん",
        "profileImageType": "leader"
      }
    }
  ],
  "rank400": [
    {
      "userId": 11430302882869250,
      "score": 9575990,
      "rank": 400,
      "isOwn": false,
      "name": "冬弥の鎖骨",
      "userCard": {
        "cardId": 149,
        "level": 60,
        "masterRank": 0,
        "specialTrainingStatus": "done",
        "defaultImage": "special_training"
      },
      "userProfile": {
        "userId": 11430302882869250,
        "word": "冬弥、一緒にゲーセン行こう！お疲れ様！！！",
        "honorId1": 45,
        "honorLevel1": 5,
        "honorId2": 422,
        "honorLevel2": 1,
        "honorId3": 123,
        "honorLevel3": 1,
        "twitterId": "ayty_525",
        "profileImageType": "leader"
      }
    }
  ],
  "rank500": [
    {
      "userId": 5163197129269261,
      "score": 9160000,
      "rank": 500,
      "isOwn": false,
      "name": "しあ",
      "userCard": {
        "cardId": 88,
        "level": 60,
        "masterRank": 5,
        "specialTrainingStatus": "done",
        "defaultImage": "original"
      },
      "userProfile": {
        "userId": 5163197129269261,
        "word": "調整雑魚",
        "honorId1": 195,
        "honorLevel1": 1,
        "honorId2": 82,
        "honorLevel2": 1,
        "honorId3": 115,
        "honorLevel3": 1,
        "twitterId": "xmn1_n",
        "profileImageType": "leader"
      }
    }
  ],
  "rank1000": [
    {
      "userId": 12072283678240770,
      "score": 6178552,
      "rank": 1000,
      "isOwn": false,
      "name": "marupiki",
      "userCard": {
        "cardId": 150,
        "level": 60,
        "masterRank": 0,
        "specialTrainingStatus": "done",
        "defaultImage": "special_training"
      },
      "userProfile": {
        "userId": 12072283678240770,
        "word": "わー",
        "honorId1": 1,
        "honorLevel1": 2,
        "honorId2": 429,
        "honorLevel2": 1,
        "honorId3": 118,
        "honorLevel3": 3,
        "twitterId": "",
        "profileImageType": "leader"
      }
    }
  ],
  "rank2000": [
    {
      "userId": 5257035566493700,
      "score": 3287511,
      "rank": 2000,
      "isOwn": false,
      "name": "とぬ",
      "userCard": {
        "cardId": 149,
        "level": 60,
        "masterRank": 0,
        "specialTrainingStatus": "done",
        "defaultImage": "special_training"
      },
      "userProfile": {
        "userId": 5257035566493700,
        "word": "まったりと!!!",
        "honorId1": 233,
        "honorLevel1": 1,
        "honorId2": 435,
        "honorLevel2": 1,
        "honorId3": 13,
        "honorLevel3": 1,
        "twitterId": "",
        "profileImageType": "leader"
      }
    }
  ],
  "rank3000": [
    {
      "userId": 5136287158460421,
      "score": 2529433,
      "rank": 3000,
      "isOwn": false,
      "name": "ゆーや",
      "userCard": {
        "cardId": 92,
        "level": 60,
        "masterRank": 2,
        "specialTrainingStatus": "done",
        "defaultImage": "special_training"
      },
      "userProfile": {
        "userId": 5136287158460421,
        "word": "",
        "honorId1": 108,
        "honorLevel1": 1,
        "honorId2": 345,
        "honorLevel2": 1,
        "honorId3": 112,
        "honorLevel3": 1,
        "twitterId": "",
        "profileImageType": "leader"
      }
    }
  ],
  "rank4000": [
    {
      "userId": 5283860611485702,
      "score": 2214954,
      "rank": 4000,
      "isOwn": false,
      "name": "Choco chip",
      "userCard": {
        "cardId": 99,
        "level": 50,
        "masterRank": 5,
        "specialTrainingStatus": "done",
        "defaultImage": "original"
      },
      "userProfile": {
        "userId": 5283860611485702,
        "word": "┏( .-. ┏ ) ┓",
        "honorId1": 430,
        "honorLevel1": 1,
        "honorId2": 115,
        "honorLevel2": 1,
        "honorId3": 57,
        "honorLevel3": 4,
        "twitterId": "",
        "profileImageType": "leader"
      }
    }
  ],
  "rank5000": [
    {
      "userId": 23772548827353100,
      "score": 2122648,
      "rank": 5000,
      "isOwn": false,
      "name": "セカイの辰",
      "userCard": {
        "cardId": 84,
        "level": 30,
        "masterRank": 5,
        "specialTrainingStatus": "not_doing",
        "defaultImage": "original"
      },
      "userProfile": {
        "userId": 23772548827353100,
        "word": "",
        "honorId1": 435,
        "honorLevel1": 1,
        "twitterId": "",
        "profileImageType": "leader"
      }
    }
  ],
  "rank10000": [
    {
      "userId": 7482322958659598,
      "score": 1476531,
      "rank": 10000,
      "isOwn": false,
      "name": "たな",
      "userCard": {
        "cardId": 152,
        "level": 60,
        "masterRank": 0,
        "specialTrainingStatus": "done",
        "defaultImage": "special_training"
      },
      "userProfile": {
        "userId": 7482322958659598,
        "word": "",
        "honorId1": 17,
        "honorLevel1": 4,
        "honorId2": 73,
        "honorLevel2": 3,
        "twitterId": "",
        "profileImageType": "leader"
      }
    }
  ],
  "rank20000": [
    {
      "userId": 5120978556710926,
      "score": 1079929,
      "rank": 20000,
      "isOwn": false,
      "name": "トワ",
      "userCard": {
        "cardId": 150,
        "level": 60,
        "masterRank": 0,
        "specialTrainingStatus": "done",
        "defaultImage": "special_training"
      },
      "userProfile": {
        "userId": 5120978556710926,
        "word": "",
        "honorId1": 93,
        "honorLevel1": 1,
        "honorId2": 206,
        "honorLevel2": 3,
        "honorId3": 226,
        "honorLevel3": 5,
        "twitterId": "",
        "profileImageType": "leader"
      }
    }
  ],
  "rank30000": [
    {
      "userId": 5614681490395151,
      "score": 934504,
      "rank": 30000,
      "isOwn": false,
      "name": "めがね",
      "userCard": {
        "cardId": 118,
        "level": 30,
        "masterRank": 5,
        "specialTrainingStatus": "not_doing",
        "defaultImage": "original"
      },
      "userProfile": {
        "userId": 5614681490395151,
        "word": "",
        "honorId1": 45,
        "honorLevel1": 4,
        "honorId2": 89,
        "honorLevel2": 3,
        "honorId3": 226,
        "honorLevel3": 2,
        "twitterId": "",
        "profileImageType": "leader"
      }
    }
  ],
  "rank40000": [
    {
      "userId": 5923648338763786,
      "score": 838909,
      "rank": 40000,
      "isOwn": false,
      "name": "セカイの灯火",
      "userCard": {
        "cardId": 112,
        "level": 50,
        "masterRank": 0,
        "specialTrainingStatus": "done",
        "defaultImage": "special_training"
      },
      "userProfile": {
        "userId": 5923648338763786,
        "word": "",
        "honorId1": 1,
        "honorLevel1": 3,
        "honorId2": 435,
        "honorLevel2": 1,
        "honorId3": 133,
        "honorLevel3": 1,
        "twitterId": "",
        "profileImageType": "leader"
      }
    }
  ],
  "rank50000": [
    {
      "userId": 11031429513441280,
      "score": 776840,
      "rank": 50000,
      "isOwn": false,
      "name": "めたん",
      "userCard": {
        "cardId": 137,
        "level": 50,
        "masterRank": 0,
        "specialTrainingStatus": "done",
        "defaultImage": "special_training"
      },
      "userProfile": {
        "userId": 11031429513441280,
        "word": "",
        "honorId1": 33,
        "honorLevel1": 3,
        "honorId2": 131,
        "honorLevel2": 1,
        "honorId3": 140,
        "honorLevel3": 1,
        "twitterId": "",
        "profileImageType": "leader"
      }
    }
  ],
  "rank100000": [
    {
      "userId": 5193721088352269,
      "score": 522834,
      "rank": 100000,
      "isOwn": false,
      "name": "きら",
      "userCard": {
        "cardId": 95,
        "level": 30,
        "masterRank": 0,
        "specialTrainingStatus": "not_doing",
        "defaultImage": "original"
      },
      "userProfile": {
        "userId": 5193721088352269,
        "word": "",
        "honorId1": 251,
        "honorLevel1": 1,
        "honorId2": 85,
        "honorLevel2": 1,
        "honorId3": 89,
        "honorLevel3": 1,
        "twitterId": "",
        "profileImageType": "leader"
      }
    }
  ]
}