{
  "time": 1643458558037,
  "first10": [
    {
      "userId": 7743306549682180,
      "score": 222222210,
      "rank": 1,
      "isOwn": false,
      "name": "myu",
      "userCard": {
        "cardId": 361,
        "level": 60,
        "masterRank": 5,
        "specialTrainingStatus": "done",
        "defaultImage": "special_training"
      },
      "userProfile": {
        "userId": 7743306549682180,
        "word": "ニーゴが好きです",
        "twitterId": "",
        "profileImageType": "leader"
      },
      "userProfileHonors": [
        {
          "seq": 1,
          "profileHonorType": "normal",
          "honorId": 1069,
          "honorLevel": 1,
          "bondsHonorViewType": "none",
          "bondsHonorWordId": 0
        },
        {
          "seq": 2,
          "profileHonorType": "normal",
          "honorId": 681,
          "honorLevel": 1,
          "bondsHonorViewType": "none",
          "bondsHonorWordId": 0
        },
        {
          "seq": 3,
          "profileHonorType": "normal",
          "honorId": 1269,
          "honorLevel": 1,
          "bondsHonorViewType": "none",
          "bondsHonorWordId": 0
        }
      ],
      "userCheerfulCarnival": {}
    },
    {
      "userId": 6270612574068751,
      "score": 214210127,
      "rank": 2,
      "isOwn": false,
      "name": "空気清淨機 ",
      "userCard": {
        "cardId": 362,
        "level": 60,
        "masterRank": 5,
        "specialTrainingStatus": "done",
        "defaultImage": "original"
      },
      "userProfile": {
        "userId": 6270612574068751,
        "word": "見つけてくれて、ありがとう^ ^",
        "twitterId": "",
        "profileImageType": "leader"
      },
      "userProfileHonors": [
        {
          "seq": 1,
          "profileHonorType": "normal",
          "honorId": 1019,
          "honorLevel": 1,
          "bondsHonorViewType": "none",
          "bondsHonorWordId": 0
        }
      ],
      "userCheerfulCarnival": {}
    },
    {
      "userId": 5143496143613960,
      "score": 206827210,
      "rank": 3,
      "isOwn": false,
      "name": "Lacus",
      "userCard": {
        "cardId": 363,
        "level": 60,
        "masterRank": 5,
        "specialTrainingStatus": "done",
        "defaultImage": "original"
      },
      "userProfile": {
        "userId": 5143496143613960,
        "word": "僕の生きているすべてを確かめて正しくして",
        "twitterId": "lily_lacus",
        "profileImageType": "leader"
      },
      "userProfileHonors": [
        {
          "seq": 1,
          "profileHonorType": "normal",
          "honorId": 1200,
          "honorLevel": 1,
          "bondsHonorViewType": "none",
          "bondsHonorWordId": 0
        },
        {
          "seq": 2,
          "profileHonorType": "normal",
          "honorId": 78,
          "honorLevel": 4,
          "bondsHonorViewType": "none",
          "bondsHonorWordId": 0
        },
        {
          "seq": 3,
          "profileHonorType": "normal",
          "honorId": 66,
          "honorLevel": 3,
          "bondsHonorViewType": "none",
          "bondsHonorWordId": 0
        }
      ],
      "userCheerfulCarnival": {}
    },
    {
      "userId": 5993805446819852,
      "score": 200000210,
      "rank": 4,
      "isOwn": false,
      "name": "3Dで皆の衣装見る専",
      "userCard": {
        "cardId": 361,
        "level": 60,
        "masterRank": 5,
        "specialTrainingStatus": "done",
        "defaultImage": "original"
      },
      "userProfile": {
        "userId": 5993805446819852,
        "word": "無事目標ポイントまで達成できました。ありがとうございました！",
        "twitterId": "3DCostume25",
        "profileImageType": "leader"
      },
      "userProfileHonors": [
        {
          "seq": 1,
          "profileHonorType": "normal",
          "honorId": 66,
          "honorLevel": 5,
          "bondsHonorViewType": "none",
          "bondsHonorWordId": 0
        },
        {
          "seq": 2,
          "profileHonorType": "normal",
          "honorId": 854,
          "honorLevel": 1,
          "bondsHonorViewType": "none",
          "bondsHonorWordId": 0
        },
        {
          "seq": 3,
          "profileHonorType": "normal",
          "honorId": 1076,
          "honorLevel": 1,
          "bondsHonorViewType": "none",
          "bondsHonorWordId": 0
        }
      ],
      "userCheerfulCarnival": {}
    },
    {
      "userId": 6438699089326093,
      "score": 177771220,
      "rank": 5,
      "isOwn": false,
      "name": "ぺでち",
      "userCard": {
        "cardId": 366,
        "level": 60,
        "masterRank": 5,
        "specialTrainingStatus": "not_doing",
        "defaultImage": "original"
      },
      "userProfile": {
        "userId": 6438699089326093,
        "word": " ",
        "twitterId": "illlain",
        "profileImageType": "leader"
      },
      "userProfileHonors": [
        {
          "seq": 1,
          "profileHonorType": "normal",
          "honorId": 1070,
          "honorLevel": 1,
          "bondsHonorViewType": "none",
          "bondsHonorWordId": 0
        },
        {
          "seq": 2,
          "profileHonorType": "normal",
          "honorId": 70,
          "honorLevel": 4,
          "bondsHonorViewType": "none",
          "bondsHonorWordId": 0
        },
        {
          "seq": 3,
          "profileHonorType": "normal",
          "honorId": 74,
          "honorLevel": 3,
          "bondsHonorViewType": "none",
          "bondsHonorWordId": 0
        }
      ],
      "userCheerfulCarnival": {}
    },
    {
      "userId": 53854973926191120,
      "score": 170000210,
      "rank": 6,
      "isOwn": false,
      "name": "しゅ",
      "userCard": {
        "cardId": 363,
        "level": 60,
        "masterRank": 5,
        "specialTrainingStatus": "done",
        "defaultImage": "original"
      },
      "userProfile": {
        "userId": 53854973926191120,
        "word": "わたしが走らなくちゃ...",
        "twitterId": "absolute_syuuu",
        "profileImageType": "leader"
      },
      "userProfileHonors": [
        {
          "seq": 1,
          "profileHonorType": "bonds",
          "honorId": 1192002,
          "honorLevel": 3,
          "bondsHonorViewType": "normal",
          "bondsHonorWordId": 1192002
        },
        {
          "seq": 2,
          "profileHonorType": "bonds",
          "honorId": 1171902,
          "honorLevel": 2,
          "bondsHonorViewType": "normal",
          "bondsHonorWordId": 1171901
        },
        {
          "seq": 3,
          "profileHonorType": "bonds",
          "honorId": 1172002,
          "honorLevel": 1,
          "bondsHonorViewType": "normal",
          "bondsHonorWordId": 1172002
        }
      ],
      "userCheerfulCarnival": {}
    },
    {
      "userId": 5934639541702669,
      "score": 160431210,
      "rank": 7,
      "isOwn": false,
      "name": "世・ω・良の召使い",
      "userCard": {
        "cardId": 152,
        "level": 60,
        "masterRank": 5,
        "specialTrainingStatus": "done",
        "defaultImage": "special_training"
      },
      "userProfile": {
        "userId": 5934639541702669,
        "word": "ﾅｲﾁｬｯﾀ",
        "twitterId": "",
        "profileImageType": "leader"
      },
      "userProfileHonors": [
        {
          "seq": 1,
          "profileHonorType": "normal",
          "honorId": 853,
          "honorLevel": 1,
          "bondsHonorViewType": "none",
          "bondsHonorWordId": 0
        },
        {
          "seq": 2,
          "profileHonorType": "normal",
          "honorId": 927,
          "honorLevel": 1,
          "bondsHonorViewType": "none",
          "bondsHonorWordId": 0
        },
        {
          "seq": 3,
          "profileHonorType": "normal",
          "honorId": 66,
          "honorLevel": 4,
          "bondsHonorViewType": "none",
          "bondsHonorWordId": 0
        }
      ],
      "userCheerfulCarnival": {}
    },
    {
      "userId": 38670313319444490,
      "score": 160330829,
      "rank": 8,
      "isOwn": false,
      "name": "タックス",
      "userCard": {
        "cardId": 152,
        "level": 60,
        "masterRank": 5,
        "specialTrainingStatus": "done",
        "defaultImage": "special_training"
      },
      "userProfile": {
        "userId": 38670313319444490,
        "word": "胸を張って伝えられるようにーー",
        "twitterId": "",
        "profileImageType": "leader"
      },
      "userProfileHonors": [
        {
          "seq": 1,
          "profileHonorType": "normal",
          "honorId": 21,
          "honorLevel": 5,
          "bondsHonorViewType": "none",
          "bondsHonorWordId": 0
        },
        {
          "seq": 2,
          "profileHonorType": "normal",
          "honorId": 1121,
          "honorLevel": 1,
          "bondsHonorViewType": "none",
          "bondsHonorWordId": 0
        },
        {
          "seq": 3,
          "profileHonorType": "bonds",
          "honorId": 1062101,
          "honorLevel": 1,
          "bondsHonorViewType": "normal",
          "bondsHonorWordId": 1062101
        }
      ],
      "userCheerfulCarnival": {}
    },
    {
      "userId": 8524338232193024,
      "score": 158827210,
      "rank": 9,
      "isOwn": false,
      "name": "夜奏花❀",
      "userCard": {
        "cardId": 356,
        "level": 60,
        "masterRank": 0,
        "specialTrainingStatus": "done",
        "defaultImage": "special_training"
      },
      "userProfile": {
        "userId": 8524338232193024,
        "word": "Last Dance",
        "twitterId": "Yasouka_",
        "profileImageType": "leader"
      },
      "userProfileHonors": [
        {
          "seq": 1,
          "profileHonorType": "bonds",
          "honorId": 1172002,
          "honorLevel": 4,
          "bondsHonorViewType": "normal",
          "bondsHonorWordId": 1172003
        },
        {
          "seq": 2,
          "profileHonorType": "normal",
          "honorId": 66,
          "honorLevel": 4,
          "bondsHonorViewType": "none",
          "bondsHonorWordId": 0
        },
        {
          "seq": 3,
          "profileHonorType": "normal",
          "honorId": 78,
          "honorLevel": 4,
          "bondsHonorViewType": "none",
          "bondsHonorWordId": 0
        }
      ],
      "userCheerfulCarnival": {}
    },
    {
      "userId": 5275003445305356,
      "score": 157771003,
      "rank": 10,
      "isOwn": false,
      "name": "鹿目 まどか",
      "userCard": {
        "cardId": 116,
        "level": 60,
        "masterRank": 0,
        "specialTrainingStatus": "done",
        "defaultImage": "original"
      },
      "userProfile": {
        "userId": 5275003445305356,
        "word": "あなたは私の、最高の友達だったんだね。",
        "twitterId": "",
        "profileImageType": "leader"
      },
      "userProfileHonors": [
        {
          "seq": 1,
          "profileHonorType": "normal",
          "honorId": 115,
          "honorLevel": 1,
          "bondsHonorViewType": "none",
          "bondsHonorWordId": 0
        }
      ],
      "userCheerfulCarnival": {}
    }
  ],
  "rank20": [
    {
      "userId": 9198104251850752,
      "score": 110130210,
      "rank": 20,
      "isOwn": false,
      "name": "心のダム",
      "userCard": {
        "cardId": 361,
        "level": 60,
        "masterRank": 5,
        "specialTrainingStatus": "done",
        "defaultImage": "special_training"
      },
      "userProfile": {
        "userId": 9198104251850752,
        "word": "俺を支えてくれたお前を幸せにすると誓う",
        "twitterId": "Masato_H_SH",
        "profileImageType": "leader"
      },
      "userProfileHonors": [
        {
          "seq": 1,
          "profileHonorType": "normal",
          "honorId": 66,
          "honorLevel": 3,
          "bondsHonorViewType": "none",
          "bondsHonorWordId": 0
        },
        {
          "seq": 2,
          "profileHonorType": "normal",
          "honorId": 241,
          "honorLevel": 1,
          "bondsHonorViewType": "none",
          "bondsHonorWordId": 0
        },
        {
          "seq": 3,
          "profileHonorType": "normal",
          "honorId": 255,
          "honorLevel": 1,
          "bondsHonorViewType": "none",
          "bondsHonorWordId": 0
        }
      ],
      "userCheerfulCarnival": {}
    }
  ],
  "rank30": [
    {
      "userId": 109544089950662670,
      "score": 95000210,
      "rank": 30,
      "isOwn": false,
      "name": " Hepha",
      "userCard": {
        "cardId": 363,
        "level": 60,
        "masterRank": 5,
        "specialTrainingStatus": "done",
        "defaultImage": "original"
      },
      "userProfile": {
        "userId": 109544089950662670,
        "word": "",
        "twitterId": "",
        "profileImageType": "leader"
      },
      "userProfileHonors": [
        {
          "seq": 1,
          "profileHonorType": "bonds",
          "honorId": 1192002,
          "honorLevel": 2,
          "bondsHonorViewType": "normal",
          "bondsHonorWordId": 1192002
        },
        {
          "seq": 2,
          "profileHonorType": "normal",
          "honorId": 115,
          "honorLevel": 1,
          "bondsHonorViewType": "none",
          "bondsHonorWordId": 0
        },
        {
          "seq": 3,
          "profileHonorType": "normal",
          "honorId": 223,
          "honorLevel": 5,
          "bondsHonorViewType": "none",
          "bondsHonorWordId": 0
        }
      ],
      "userCheerfulCarnival": {}
    }
  ],
  "rank40": [
    {
      "userId": 19262299902701572,
      "score": 88714061,
      "rank": 40,
      "isOwn": false,
      "name": "ナエトル",
      "userCard": {
        "cardId": 195,
        "level": 60,
        "masterRank": 5,
        "specialTrainingStatus": "done",
        "defaultImage": "original"
      },
      "userProfile": {
        "userId": 19262299902701572,
        "word": "ナエトルです",
        "twitterId": "",
        "profileImageType": "leader"
      },
      "userProfileHonors": [
        {
          "seq": 1,
          "profileHonorType": "normal",
          "honorId": 66,
          "honorLevel": 3,
          "bondsHonorViewType": "none",
          "bondsHonorWordId": 0
        },
        {
          "seq": 2,
          "profileHonorType": "normal",
          "honorId": 861,
          "honorLevel": 1,
          "bondsHonorViewType": "none",
          "bondsHonorWordId": 0
        },
        {
          "seq": 3,
          "profileHonorType": "normal",
          "honorId": 246,
          "honorLevel": 1,
          "bondsHonorViewType": "none",
          "bondsHonorWordId": 0
        }
      ],
      "userCheerfulCarnival": {}
    }
  ],
  "rank50": [
    {
      "userId": 5225350506983439,
      "score": 83908210,
      "rank": 50,
      "isOwn": false,
      "name": "ネコちゃーん",
      "userCard": {
        "cardId": 361,
        "level": 60,
        "masterRank": 5,
        "specialTrainingStatus": "done",
        "defaultImage": "original"
      },
      "userProfile": {
        "userId": 5225350506983439,
        "word": "生きてりゃ　辛いことなんていっぱいあるさ",
        "twitterId": "anokoronoazi25",
        "profileImageType": "leader"
      },
      "userProfileHonors": [
        {
          "seq": 1,
          "profileHonorType": "normal",
          "honorId": 568,
          "honorLevel": 1,
          "bondsHonorViewType": "none",
          "bondsHonorWordId": 0
        },
        {
          "seq": 2,
          "profileHonorType": "bonds",
          "honorId": 1171902,
          "honorLevel": 1,
          "bondsHonorViewType": "normal",
          "bondsHonorWordId": 1171902
        },
        {
          "seq": 3,
          "profileHonorType": "bonds",
          "honorId": 1181902,
          "honorLevel": 1,
          "bondsHonorViewType": "normal",
          "bondsHonorWordId": 1181901
        }
      ],
      "userCheerfulCarnival": {}
    }
  ],
  "rank100": [
    {
      "userId": 5183675595632648,
      "score": 65127210,
      "rank": 100,
      "isOwn": false,
      "name": "choco",
      "userCard": {
        "cardId": 152,
        "level": 60,
        "masterRank": 5,
        "specialTrainingStatus": "done",
        "defaultImage": "special_training"
      },
      "userProfile": {
        "userId": 5183675595632648,
        "word": "月、無くなっちゃった",
        "twitterId": "",
        "profileImageType": "leader"
      },
      "userProfileHonors": [
        {
          "seq": 1,
          "profileHonorType": "normal",
          "honorId": 854,
          "honorLevel": 1,
          "bondsHonorViewType": "none",
          "bondsHonorWordId": 0
        },
        {
          "seq": 2,
          "profileHonorType": "normal",
          "honorId": 565,
          "honorLevel": 1,
          "bondsHonorViewType": "none",
          "bondsHonorWordId": 0
        },
        {
          "seq": 3,
          "profileHonorType": "normal",
          "honorId": 688,
          "honorLevel": 1,
          "bondsHonorViewType": "none",
          "bondsHonorWordId": 0
        }
      ],
      "userCheerfulCarnival": {}
    }
  ],
  "rank200": [
    {
      "userId": 9297100219510796,
      "score": 39241924,
      "rank": 200,
      "isOwn": false,
      "name": "イベ乙でした〜！",
      "userCard": {
        "cardId": 362,
        "level": 60,
        "masterRank": 5,
        "specialTrainingStatus": "done",
        "defaultImage": "special_training"
      },
      "userProfile": {
        "userId": 9297100219510796,
        "word": "ゆるゆる　(裏エビバ部幽霊部員) 　冬限定ハンネ",
        "twitterId": "可愛い",
        "profileImageType": "leader"
      },
      "userProfileHonors": [
        {
          "seq": 1,
          "profileHonorType": "normal",
          "honorId": 1133,
          "honorLevel": 1,
          "bondsHonorViewType": "none",
          "bondsHonorWordId": 0
        },
        {
          "seq": 2,
          "profileHonorType": "normal",
          "honorId": 1279,
          "honorLevel": 1,
          "bondsHonorViewType": "none",
          "bondsHonorWordId": 0
        },
        {
          "seq": 3,
          "profileHonorType": "normal",
          "honorId": 247,
          "honorLevel": 1,
          "bondsHonorViewType": "none",
          "bondsHonorWordId": 0
        }
      ],
      "userCheerfulCarnival": {}
    }
  ],
  "rank300": [
    {
      "userId": 56298417311494150,
      "score": 33299315,
      "rank": 300,
      "isOwn": false,
      "name": "イベランとは",
      "userCard": {
        "cardId": 152,
        "level": 60,
        "masterRank": 0,
        "specialTrainingStatus": "done",
        "defaultImage": "special_training"
      },
      "userProfile": {
        "userId": 56298417311494150,
        "word": "ゴーストルールつけ麺",
        "twitterId": "",
        "profileImageType": "leader"
      },
      "userProfileHonors": [
        {
          "seq": 1,
          "profileHonorType": "normal",
          "honorId": 66,
          "honorLevel": 2,
          "bondsHonorWordId": 0
        },
        {
          "seq": 2,
          "profileHonorType": "normal",
          "honorId": 109,
          "honorLevel": 1,
          "bondsHonorViewType": "none",
          "bondsHonorWordId": 0
        },
        {
          "seq": 3,
          "profileHonorType": "bonds",
          "honorId": 1171801,
          "honorLevel": 5,
          "bondsHonorViewType": "normal",
          "bondsHonorWordId": 1171802
        }
      ],
      "userCheerfulCarnival": {}
    }
  ],
  "rank400": [
    {
      "userId": 6384551710449665,
      "score": 29272789,
      "rank": 400,
      "isOwn": false,
      "name": "腰痛㌠",
      "userCard": {
        "cardId": 196,
        "level": 60,
        "masterRank": 0,
        "specialTrainingStatus": "done",
        "defaultImage": "special_training"
      },
      "userProfile": {
        "userId": 6384551710449665,
        "word": "奏ちゃん",
        "twitterId": "0range_sweet",
        "profileImageType": "leader"
      },
      "userProfileHonors": [
        {
          "seq": 1,
          "profileHonorType": "normal",
          "honorId": 66,
          "honorLevel": 4,
          "bondsHonorViewType": "none",
          "bondsHonorWordId": 0
        },
        {
          "seq": 2,
          "profileHonorType": "normal",
          "honorId": 246,
          "honorLevel": 1,
          "bondsHonorViewType": "none",
          "bondsHonorWordId": 0
        }
      ],
      "userCheerfulCarnival": {}
    }
  ],
  "rank500": [
    {
      "userId": 169054987477086200,
      "score": 28214838,
      "rank": 500,
      "isOwn": false,
      "name": "平井堅",
      "userCard": {
        "cardId": 363,
        "level": 60,
        "masterRank": 0,
        "specialTrainingStatus": "done",
        "defaultImage": "special_training"
      },
      "userProfile": {
        "userId": 169054987477086200,
        "word": "平井堅だよ",
        "twitterId": "",
        "profileImageType": "leader"
      },
      "userProfileHonors": [
        {
          "seq": 1,
          "profileHonorType": "normal",
          "honorId": 127,
          "honorLevel": 1,
          "bondsHonorViewType": "none",
          "bondsHonorWordId": 0
        },
        {
          "seq": 2,
          "profileHonorType": "normal",
          "honorId": 1390,
          "honorLevel": 1,
          "bondsHonorViewType": "none",
          "bondsHonorWordId": 0
        },
        {
          "seq": 3,
          "profileHonorType": "normal",
          "honorId": 130,
          "honorLevel": 1,
          "bondsHonorViewType": "none",
          "bondsHonorWordId": 0
        }
      ],
      "userCheerfulCarnival": {}
    }
  ],
  "rank1000": [
    {
      "userId": 164679337715396600,
      "score": 21448145,
      "rank": 1000,
      "isOwn": false,
      "name": "ReΔ",
      "userCard": {
        "cardId": 152,
        "level": 60,
        "masterRank": 0,
        "specialTrainingStatus": "done",
        "defaultImage": "special_training"
      },
      "userProfile": {
        "userId": 164679337715396600,
        "word": "800内なう　石残り5000切った…",
        "twitterId": "uny43",
        "profileImageType": "leader"
      },
      "userProfileHonors": [
        {
          "seq": 1,
          "profileHonorType": "normal",
          "honorId": 105,
          "honorLevel": 1,
          "bondsHonorViewType": "none",
          "bondsHonorWordId": 0
        }
      ],
      "userCheerfulCarnival": {}
    }
  ],
  "rank2000": [
    {
      "userId": 81615361488896000,
      "score": 11688838,
      "rank": 2000,
      "isOwn": false,
      "name": "帆楼",
      "userCard": {
        "cardId": 205,
        "level": 50,
        "masterRank": 5,
        "specialTrainingStatus": "done",
        "defaultImage": "special_training"
      },
      "userProfile": {
        "userId": 81615361488896000,
        "word": "奏...",
        "twitterId": "",
        "profileImageType": "leader"
      },
      "userProfileHonors": [
        {
          "seq": 1,
          "profileHonorType": "bonds",
          "honorId": 1172102,
          "honorLevel": 1,
          "bondsHonorViewType": "normal",
          "bondsHonorWordId": 1172102
        },
        {
          "seq": 2,
          "profileHonorType": "normal",
          "honorId": 66,
          "honorLevel": 1,
          "bondsHonorViewType": "none",
          "bondsHonorWordId": 0
        },
        {
          "seq": 3,
          "profileHonorType": "normal",
          "honorId": 123,
          "honorLevel": 6,
          "bondsHonorViewType": "none",
          "bondsHonorWordId": 0
        }
      ],
      "userCheerfulCarnival": {}
    }
  ],
  "rank3000": [
    {
      "userId": 21680895245537290,
      "score": 8950979,
      "rank": 3000,
      "isOwn": false,
      "name": "そばさん",
      "userCard": {
        "cardId": 176,
        "level": 60,
        "masterRank": 5,
        "specialTrainingStatus": "done",
        "defaultImage": "special_training"
      },
      "userProfile": {
        "userId": 21680895245537290,
        "word": "",
        "twitterId": "soba0119_prsk",
        "profileImageType": "leader"
      },
      "userProfileHonors": [
        {
          "seq": 1,
          "profileHonorType": "normal",
          "honorId": 1075,
          "honorLevel": 1,
          "bondsHonorViewType": "none",
          "bondsHonorWordId": 0
        },
        {
          "seq": 2,
          "profileHonorType": "normal",
          "honorId": 70,
          "honorLevel": 4,
          "bondsHonorViewType": "none",
          "bondsHonorWordId": 0
        },
        {
          "seq": 3,
          "profileHonorType": "normal",
          "honorId": 66,
          "honorLevel": 3,
          "bondsHonorViewType": "none",
          "bondsHonorWordId": 0
        }
      ],
      "userCheerfulCarnival": {}
    }
  ],
  "rank4000": [
    {
      "userId": 17528170869768196,
      "score": 7501612,
      "rank": 4000,
      "isOwn": false,
      "name": "ぁぉﾋﾟ",
      "userCard": {
        "cardId": 361,
        "level": 60,
        "masterRank": 0,
        "specialTrainingStatus": "done",
        "defaultImage": "original"
      },
      "userProfile": {
        "userId": 17528170869768196,
        "word": "10/1宵崎奏 ໒꒱  12/25初音ミク໒꒱",
        "twitterId": "aoi_nightcode",
        "profileImageType": "leader"
      },
      "userProfileHonors": [
        {
          "seq": 1,
          "profileHonorType": "bonds",
          "honorId": 1172101,
          "honorLevel": 4,
          "bondsHonorViewType": "normal",
          "bondsHonorWordId": 1172101
        },
        {
          "seq": 2,
          "profileHonorType": "normal",
          "honorId": 66,
          "honorLevel": 2,
          "bondsHonorWordId": 0
        },
        {
          "seq": 3,
          "profileHonorType": "normal",
          "honorId": 82,
          "honorLevel": 1,
          "bondsHonorViewType": "none",
          "bondsHonorWordId": 0
        }
      ],
      "userCheerfulCarnival": {}
    }
  ],
  "rank5000": [
    {
      "userId": 7403590016598029,
      "score": 7094873,
      "rank": 5000,
      "isOwn": false,
      "name": "なーさ",
      "userCard": {
        "cardId": 196,
        "level": 60,
        "masterRank": 0,
        "specialTrainingStatus": "done",
        "defaultImage": "special_training"
      },
      "userProfile": {
        "userId": 7403590016598029,
        "word": "瑞希は「ちゃん」でも「くん」でもなく『瑞希』なんだよね、、",
        "twitterId": "",
        "profileImageType": "leader"
      },
      "userProfileHonors": [
        {
          "seq": 1,
          "profileHonorType": "bonds",
          "honorId": 1192001,
          "honorLevel": 4,
          "bondsHonorViewType": "reverse",
          "bondsHonorWordId": 1192001
        },
        {
          "seq": 2,
          "profileHonorType": "normal",
          "honorId": 78,
          "honorLevel": 2,
          "bondsHonorViewType": "none",
          "bondsHonorWordId": 0
        },
        {
          "seq": 3,
          "profileHonorType": "normal",
          "honorId": 73,
          "honorLevel": 5,
          "bondsHonorViewType": "none",
          "bondsHonorWordId": 0
        }
      ],
      "userCheerfulCarnival": {}
    }
  ],
  "rank10000": [
    {
      "userId": 5773141247213583,
      "score": 4801876,
      "rank": 10000,
      "isOwn": false,
      "name": "うめだ",
      "userCard": {
        "cardId": 293,
        "level": 60,
        "masterRank": 5,
        "specialTrainingStatus": "done",
        "defaultImage": "special_training"
      },
      "userProfile": {
        "userId": 5773141247213583,
        "word": "求・モチベ",
        "twitterId": "umeumee_11",
        "profileImageType": "leader"
      },
      "userProfileHonors": [
        {
          "seq": 1,
          "profileHonorType": "normal",
          "honorId": 62,
          "honorLevel": 3,
          "bondsHonorViewType": "none",
          "bondsHonorWordId": 0
        },
        {
          "seq": 2,
          "profileHonorType": "normal",
          "honorId": 54,
          "honorLevel": 3,
          "bondsHonorViewType": "none",
          "bondsHonorWordId": 0
        },
        {
          "seq": 3,
          "profileHonorType": "normal",
          "honorId": 58,
          "honorLevel": 3,
          "bondsHonorViewType": "none",
          "bondsHonorWordId": 0
        }
      ],
      "userCheerfulCarnival": {}
    }
  ],
  "rank20000": [
    {
      "userId": 10731146078187532,
      "score": 2706034,
      "rank": 20000,
      "isOwn": false,
      "name": "김사요",
      "userCard": {
        "cardId": 363,
        "level": 60,
        "masterRank": 3,
        "specialTrainingStatus": "done",
        "defaultImage": "special_training"
      },
      "userProfile": {
        "userId": 10731146078187532,
        "word": "롯데리아",
        "twitterId": "",
        "profileImageType": "leader"
      },
      "userProfileHonors": [
        {
          "seq": 1,
          "profileHonorType": "normal",
          "honorId": 38,
          "honorLevel": 1,
          "bondsHonorViewType": "none",
          "bondsHonorWordId": 0
        },
        {
          "seq": 2,
          "profileHonorType": "normal",
          "honorId": 1335,
          "honorLevel": 1,
          "bondsHonorViewType": "none",
          "bondsHonorWordId": 0
        },
        {
          "seq": 3,
          "profileHonorType": "normal",
          "honorId": 123,
          "honorLevel": 10,
          "bondsHonorViewType": "none",
          "bondsHonorWordId": 0
        }
      ],
      "userCheerfulCarnival": {}
    }
  ],
  "rank30000": [
    {
      "userId": 14518185319628812,
      "score": 2081385,
      "rank": 30000,
      "isOwn": false,
      "name": "ネオ",
      "userCard": {
        "cardId": 355,
        "level": 60,
        "masterRank": 5,
        "specialTrainingStatus": "not_doing",
        "defaultImage": "original"
      },
      "userProfile": {
        "userId": 14518185319628812,
        "word": "なんも落ちんかった",
        "twitterId": "Neo_Universe24",
        "profileImageType": "leader"
      },
      "userProfileHonors": [
        {
          "seq": 1,
          "profileHonorType": "normal",
          "honorId": 877,
          "honorLevel": 1,
          "bondsHonorViewType": "none",
          "bondsHonorWordId": 0
        },
        {
          "seq": 2,
          "profileHonorType": "normal",
          "honorId": 6,
          "honorLevel": 5,
          "bondsHonorViewType": "none",
          "bondsHonorWordId": 0
        },
        {
          "seq": 3,
          "profileHonorType": "bonds",
          "honorId": 1010201,
          "honorLevel": 3,
          "bondsHonorViewType": "normal",
          "bondsHonorWordId": 1010201
        }
      ],
      "userCheerfulCarnival": {}
    }
  ],
  "rank40000": [
    {
      "userId": 17969767042473996,
      "score": 1792230,
      "rank": 40000,
      "isOwn": false,
      "name": "はるき♀（調子悪め）",
      "userCard": {
        "cardId": 152,
        "level": 60,
        "masterRank": 0,
        "specialTrainingStatus": "done",
        "defaultImage": "special_training"
      },
      "userProfile": {
        "userId": 17969767042473996,
        "word": "",
        "twitterId": "__h_r_k_m_s__",
        "profileImageType": "leader"
      },
      "userProfileHonors": [
        {
          "seq": 1,
          "profileHonorType": "normal",
          "honorId": 129,
          "honorLevel": 1,
          "bondsHonorWordId": 0
        },
        {
          "seq": 2,
          "profileHonorType": "normal",
          "honorId": 65,
          "honorLevel": 3,
          "bondsHonorWordId": 0
        },
        {
          "seq": 3,
          "profileHonorType": "normal",
          "honorId": 1342,
          "honorLevel": 1,
          "bondsHonorViewType": "none",
          "bondsHonorWordId": 0
        }
      ],
      "userCheerfulCarnival": {}
    }
  ],
  "rank50000": [
    {
      "userId": 64636397226684430,
      "score": 1698998,
      "rank": 50000,
      "isOwn": false,
      "name": "にか",
      "userCard": {
        "cardId": 307,
        "level": 60,
        "masterRank": 1,
        "specialTrainingStatus": "done",
        "defaultImage": "original"
      },
      "userProfile": {
        "userId": 64636397226684430,
        "word": "ごめんなさい!!!落ちてしましました。",
        "twitterId": "",
        "profileImageType": "leader"
      },
      "userProfileHonors": [
        {
          "seq": 1,
          "profileHonorType": "bonds",
          "honorId": 1192001,
          "honorLevel": 2,
          "bondsHonorViewType": "reverse",
          "bondsHonorWordId": 1192001
        },
        {
          "seq": 2,
          "profileHonorType": "normal",
          "honorId": 78,
          "honorLevel": 1,
          "bondsHonorViewType": "none",
          "bondsHonorWordId": 0
        },
        {
          "seq": 3,
          "profileHonorType": "bonds",
          "honorId": 1172001,
          "honorLevel": 1,
          "bondsHonorViewType": "reverse",
          "bondsHonorWordId": 1172001
        }
      ],
      "userCheerfulCarnival": {}
    }
  ],
  "rank100000": [
    {
      "userId": 5330198644391951,
      "score": 1190772,
      "rank": 100000,
      "isOwn": false,
      "name": "ならくは/奈落葉",
      "userCard": {
        "cardId": 196,
        "level": 60,
        "masterRank": 0,
        "specialTrainingStatus": "done",
        "defaultImage": "special_training"
      },
      "userProfile": {
        "userId": 5330198644391951,
        "word": "プロセカ楽しい！",
        "twitterId": "pikanano",
        "profileImageType": "leader"
      },
      "userProfileHonors": [
        {
          "seq": 1,
          "profileHonorType": "normal",
          "honorId": 33,
          "honorLevel": 4
        },
        {
          "seq": 2,
          "profileHonorType": "normal",
          "honorId": 1262,
          "honorLevel": 1
        },
        {
          "seq": 3,
          "profileHonorType": "normal",
          "honorId": 123,
          "honorLevel": 8
        }
      ],
      "userCheerfulCarnival": {}
    }
  ]
}